"Date","RHmean","RHmax","RHmin","Tmean","Tmax","Tmin","Tsum","VPD"
2014-10-20 13:00:00,76.8520833333333,95.4,59.65,15.7116458333333,21.3265,11.3981666666667,15.7116458333333,0.542905542131182
2014-10-21 13:00:00,84.3583333333333,98.15,58.6,13.7518055555556,17.193,8.15316666666667,13.7518055555556,0.416069331485013
2014-10-22 13:00:00,83.8916666666667,92.65,73.7,5.1303125,7.26166666666667,3.8095,5.1303125,0.163619308772581
2014-10-23 13:00:00,83.2083333333333,93.9,64.9,6.44229861111111,9.61466666666667,4.908,6.44229861111111,0.236440626600638
2014-10-24 13:00:00,82.6208333333333,94.15,65.55,6.18897916666667,10.7141666666667,3.673,6.18897916666667,0.245100483255055
2014-10-25 13:00:00,84.1145833333333,93.95,68.6,8.50765277777778,12.3523333333333,4.6835,8.50765277777778,0.25118099694055
2014-10-26 12:00:00,85.4520833333333,94.55,65.7,10.3883333333333,15.4575,7.75733333333333,10.3883333333333,0.329946612266065
2014-10-27 12:00:00,90.60625,99.9,82.85,7.70561111111111,8.77116666666667,6.30983333333333,7.70561111111111,0.097412298009466
2014-10-28 12:00:00,83.9875,93.2,64.65,8.6345625,14.2,6.581,8.6345625,0.319337042476502
2014-10-29 12:00:00,81.7833333333333,91.05,60.95,9.34022222222222,14.697,6.23366666666667,9.34022222222222,0.369056740691001
2014-10-30 12:00:00,81.0479166666667,92.85,60.7,9.36030555555556,15.377,6.0255,9.36030555555556,0.376810233371826
2014-10-31 12:00:00,86.7479166666667,96.45,65.45,7.99509722222222,13.2968333333333,4.06233333333333,7.99509722222222,0.278305727821516
2014-11-01 12:00:00,88.3229166666667,99.85,60.15,8.56965972222222,16.7286666666667,3.80816666666667,8.56965972222222,0.380105277652484
2014-11-02 12:00:00,83.1229166666667,99.85,56,9.05625,16.9313333333333,4.289,9.05625,0.425071388599472
2014-11-03 12:00:00,74.7791666666667,86.5,49.65,9.86485416666667,16.7035,6.49983333333333,9.86485416666667,0.544070045700542
2014-11-04 12:00:00,79.0458333333333,92.65,60.7,9.49557638888889,14.2015,6.19533333333333,9.49557638888889,0.353089833467577
2014-11-05 12:00:00,93.08125,96.05,83.75,3.99627083333333,8.39,0.144333333333333,3.99627083333333,0.101695523322641
2014-11-06 12:00:00,92.2041666666667,95.75,87.65,2.42511805555556,4.17633333333333,0.222666666666667,2.42511805555556,0.0640369127236702
2014-11-07 12:00:00,81.0875,91.05,65.55,6.21532638888889,9.71016666666667,3.2965,6.21532638888889,0.242073704880754
2014-11-08 12:00:00,81.1125,93.6,63.1,6.58498611111111,11.8838333333333,2.6135,6.58498611111111,0.280388869692697
2014-11-09 12:00:00,96.8333333333333,99.9,90.9,4.47755555555556,6.61033333333333,1.6185,4.47755555555556,0.0447224345655495
2014-11-10 12:00:00,98.1604166666667,99.9,92.45,5.97672222222222,7.66966666666667,3.85216666666667,5.97672222222222,0.0399973042164355
2014-11-11 12:00:00,99.1854166666667,99.9,94.25,5.88933333333333,6.543,5.02016666666667,5.88933333333333,0.0283487277024124
2014-11-12 12:00:00,96.9125,99.9,85.4,6.8098125,8.767,5.08033333333333,6.8098125,0.0829369383619392
2014-11-13 12:00:00,93.33125,99.9,84.95,8.76786111111111,10.4303333333333,6.339,8.76786111111111,0.0955814966403141
2014-11-14 12:00:00,97.4416666666667,99.9,89.3,6.71154166666667,8.07833333333333,5.79983333333333,6.71154166666667,0.0581611643722606
2014-11-15 12:00:00,91.0625,99.9,70.35,8.20492361111111,12.0851666666667,6.064,8.20492361111111,0.209570311862826
2014-11-16 12:00:00,89.4875,99.9,61.45,6.55170833333333,11.5673333333333,5.007,6.55170833333333,0.263163638325844
2014-11-17 12:00:00,91.9,97.9,76.75,5.92897916666667,8.79016666666667,3.163,5.92897916666667,0.139630968279692
2014-11-18 12:00:00,89.7375,99.9,71.2,6.56746527777778,8.657,5.32116666666667,6.56746527777778,0.161974821590155
2014-11-19 12:00:00,87.3625,95.85,70.75,5.69719444444444,9.79233333333333,2.01933333333333,5.69719444444444,0.191767966390747
2014-11-20 12:00:00,95.3583333333333,99.9,88.9,3.38805555555556,4.43666666666667,1.121,3.38805555555556,0.0468734076768182
2014-11-21 12:00:00,87.6083333333333,96.05,68.15,6.23221527777778,10.5525,3.071,6.23221527777778,0.217953461459412
2014-11-22 12:00:00,96.8395833333333,99.9,83.75,4.77481944444444,9.84916666666667,2.42716666666667,4.77481944444444,0.099131751636278
2014-11-23 12:00:00,99.8625,99.9,99.85,3.71768055555556,5.05466666666667,2.39616666666667,3.71768055555556,0.00101968397463181
2014-11-24 12:00:00,92.2104166666667,99.9,68.3,7.70097916666667,14.2093333333333,4.36716666666667,7.70097916666667,0.257258735016868
2014-11-25 12:00:00,95.875,99.9,90.9,7.24499305555556,7.63633333333333,6.70766666666667,7.24499305555556,0.0481060707471885
2014-11-26 12:00:00,97.7791666666667,99.9,91.75,6.90023611111111,7.76166666666667,6.37366666666667,6.90023611111111,0.0440183075336223
2014-11-27 12:00:00,97.2645833333333,99.9,88.35,6.14713888888889,7.19216666666667,5.14066666666667,6.14713888888889,0.059573257871258
2014-11-28 12:00:00,98.05,99.9,92.3,4.1538125,5.02416666666667,2.8365,4.1538125,0.0340151774507164
2014-11-29 12:00:00,99.825,99.85,99.8,2.06764583333333,2.6415,1.7195,2.06764583333333,0.00125740236000393
2014-11-30 12:00:00,99.8291666666667,99.85,99.8,2.10597916666667,2.74816666666667,1.67416666666667,2.10597916666667,0.0012613457299302
2014-12-01 12:00:00,97.7895833333333,99.85,93.35,2.03920138888889,2.82783333333333,1.3075,2.03920138888889,0.0253930915940132
2014-12-02 12:00:00,92.4604166666667,95.35,83.8,2.62403472222222,3.83183333333333,1.787,2.62403472222222,0.0812562558185026
2014-12-03 12:00:00,94.7,97.8,90.8,2.8485,3.83116666666667,2.3785,2.8485,0.0449426265310968
2014-12-04 12:00:00,93.9104166666667,99.85,85.05,2.92125,3.9935,1.9985,2.92125,0.0612926349345631
2014-12-05 12:00:00,97.1791666666667,99.85,91.4,2.26835416666667,3.1025,1.823,2.26835416666667,0.0333443130012698
2014-12-06 12:00:00,93.0979166666667,99.85,83.7,2.20302083333333,3.26966666666667,1.5115,2.20302083333333,0.0634609606206626
2014-12-07 12:00:00,91.2333333333333,94.8,84.8,2.60361805555556,3.52033333333333,2.137,2.60361805555556,0.0782793013893976
2014-12-08 12:00:00,93.0583333333333,98.6,87.85,2.33763194444444,3.70483333333333,-0.713833333333333,2.37125694444444,0.0524470775119636
2014-12-09 12:00:00,93.4645833333333,99.85,84.6,0.4664375,2.21766666666667,-1.8915,0.786590277777778,0.0555853731661125
2014-12-10 12:00:00,86.8541666666667,99.8,71.95,0.567097222222222,2.61016666666667,-2.204,1.11581944444444,0.103891527989686
2014-12-11 12:00:00,77.0958333333333,94.1,61.9,4.67981944444444,6.16166666666667,2.579,4.67981944444444,0.201836944515
2014-12-12 12:00:00,63.925,82.7,51.45,5.33690972222222,8.03633333333333,0.3815,5.33690972222222,0.315378995509511
2014-12-13 12:00:00,54.2770833333333,62.45,43.95,7.07182638888889,12.0451666666667,2.327,7.07182638888889,0.529857522023171
2014-12-14 12:00:00,65.3625,86.95,53.65,7.32422916666667,9.32816666666667,6.00866666666667,7.32422916666667,0.333071850303984
2014-12-15 12:00:00,87.6541666666667,94.5,76.45,7.50240277777778,10.1,5.84283333333333,7.50240277777778,0.171001415403194
2014-12-16 12:00:00,86.2125,99.6,63.3,6.53333333333333,8.6,5.3,6.53333333333333,0.20682505794691
2014-12-17 12:00:00,91.525,99.85,72.85,4.34166666666667,5.7,3.4,4.34166666666667,0.124913257031642
2014-12-18 12:00:00,93.29375,99.15,85.5,7.03333333333333,9.9,4.3,7.03333333333333,0.0919624946781243
2014-12-19 12:00:00,81.2479166666667,95.8,68.25,9.57083333333333,12.1,7.5,9.57083333333333,0.245901840762377
2014-12-20 12:00:00,77.9416666666667,99.85,60.7,5.69583333333333,8.4,3.8,5.69583333333333,0.217212620340214
2014-12-21 12:00:00,79.1479166666667,88.4,66.6,3.55,6.2,1.2,3.55,0.196981213258735
2014-12-22 12:00:00,77.5583333333333,90.3,66.4,2.81844444444444,6.2,0.2,2.81844444444444,0.189344711078982
2014-12-23 12:00:00,62.3458333333333,81,39.45,3.83841666666667,10.9351666666667,-0.0236666666666667,3.83940277777778,0.453640846547508
2014-12-24 12:00:00,72.75625,89,59.75,3.59389583333333,8.23616666666667,0.682666666666667,3.59389583333333,0.25469217531531
2014-12-25 12:00:00,83.71875,96.3,64.05,4.15003472222222,6.893,0.2225,4.15003472222222,0.190249288225128
2014-12-26 12:00:00,90.4,94.85,79.05,0.134388888888889,2.3875,-2.6015,0.62475,0.0889789680396811
2014-12-27 12:00:00,95.0708333333333,99.85,80.3,-0.798993055555556,0.393166666666667,-2.81516666666667,0.0809444444444444,0.0622795516004165
2014-12-28 12:00:00,89.24375,96.4,77,-3.05656944444444,-0.162,-7.80533333333333,0,0.0755287086379346
2014-12-29 12:00:00,85.3020833333333,89.05,78.7,-8.78724305555555,-4.67666666666667,-16.1153333333333,0,0.0554708966947633
2014-12-30 12:00:00,89.4270833333333,91.65,86.6,-3.27471527777778,-2.02466666666667,-4.7175,0,0.0532369821161079
2014-12-31 12:00:00,90.1416666666667,93.8,83.45,-3.13336805555556,-0.935833333333333,-6.583,0,0.0587711597353733
2015-01-01 12:00:00,89.775,94.45,82.7,-3.71863194444444,-2.72266666666667,-5.05466666666667,0,0.0548768432959283
2015-01-02 12:00:00,92.5770833333333,98,86.6,-1.37454861111111,1.07133333333333,-4.95683333333333,0.403618055555556,0.0484521294386552
2015-01-03 12:00:00,98.175,99.85,91.8,3.08974305555556,7.26766666666667,0.723666666666667,3.08974305555556,0.0423200967924982
2015-01-04 12:00:00,84.4354166666667,96.5,71.6,2.34971527777778,7.24666666666667,-2.24283333333333,2.64384027777778,0.153756656337637
2015-01-05 12:00:00,79.8166666666667,90.7,55.7,-1.26184027777778,5.22566666666667,-4.27983333333333,0.812166666666667,0.216963928955117
2015-01-06 12:00:00,81.4666666666667,92.2,57.3,-1.50814583333333,4.5215,-5.84366666666667,0.877173611111111,0.195511463985011
2015-01-07 12:00:00,81.5729166666667,90.4,57.2,0.666069444444444,6.08516666666667,-2.55283333333333,1.30993055555556,0.225594718619193
2015-01-08 12:00:00,73.3916666666667,84.65,60.05,3.67115277777778,7.95716666666667,-1.249,3.81475,0.256446270444555
2015-01-09 12:00:00,77.275,87.45,54.95,7.05634722222222,10.2503333333333,5.13616666666667,7.05634722222222,0.336532844669448
2015-01-10 12:00:00,70.2208333333333,85.3,60.65,12.8170902777778,15.4336666666667,10.4913333333333,12.8170902777778,0.438280394947761
2015-01-11 12:00:00,80.4854166666667,93.45,67.45,4.29722222222222,10.8708333333333,0.874333333333333,4.29722222222222,0.233129753218695
2015-01-12 12:00:00,61.9083333333333,73.05,48.3,3.001,6.81683333333333,1.42883333333333,3.001,0.347009025192285
2015-01-13 12:00:00,45.8229166666667,58.45,24.7,6.0983125,12.4646666666667,-0.634,6.12472916666667,0.665621329062311
2015-01-14 12:00:00,80.4958333333333,94.45,53.1,5.49045833333333,9.37333333333333,1.34766666666667,5.49045833333333,0.294771944097482
2015-01-15 12:00:00,69.60625,90.2,54.6,3.73416666666667,8.0325,0.788166666666667,3.73416666666667,0.27574820238508
2015-01-16 12:00:00,76.4729166666667,93.55,61.85,4.31054166666667,7.51416666666667,1.33416666666667,4.31054166666667,0.219652544522789
2015-01-17 12:00:00,95.2791666666667,96.2,93.55,0.543458333333333,2.24433333333333,0.111666666666667,0.543458333333333,0.0348577999632028
2015-01-18 12:00:00,90.7666666666667,95.7,81.95,-1.24998611111111,0.369833333333333,-5.82516666666667,0.0330208333333333,0.0651295271377441
2015-01-19 12:00:00,87.7166666666667,93.65,71.2,-0.688194444444444,3.2415,-3.491,0.447791666666667,0.125987788106611
2015-01-20 12:00:00,93.8854166666667,97.55,88.75,0.341201388888889,2.26833333333333,-0.483666666666667,0.475541666666667,0.0476840423275071
2015-01-21 12:00:00,88.0625,95.6,83.9,-0.147569444444444,0.268833333333333,-0.835833333333333,0.0798194444444444,0.062781600362551
2015-01-22 12:00:00,86.9645833333333,91.8,83.25,-0.614576388888889,0.102166666666667,-1.08083333333333,0.00815277777777778,0.0746761951686847
2015-01-23 12:00:00,88.0625,91.7,81.55,-0.698402777777778,-0.0783333333333333,-1.53666666666667,0,0.0786755422338445
2015-01-24 12:00:00,87.15,93.6,74.75,-0.3738125,1.543,-1.67483333333333,0.247993055555556,0.103503007356914
2015-01-25 12:00:00,86.5791666666667,93.95,73.85,-1.46065277777778,0.774166666666667,-3.173,0.0934097222222222,0.0990963556595548
2015-01-26 12:00:00,88.5,97.55,75.65,-2.64997916666667,-0.920333333333333,-4.96566666666667,0,0.0747018924656844
2015-01-27 12:00:00,89.7458333333333,98.3,78.65,0.427083333333333,2.79633333333333,-0.554166666666667,0.512451388888889,0.084715849464212
2015-01-28 12:00:00,79.5333333333333,94.25,66.2,-0.0302361111111111,2.065,-4.6025,0.9106875,0.132288572829535
2015-01-29 12:00:00,93.6895833333333,96.85,82.75,0.912375,2.222,-0.176,0.930694444444444,0.0713329019793955
2015-01-30 12:00:00,85.6895833333333,99.05,70.4,-0.265979166666667,1.039,-1.55083333333333,0.190222222222222,0.100056573722438
2015-01-31 12:00:00,82.3625,94.25,57.65,0.307694444444444,3.63416666666667,-1.47533333333333,0.755847222222222,0.18358603318804
2015-02-01 12:00:00,85.9666666666667,94.4,70.45,-0.899340277777778,1.08016666666667,-3.62633333333333,0.108611111111111,0.110673203278138
2015-02-02 12:00:00,89.9458333333333,95.7,75.75,-0.687590277777778,1.06633333333333,-1.6175,0.1198125,0.0916723831137849
2015-02-03 12:00:00,84.9770833333333,94.3,75.15,-2.76021527777778,0.3315,-4.53516666666667,0.0138125,0.09017644600842
2015-02-04 12:00:00,77.4770833333333,85.3,65.35,-3.72997916666667,-1.18016666666667,-5.8025,0,0.126189945343935
2015-02-05 12:00:00,76.2333333333333,81.35,70.45,-3.44090277777778,-2.55666666666667,-3.951,0,0.117288242968438
2015-02-06 12:00:00,74.7583333333333,81.55,68.4,-3.14490277777778,-2.24216666666667,-4.232,0,0.123027995948448
2015-02-07 12:00:00,72.70625,83.05,66.85,-5.20456944444444,-2.8695,-9.163,0,0.107819531070386
2015-02-08 12:00:00,82.6166666666667,87.3,72.45,-4.94781944444444,-0.0648333333333333,-10.6761666666667,0,0.100933990752918
2015-02-09 12:00:00,74.0729166666667,87.35,51.2,-4.26536111111111,1.41933333333333,-9.48166666666667,0.0952569444444444,0.183979452545458
2015-02-10 12:00:00,76.2791666666667,86.35,62.75,-2.28877777777778,3.446,-7.55133333333333,0.741930555555556,0.169295359120584
2015-02-11 12:00:00,84.79375,94.25,61.75,-1.83746527777778,6.98083333333333,-5.42833333333333,0.642659722222222,0.203073964590429
2015-02-12 12:00:00,91.3604166666667,96.95,70.2,-3.1563125,2.06366666666667,-5.79933333333333,0.2063125,0.111663968485176
2015-02-13 12:00:00,87.3104166666667,94.7,61.65,-2.7868125,3.30716666666667,-8.327,0.411784722222222,0.157137351590566
2015-02-14 12:00:00,83.6270833333333,95.45,60.75,-0.484479166666667,6.19666666666667,-4.601,1.3675625,0.195904969271141
2015-02-15 12:00:00,94.3104166666667,97.2,90.7,-1.70859722222222,0.0508333333333333,-2.99616666666667,0.00211805555555556,0.0353641785663525
2015-02-16 12:00:00,92.8645833333333,96.7,82.8,-1.53995833333333,0.120833333333333,-2.40166666666667,0.00890277777777778,0.0614394481398913
2015-02-17 12:00:00,93.5395833333333,98.1,87.4,-1.05157638888889,0.153166666666667,-2.02483333333333,0.00638194444444444,0.0439126543702565
2015-02-18 12:00:00,87.6708333333333,92.6,83,-1.65225,-0.991,-2.35333333333333,0,0.0673004709951386
2015-02-19 12:00:00,73.2833333333333,85.55,53.7,0.782819444444445,6.02516666666667,-1.80883333333333,1.52149305555556,0.255503248578774
2015-02-20 12:00:00,49.7291666666667,72.6,32.95,3.21864583333333,10.992,-2.89933333333333,3.55277777777778,0.507438051393794
2015-02-21 12:00:00,77.775,95.7,60.75,1.50159027777778,5.0385,-1.06766666666667,1.62997222222222,0.183797818651114
2015-02-22 12:00:00,85.7645833333333,95.7,64.7,0.638652777777778,3.94416666666667,-3.00833333333333,1.05033333333333,0.153497898614757
2015-02-23 12:00:00,92.7895833333333,98.05,77.4,-0.357291666666667,2.39616666666667,-3.73116666666667,0.739895833333333,0.0865461979967134
2015-02-24 12:00:00,79.7104166666667,95.5,65.85,2.13813888888889,4.24116666666667,-0.250833333333333,2.14859027777778,0.154733324803608
2015-02-25 12:00:00,76.6229166666667,87.3,56.45,1.68070833333333,6.5465,-1.79533333333333,1.90033333333333,0.245455053752338
2015-02-26 12:00:00,68.3479166666667,87.45,52.35,0.794388888888889,6.19583333333333,-3.68983333333333,1.8951875,0.255005933588498
2015-02-27 12:00:00,84.25,96.4,50.9,1.11613888888889,2.07433333333333,-0.00883333333333333,1.11650694444444,0.185146034568434
2015-02-28 12:00:00,86.1791666666667,97.15,61.7,1.48799305555556,5.18266666666667,-1.185,1.60952083333333,0.177170846487457
2015-03-01 12:00:00,87.6666666666667,96.75,71.35,3.71458333333333,7.58583333333333,0.1855,3.71458333333333,0.159453054111456
2015-03-02 12:00:00,81.3041666666667,97.3,63.6,6.32834027777778,8.63433333333333,3.09233333333333,6.32834027777778,0.214138245588308
2015-03-03 12:00:00,60.2083333333333,78,40.55,4.89558333333333,9.89083333333333,-0.883333333333333,4.98016666666667,0.425339790907234
2015-03-04 12:00:00,80.4583333333333,92.6,57.45,2.64503472222222,6.1745,-0.798166666666667,2.7184375,0.222680848325581
2015-03-05 12:00:00,69.8083333333333,93.05,45,1.28325,4.79266666666667,-1.81433333333333,1.62401388888889,0.25501668157352
2015-03-06 12:00:00,62.5479166666667,84.55,42.15,1.22761805555556,7.276,-3.485,2.22045138888889,0.331801561056799
2015-03-07 12:00:00,63.70625,82.85,45.05,2.48688194444444,9.2745,-3.638,3.30876388888889,0.361354321154569
2015-03-08 12:00:00,62.8291666666667,81.8,36.55,4.83810416666667,13.974,-1.17683333333333,4.97458333333333,0.557301041191416
2015-03-09 12:00:00,58.0583333333333,80.6,35.1,6.42059722222222,13.934,0.694833333333333,6.42059722222222,0.578841121037026
2015-03-10 12:00:00,58.0541666666667,81.05,34.9,7.40869444444444,13.7495,-0.393666666666667,7.42509722222222,0.568183317582612
2015-03-11 12:00:00,63.9354166666667,80.5,40.65,7.187625,11.0026666666667,3.09733333333333,7.187625,0.464011121248055
2015-03-12 12:00:00,56.5895833333333,73.45,39.25,3.9244375,9.21683333333333,-0.619666666666667,3.98759722222222,0.431363715204593
2015-03-13 12:00:00,65.2208333333333,84.55,43.4,3.15088194444444,9.42666666666667,-2.99083333333333,3.60336805555556,0.372235112591206
2015-03-14 12:00:00,69.95,82.65,53.25,2.35167361111111,7.1835,-1.53166666666667,2.61283333333333,0.284515041285221
2015-03-15 12:00:00,77.3166666666667,89.95,60.15,3.21318055555556,7.895,-0.558833333333333,3.24806944444444,0.241692043552875
2015-03-16 12:00:00,66.0625,85.9,38.35,6.61081944444444,14.2415,1.778,6.61081944444444,0.549508773417841
2015-03-17 12:00:00,60.0125,75,36.7,8.81508333333333,16.9191666666667,3.75166666666667,8.81508333333333,0.71005117943125
2015-03-18 12:00:00,53.68125,72.5,31.9,10.6825,17.1333333333333,3.96916666666667,10.6825,0.776973492350858
2015-03-19 12:00:00,53.4041666666667,81.3,33.6,9.38852777777778,14.7923333333333,3.31783333333333,9.38852777777778,0.631114917749311
2015-03-20 12:00:00,56.5770833333333,70.6,40.1,7.402,14.4691666666667,2.57466666666667,7.402,0.601628990521922
2015-03-21 12:00:00,82.4104166666667,96.15,66.85,6.0476875,10.3243333333333,2.52533333333333,6.0476875,0.222103709299748
2015-03-22 12:00:00,86.0875,93.1,79.3,3.41704166666667,5.26933333333333,1.552,3.41704166666667,0.115570791988218
2015-03-23 12:00:00,72.7875,89.15,48.95,6.41529166666667,12.1666666666667,3.268,6.41529166666667,0.403855228719872
2015-03-24 12:00:00,65.6104166666667,93,33.35,7.77615277777778,16.1451666666667,0.895166666666667,7.77615277777778,0.634396908308807
2015-03-25 12:00:00,79.81875,98.45,66.9,6.3619375,11.3945,3.46233333333333,6.3619375,0.229085540716307
2015-03-26 12:00:00,89.0895833333333,98.95,79.1,4.25845833333333,5.56933333333333,2.92983333333333,4.25845833333333,0.0988018580388105
2015-03-27 12:00:00,74.9208333333333,96.8,46.45,5.50195833333333,10.0133333333333,1.572,5.50195833333333,0.340029951205346
2015-03-28 12:00:00,66.75,91.3,38.3,6.50752083333333,13.1486666666667,-0.437666666666667,6.52575694444444,0.492310345088501
2015-03-29 13:00:00,80.1166666666667,89.75,66.7,8.81984722222222,10.8175,6.50083333333333,8.81984722222222,0.265541220448035
2015-03-30 13:00:00,77.45625,92.95,60.5,8.75448611111111,10.43,7.84083333333333,8.75448611111111,0.287007061684121
2015-03-31 13:00:00,66.9416666666667,84.8,53.9,10.4692430555556,14.01,7.76116666666667,10.4692430555556,0.448931294052663
2015-04-01 13:00:00,69.6583333333333,89.85,58.45,4.279,7.4225,2.0945,4.279,0.250306353389924
2015-04-02 13:00:00,82.2520833333333,94.6,60,4.02340972222222,5.30383333333333,1.8815,4.02340972222222,0.197088480206871
2015-04-03 13:00:00,82.8708333333333,99.85,46.65,3.70475694444444,9.52933333333333,-1.28583333333333,3.84104166666667,0.317787064143887
2015-04-04 13:00:00,94.0291666666667,99.55,89.15,4.02206944444444,6.115,1.8725,4.02206944444444,0.052708261835183
2015-04-05 13:00:00,66.29375,89.15,46.35,2.66026388888889,5.986,-0.5305,2.68236805555556,0.282478277548001
2015-04-06 13:00:00,59.0833333333333,80.2,34.8,2.11972222222222,6.68633333333333,-2.75216666666667,2.80611805555556,0.369014898821778
2015-04-07 13:00:00,55.6833333333333,85.55,28.85,3.04559027777778,9.13033333333333,-2.475,3.55111111111111,0.448818808222844
2015-04-08 13:00:00,43.8083333333333,71.6,18.2,6.27654166666667,14.3933333333333,-2.38333333333333,6.83378472222222,0.743500161044891
2015-04-09 13:00:00,48.36875,74.1,28.65,9.86348611111111,18.9173333333333,0.00316666666666665,9.86348611111111,0.859003089668913
2015-04-10 13:00:00,41.7083333333333,60.45,20.5,12.9200763888889,20.456,5.35166666666667,12.9200763888889,1.132809679132
2015-04-11 13:00:00,53.4291666666667,69.25,36.4,12.2915902777778,14.7681666666667,9.62416666666667,12.2915902777778,0.718355439923309
2015-04-12 13:00:00,55.3291666666667,75.2,33.25,12.5123125,19.369,6.195,12.5123125,0.867962269857499
2015-04-13 13:00:00,53.24375,75.05,31.05,12.9972083333333,19.6385,7.1995,12.9972083333333,0.9149630052317
2015-04-14 13:00:00,49.3125,78.6,28.1,12.6285138888889,19.96,4.43216666666667,12.6285138888889,0.928234563051738
2015-04-15 13:00:00,40.7645833333333,64.8,17.6,13.9597083333333,23.208,4.40583333333333,13.9597083333333,1.3194048931742
2015-04-16 13:00:00,46.5791666666667,78.4,33.25,14.5544027777778,21.4255,8.82066666666667,14.5544027777778,0.97447774457612
2015-04-17 13:00:00,90.9270833333333,99.05,80.3,11.1514513888889,12.3965,8.89883333333333,11.1514513888889,0.147222414217212
2015-04-18 13:00:00,61.7541666666667,92.8,40.6,7.46474305555556,10.5803333333333,4.39766666666667,7.46474305555556,0.409239574427104
2015-04-19 13:00:00,48.375,70.2,29.1,8.57959027777778,15.402,0.756,8.57959027777778,0.716510170317833
2015-04-20 13:00:00,47.0854166666667,75.25,28.1,10.0387986111111,17.0186666666667,2.35033333333333,10.0387986111111,0.786975057178819
2015-04-21 13:00:00,45.4104166666667,67.55,25.1,11.8607708333333,19.1351666666667,5.36566666666667,11.8607708333333,0.975074864908219
2015-04-22 13:00:00,40.7791666666667,70.05,19.1,14.0424722222222,22.2618333333333,4.27133333333333,14.0424722222222,1.21078879180144
2015-04-23 13:00:00,51.1354166666667,76,32.45,10.546,16.84,4.441,10.546,0.748523805943168
2015-04-24 13:00:00,49.7958333333333,81.25,23,11.9654861111111,20.8453333333333,2.6575,11.9654861111111,1.01777040531329
2015-04-25 13:00:00,65.5479166666667,97.4,45.65,12.7647152777778,17.3358333333333,7.21283333333333,12.7647152777778,0.551105545310665
2015-04-26 13:00:00,72.16875,96.5,49.35,14.1427222222222,19.2461666666667,8.119,14.1427222222222,0.584019971934448
2015-04-27 13:00:00,72.9291666666667,94.5,45.3,14.1315555555556,20.5631666666667,8.47633333333333,14.1315555555556,0.692629368639814
2015-04-28 13:00:00,90.2375,99.05,77,6.81455555555556,11.313,2.4135,6.81455555555556,0.157584143589282
2015-04-29 13:00:00,71.1166666666667,97.15,44.85,7.98888194444444,14.0938333333333,1.29816666666667,7.98888194444444,0.45306809381066
2015-04-30 13:00:00,61.6520833333333,92.75,35.15,11.3930694444444,16.3478333333333,7.67816666666667,11.3930694444444,0.640850191128839
2015-05-01 13:00:00,98.4541666666667,99.9,91.35,9.97109027777778,12.6785,7.31383333333333,9.97109027777778,0.0639406029283722
2015-05-02 13:00:00,88.2041666666667,99.9,65.2,12.7117222222222,16.4588333333333,10.7726666666667,12.7117222222222,0.32642060647804
2015-05-03 13:00:00,96.15625,99.9,84.05,13.8581458333333,17.3636666666667,10.3203333333333,13.8581458333333,0.158758785377775
2015-05-04 13:00:00,86.6979166666667,99.9,72.25,16.0298402777778,19.6346666666667,13.69,16.0298402777778,0.317954848686119
2015-05-05 13:00:00,76.625,99.6,50.25,16.2078402777778,22.4933333333333,12.2878333333333,16.2078402777778,0.680574341716405
2015-05-06 13:00:00,73.8041666666667,99.55,48.05,13.0914166666667,17.5298333333333,9.31166666666667,13.0914166666667,0.52311376196883
2015-05-07 13:00:00,60.575,90.25,34.55,12.3676597222222,18.18,7.45183333333333,12.3676597222222,0.733499701358048
2015-05-08 13:00:00,66.0895833333333,92.15,29.7,14.6074513888889,23.0283333333333,6.40283333333333,14.6074513888889,1.02695023586477
2015-05-09 13:00:00,72.9916666666667,90.2,53.55,14.6298819444444,18.3625,11.3286666666667,14.6298819444444,0.556138894236528
2015-05-10 13:00:00,56.2145833333333,85.05,27.8,14.7616527777778,21.517,7.611,14.7616527777778,1.00480846824738
2015-05-11 13:00:00,54.9229166666667,84.35,28.95,16.6823472222222,25.3446666666667,8.00733333333333,16.6823472222222,1.23265067747899
2015-05-12 13:00:00,46.2770833333333,71.3,24.95,20.4619027777778,28.1136666666667,10.9841666666667,20.4619027777778,1.61600983846714
2015-05-13 13:00:00,56.49375,78.55,41.95,20.3985694444444,25.5416666666667,14.0818333333333,20.3985694444444,1.12189664746871
2015-05-14 13:00:00,61.0020833333333,88.05,48.5,17.6645902777778,20.0353333333333,12.8463333333333,17.6645902777778,0.69202184466018
2015-05-15 13:00:00,93.7666666666667,97.95,84.5,7.88094444444444,10.609,6.77533333333333,7.88094444444444,0.109232903311372
2015-05-16 13:00:00,78.95,94.8,50.6,12.0569375,18.7071666666667,7.64883333333333,12.0569375,0.560151333791291
2015-05-17 13:00:00,65.7583333333333,86.2,42.55,14.3554513888889,20.0868333333333,9.3585,14.3554513888889,0.756445426036656
2015-05-18 13:00:00,60.7979166666667,88.15,38.9,16.0459722222222,23.4846666666667,7.19966666666667,16.0459722222222,0.94394662897076
2015-05-19 13:00:00,78.7333333333333,94.5,68.25,11.5416388888889,13.9896666666667,9.155,11.5416388888889,0.285512175123712
2015-05-20 13:00:00,85.475,94.9,62.7,8.04922222222222,10.8256666666667,6.13633333333333,8.04922222222222,0.266069841836173
2015-05-21 13:00:00,86.0354166666667,94.25,72.5,7.66400694444444,10.185,5.30366666666667,7.66400694444444,0.19656499959086
2015-05-22 13:00:00,69.8604166666667,94.35,53.5,10.6206388888889,14.9833333333333,6.5345,10.6206388888889,0.42347822630405
2015-05-23 13:00:00,66.38125,83.7,48.35,11.6600555555556,16.0815,7.22983333333333,11.6600555555556,0.554971621037134
2015-05-24 13:00:00,65.1645833333333,82,50.1,13.7971319444444,17.4903333333333,10.0545,13.7971319444444,0.609613244911837
2015-05-25 13:00:00,78.4854166666667,97.55,50.4,13.4927291666667,18.9766666666667,10.7973333333333,13.4927291666667,0.560026157493637
2015-05-26 13:00:00,90.21875,97.2,80.15,10.3627847222222,12.6623333333333,8.24833333333333,10.3627847222222,0.160676635412746
2015-05-27 13:00:00,66.1333333333333,95.15,37.55,10.4683958333333,16.471,5.43616666666667,10.4683958333333,0.606873864803728
2015-05-28 13:00:00,57.6541666666667,88.95,29.45,13.2555833333333,21.3381666666667,3.98433333333333,13.2555833333333,0.940563387228644
2015-05-29 13:00:00,52.6020833333333,74.35,32.6,16.7494791666667,23.6213333333333,8.84933333333333,16.7494791666667,1.12869713815439
2015-05-30 13:00:00,64.0625,85.3,50.3,15.4478402777778,19.2503333333333,11.2973333333333,15.4478402777778,0.653046776539984
2015-05-31 13:00:00,58.2958333333333,81.95,39.95,16.6468055555556,22.5018333333333,9.45116666666667,16.6468055555556,0.9252618889486
2015-06-01 13:00:00,66.1520833333333,96.4,44.8,17.9468263888889,23.5891666666667,12.9566666666667,17.9468263888889,0.830353655175124
2015-06-02 13:00:00,68.3541666666667,99.8,37.7,18.7633333333333,25.6875,12.5496666666667,18.7633333333333,1.0293548167637
2015-06-03 13:00:00,52.7479166666667,80.6,35.65,20.5620902777778,27.0546666666667,13.766,20.5620902777778,1.30355802023632
2015-06-04 13:00:00,58.9541666666667,78.9,42.65,21.5846666666667,27.7926666666667,15.111,21.5846666666667,1.25208241438908
2015-06-05 13:00:00,55.2770833333333,79.35,34.55,23.7440972222222,30.6805,16.03,23.7440972222222,1.63176725042727
2015-06-06 13:00:00,59.65625,89.45,35.95,23.3925763888889,30.4616666666667,16.3276666666667,23.3925763888889,1.49318141444655
2015-06-07 13:00:00,62.6833333333333,98,40.45,22.1248888888889,27.9778333333333,14.7721666666667,22.1248888888889,1.14082738712958
2015-06-08 13:00:00,80.9625,98.55,61.9,16.8536458333333,21.33,13.718,16.8536458333333,0.494842941689819
2015-06-09 13:00:00,86.0979166666667,95.6,75.9,12.8105416666667,14.1538333333333,11.694,12.8105416666667,0.224802637705695
2015-06-10 13:00:00,81.8916666666667,97.1,68.85,14.6321041666667,18.0373333333333,11.3375,14.6321041666667,0.341687309397619
2015-06-11 13:00:00,71.35625,92.5,50.3,18.6217291666667,24.5728333333333,13.289,18.6217291666667,0.824621060744999
2015-06-12 13:00:00,62.8104166666667,90.05,36.3,20.5967152777778,28.573,13.1848333333333,20.5967152777778,1.32008214906363
2015-06-13 13:00:00,66.8,89.6,47.45,19.8562013888889,24.8395,15.3538333333333,19.8562013888889,0.915127763576761
2015-06-14 13:00:00,83.1104166666667,98.9,61,18.0944791666667,23.6036666666667,14.6088333333333,18.0944791666667,0.577310684639301
2015-06-15 13:00:00,91.7625,99.2,81.35,15.6497291666667,17.4865,14.425,15.6497291666667,0.192912842324716
2015-06-16 13:00:00,80.7354166666667,98.35,59.05,15.8845555555556,20.2698333333333,13.7493333333333,15.8845555555556,0.499794207911608
2015-06-17 13:00:00,62.3166666666667,81.3,43.5,16.0289305555556,20.591,11.9971666666667,16.0289305555556,0.816236208655687
2015-06-18 13:00:00,84.1875,99.65,63.4,14.4028958333333,17.6808333333333,9.73933333333333,14.4028958333333,0.372308043472883
2015-06-19 13:00:00,68.9270833333333,99.15,42.8,15.2218541666667,19.2938333333333,12.1868333333333,15.2218541666667,0.646102431433356
2015-06-20 13:00:00,77.775,91.75,59.95,12.8262083333333,16.1211666666667,11.289,12.8262083333333,0.422137971122808
2015-06-21 13:00:00,86.8083333333333,97.2,70.65,13.3147430555556,17.6768333333333,10.2835,13.3147430555556,0.314311081564507
2015-06-22 13:00:00,76.7375,95.55,49.8,16.2883819444444,21.2306666666667,11.7788333333333,16.2883819444444,0.663892710661094
2015-06-23 13:00:00,68.4791666666667,97.4,46.4,13.4965555555556,17.0975,9.08066666666667,13.4965555555556,0.537535181803021
2015-06-24 13:00:00,59.88125,88.6,37.65,14.0648402777778,20.4678333333333,6.53033333333333,14.0648402777778,0.805629411247939
2015-06-25 13:00:00,55.4625,84.95,27.85,16.5891388888889,23.99,8.43566666666667,16.5891388888889,1.15895497424299
2015-06-26 13:00:00,53.9145833333333,76.5,29.75,18.7673125,26.0608333333333,9.88683333333333,18.7673125,1.32815339989582
2015-06-27 13:00:00,61.1833333333333,76.3,42.1,19.2261180555556,25.3798333333333,13.726,19.2261180555556,1.12411860818752
2015-06-28 13:00:00,54.4583333333333,78.1,29.7,19.3446041666667,25.085,14.2693333333333,19.3446041666667,1.29725419688723
2015-06-29 13:00:00,57.1875,82.3,30.45,19.5624166666667,27.0795,12.2836666666667,19.5624166666667,1.3721093471562
2015-06-30 13:00:00,49.08125,73.55,26.45,22.0627986111111,28.7458333333333,13.1843333333333,22.0627986111111,1.65207011233667
2015-07-01 13:00:00,51.2854166666667,73.15,31.6,23.8016458333333,31.0265,15.1311666666667,23.8016458333333,1.76966932727201
2015-07-02 13:00:00,52.4479166666667,73.25,31.05,25.7496944444444,33.5956666666667,17.074,25.7496944444444,2.05332078776525
2015-07-03 13:00:00,51.925,68.35,36.85,26.9207361111111,33.3261666666667,20.1065,26.9207361111111,1.99003821772362
2015-07-04 13:00:00,49.8979166666667,77.25,25.65,27.0105416666667,35.0315,18.3106666666667,27.0105416666667,2.33327790285745
2015-07-05 13:00:00,50.4041666666667,72.5,28.55,27.5183333333333,35.1825,18.1721666666667,27.5183333333333,2.31593857771465
2015-07-06 13:00:00,63.5875,82.55,46.1,24.8035,29.728,20.5631666666667,24.8035,1.3370230712584
2015-07-07 13:00:00,56.9854166666667,88.7,26.6,27.3350069444444,35.4306666666667,19.1233333333333,27.3350069444444,2.23826361804292
2015-07-08 13:00:00,59.9645833333333,82.1,40.15,19.5272916666667,21.489,16.7923333333333,19.5272916666667,0.938043793428833
2015-07-09 13:00:00,50.1666666666667,61.9,36.05,18.1742430555556,22.139,14.4171666666667,18.1742430555556,1.16546302603937
2015-07-10 13:00:00,49.9875,74.25,30,18.7178958333333,25.1738333333333,11.6615,18.7178958333333,1.29684310480932
