UID,plot_number,range,range_in_lot,row,row_in_lot,sowing_number,id,block_factor_names.range_block,block_factor_names.row_block,block_factor_names.spatial_block,block_factor_names.spatial_check,treatment_factor_names.set_lp01,genotype_id,genotype.UID,genotype.name,year_site.UID
FPWW0180001,1,1,2,1,3,42,128,1,1,1,0,None,110,CHE008:CP110:Triticum,SKATER,FPWW018_lot2
FPWW0180002,2,2,3,1,3,43,129,1,1,1,0,None,298,CHE008:CP298:Triticum,NARIDANA,FPWW018_lot2
FPWW0180003,3,3,4,1,3,44,130,1,1,1,0,None,381,CHE008:CP381:Triticum,TAIFUN,FPWW018_lot2
FPWW0180004,4,4,5,1,3,45,131,1,1,1,0,None,83,CHE008:CP83:Triticum,MAGNUS,FPWW018_lot2
FPWW0180005,5,5,6,1,3,46,132,1,1,1,0,None,375,CHE008:CP375:Triticum,PHILIUS,FPWW018_lot2
FPWW0180006,6,6,7,1,3,47,133,1,1,1,0,None,235,CHE008:CP235:Triticum,H03309,FPWW018_lot2
FPWW0180007,7,7,8,1,3,48,134,2,1,2,0,None,309,CHE008:CP309:Triticum,ZAWISZA,FPWW018_lot2
FPWW0180008,8,8,9,1,3,49,135,2,1,2,0,None,184,CHE008:CP184:Triticum,INOUI,FPWW018_lot2
FPWW0180009,9,9,10,1,3,50,136,2,1,2,0,None,187,CHE008:CP187:Triticum,INSTINCT,FPWW018_lot2
FPWW0180010,10,10,11,1,3,51,137,2,1,2,0,None,282,CHE008:CP282:Triticum,SEMPER,FPWW018_lot2
FPWW0180011,11,11,12,1,3,52,138,2,1,2,0,None,256,CHE008:CP256:Triticum,HEREFORD,FPWW018_lot2
FPWW0180012,12,12,13,1,3,53,139,2,1,2,0,None,373,CHE008:CP373:Triticum,TRAVIX,FPWW018_lot2
FPWW0180013,13,13,14,1,3,54,140,3,1,3,0,None,226,CHE008:CP226:Triticum,CCB INGÉNIO,FPWW018_lot2
FPWW0180014,14,14,15,1,3,55,141,3,1,3,0,None,50,CHE008:CP50:Triticum,CARDOS,FPWW018_lot2
FPWW0180015,15,15,16,1,3,56,142,3,1,3,1,None,29,CHE008:CP29:Triticum,SURETTA,FPWW018_lot2
FPWW0180016,16,16,17,1,3,57,143,3,1,3,0,None,346,CHE008:CP346:Triticum,ROBIGUS,FPWW018_lot2
FPWW0180017,17,17,18,1,3,58,144,3,1,3,0,None,16,CHE008:CP16:Triticum,ORZIVAL,FPWW018_lot2
FPWW0180018,18,18,19,1,3,59,145,3,1,3,0,None,76,CHE008:CP76:Triticum,KOCH,FPWW018_lot2
FPWW0180019,19,18,19,2,4,62,146,3,1,3,0,None,70,CHE008:CP70:Triticum,HEROLDO,FPWW018_lot2
FPWW0180020,20,17,18,2,4,63,147,3,1,3,0,None,91,CHE008:CP91:Triticum,MIRAGE,FPWW018_lot2
FPWW0180021,21,16,17,2,4,64,148,3,1,3,1,None,424,CHE008:CP424:Triticum,CH NARA,FPWW018_lot2
FPWW0180022,22,15,16,2,4,65,149,3,1,3,0,None,258,CHE008:CP258:Triticum,PORTLAND,FPWW018_lot2
FPWW0180023,23,14,15,2,4,66,150,3,1,3,0,None,383,CHE008:CP383:Triticum,KWS SCIROCCO LP 509.3.04,FPWW018_lot2
FPWW0180024,24,13,14,2,4,67,151,3,1,3,0,None,171,CHE008:CP171:Triticum,EQUILIBRE,FPWW018_lot2
FPWW0180025,25,12,13,2,4,68,152,2,1,2,0,None,317,CHE008:CP317:Triticum,SW HARNESK,FPWW018_lot2
FPWW0180026,26,11,12,2,4,69,153,2,1,2,0,None,116,CHE008:CP116:Triticum,SW TOPPER,FPWW018_lot2
FPWW0180027,27,10,11,2,4,70,154,2,1,2,0,None,149,CHE008:CP149:Triticum,AUBUSSON,FPWW018_lot2
FPWW0180028,28,9,10,2,4,71,155,2,1,2,0,None,75,CHE008:CP75:Triticum,JENGA,FPWW018_lot2
FPWW0180029,29,8,9,2,4,72,156,2,1,2,0,None,114,CHE008:CP114:Triticum,SOPHYTRA,FPWW018_lot2
FPWW0180030,30,7,8,2,4,73,157,2,1,2,0,None,242,CHE008:CP242:Triticum,BERMUDE,FPWW018_lot2
FPWW0180031,31,6,7,2,4,74,158,1,1,1,0,None,88,CHE008:CP88:Triticum,METEOR,FPWW018_lot2
FPWW0180032,32,5,6,2,4,75,159,1,1,1,0,None,94,CHE008:CP94:Triticum,OLIVIN,FPWW018_lot2
FPWW0180033,33,4,5,2,4,76,160,1,1,1,0,None,124,CHE008:CP124:Triticum,TUAREG,FPWW018_lot2
FPWW0180034,34,3,4,2,4,77,161,1,1,1,0,None,385,CHE008:CP385:Triticum,KWS AURUM LP 819.4.04,FPWW018_lot2
FPWW0180035,35,2,3,2,4,78,162,1,1,1,0,None,283,CHE008:CP283:Triticum,TOWER,FPWW018_lot2
FPWW0180036,36,1,2,2,4,79,163,1,1,1,0,None,313,CHE008:CP313:Triticum,LARS,FPWW018_lot2
FPWW0180037,37,1,2,3,5,82,164,1,1,1,0,None,374,CHE008:CP374:Triticum,VISCOUNT CPBT W 136,FPWW018_lot2
FPWW0180038,38,2,3,3,5,83,165,1,1,1,0,None,2,CHE008:CP2:Triticum,TAMARO,FPWW018_lot2
FPWW0180039,39,3,4,3,5,84,166,1,1,1,0,None,51,CHE008:CP51:Triticum,CERTO,FPWW018_lot2
FPWW0180040,40,4,5,3,5,85,167,1,1,1,0,None,20,CHE008:CP20:Triticum,PROBUS,FPWW018_lot2
FPWW0180041,41,5,6,3,5,86,168,1,1,1,0,None,109,CHE008:CP109:Triticum,SKALMEJE,FPWW018_lot2
FPWW0180042,42,6,7,3,5,87,169,1,1,1,0,None,23,CHE008:CP23:Triticum,HANSWIN,FPWW018_lot2
FPWW0180043,43,7,8,3,5,88,170,2,1,2,0,None,154,CHE008:CP154:Triticum,BAGATELLE 007,FPWW018_lot2
FPWW0180044,44,8,9,3,5,89,171,2,1,2,0,None,333,CHE008:CP333:Triticum,GLADIATOR,FPWW018_lot2
FPWW0180045,45,9,10,3,5,90,172,2,1,2,1,None,424,CHE008:CP424:Triticum,CH NARA,FPWW018_lot2
FPWW0180046,46,10,11,3,5,91,173,2,1,2,0,None,460,CHE008:CP460:Triticum,POSMEDA,FPWW018_lot2
FPWW0180047,47,11,12,3,5,92,174,2,1,2,0,None,39,CHE008:CP39:Triticum,ATLANTIS,FPWW018_lot2
FPWW0180048,48,12,13,3,5,93,175,2,1,2,0,None,445,CHE008:CP445:Triticum,MOLINERA,FPWW018_lot2
FPWW0180049,49,13,14,3,5,94,176,3,1,3,0,None,30,CHE008:CP30:Triticum,RUNAL,FPWW018_lot2
FPWW0180050,50,14,15,3,5,95,177,3,1,3,0,None,336,CHE008:CP336:Triticum,HUMBER,FPWW018_lot2
FPWW0180051,51,15,16,3,5,96,178,3,1,3,0,None,212,CHE008:CP212:Triticum,QUATUOR,FPWW018_lot2
FPWW0180052,52,16,17,3,5,97,179,3,1,3,0,None,267,CHE008:CP267:Triticum,ACHAT,FPWW018_lot2
FPWW0180053,53,17,18,3,5,98,180,3,1,3,0,None,61,CHE008:CP61:Triticum,ENORM,FPWW018_lot2
FPWW0180054,54,18,19,3,5,99,181,3,1,3,0,None,111,CHE008:CP111:Triticum,SOBI,FPWW018_lot2
FPWW0180055,55,18,19,4,6,102,182,3,1,3,0,None,195,CHE008:CP195:Triticum,MAXYL,FPWW018_lot2
FPWW0180056,56,17,18,4,6,103,183,3,1,3,0,None,101,CHE008:CP101:Triticum,PRIVILEG,FPWW018_lot2
FPWW0180057,57,16,17,4,6,104,184,3,1,3,0,None,33,CHE008:CP33:Triticum,AKTEUR,FPWW018_lot2
FPWW0180058,58,15,16,4,6,105,185,3,1,3,0,None,194,CHE008:CP194:Triticum,MARCHEVAL,FPWW018_lot2
FPWW0180059,59,14,15,4,6,106,186,3,1,3,0,None,280,CHE008:CP280:Triticum,ESTICA,FPWW018_lot2
FPWW0180060,60,13,14,4,6,107,187,3,1,3,0,None,304,CHE008:CP304:Triticum,SATYNA,FPWW018_lot2
FPWW0180061,61,12,13,4,6,108,188,2,1,2,0,None,28,CHE008:CP28:Triticum,FOREL,FPWW018_lot2
FPWW0180062,62,11,12,4,6,109,189,2,1,2,0,None,233,CHE008:CP233:Triticum,H04438,FPWW018_lot2
FPWW0180063,63,10,11,4,6,110,190,2,1,2,0,None,71,CHE008:CP71:Triticum,IMPRESSION,FPWW018_lot2
FPWW0180064,64,9,10,4,6,111,191,2,1,2,0,None,65,CHE008:CP65:Triticum,FLAIR,FPWW018_lot2
FPWW0180065,65,8,9,4,6,112,192,2,1,2,0,None,318,CHE008:CP318:Triticum,SW HARPUN,FPWW018_lot2
FPWW0180066,66,7,8,4,6,113,193,2,1,2,0,None,285,CHE008:CP285:Triticum,BOGATKA,FPWW018_lot2
FPWW0180067,67,6,7,4,6,114,194,1,1,1,0,None,84,CHE008:CP84:Triticum,MANAGER,FPWW018_lot2
FPWW0180068,68,5,6,4,6,115,195,1,1,1,0,None,90,CHE008:CP90:Triticum,MILVUS,FPWW018_lot2
FPWW0180069,69,4,5,4,6,116,196,1,1,1,1,None,1,CHE008:CP1:Triticum,CH CLARO,FPWW018_lot2
FPWW0180070,70,3,4,4,6,117,197,1,1,1,1,None,424,CHE008:CP424:Triticum,CH NARA,FPWW018_lot2
FPWW0180071,71,2,3,4,6,118,198,1,1,1,0,None,163,CHE008:CP163:Triticum,CATALAN,FPWW018_lot2
FPWW0180072,72,1,2,4,6,119,199,1,1,1,0,None,12,CHE008:CP12:Triticum,JAZZI,FPWW018_lot2
FPWW0180073,73,1,2,5,7,122,200,1,1,1,0,None,22,CHE008:CP22:Triticum,LORENZO,FPWW018_lot2
FPWW0180074,74,2,3,5,7,123,201,1,1,1,0,None,354,CHE008:CP354:Triticum,SW TATAROS,FPWW018_lot2
FPWW0180075,75,3,4,5,7,124,202,1,1,1,0,None,216,CHE008:CP216:Triticum,SANKARA,FPWW018_lot2
FPWW0180076,76,4,5,5,7,125,203,1,1,1,0,None,364,CHE008:CP364:Triticum,LYNX,FPWW018_lot2
FPWW0180077,77,5,6,5,7,126,204,1,1,1,0,None,219,CHE008:CP219:Triticum,SEYRAC,FPWW018_lot2
FPWW0180078,78,6,7,5,7,127,205,1,1,1,0,None,85,CHE008:CP85:Triticum,MANDUB,FPWW018_lot2
FPWW0180079,79,7,8,5,7,128,206,2,1,2,0,None,249,CHE008:CP249:Triticum,AUDI,FPWW018_lot2
FPWW0180080,80,8,9,5,7,129,207,2,1,2,0,None,156,CHE008:CP156:Triticum,BALTIMOR,FPWW018_lot2
FPWW0180081,81,9,10,5,7,130,208,2,1,2,0,None,449,CHE008:CP449:Triticum,MONTALTO,FPWW018_lot2
FPWW0180082,82,10,11,5,7,131,209,2,1,2,0,None,382,CHE008:CP382:Triticum,MARIN,FPWW018_lot2
FPWW0180083,83,11,12,5,7,132,210,2,1,2,0,None,319,CHE008:CP319:Triticum,SW SKOTTE,FPWW018_lot2
FPWW0180084,84,12,13,5,7,133,211,2,1,2,0,None,340,CHE008:CP340:Triticum,MALACCA,FPWW018_lot2
FPWW0180085,85,13,14,5,7,134,212,3,1,3,0,None,300,CHE008:CP300:Triticum,NUTKA,FPWW018_lot2
FPWW0180086,86,14,15,5,7,135,213,3,1,3,0,None,314,CHE008:CP314:Triticum,MARSHAL,FPWW018_lot2
FPWW0180087,87,15,16,5,7,136,214,3,1,3,0,None,253,CHE008:CP253:Triticum,CONTUR,FPWW018_lot2
FPWW0180088,88,16,17,5,7,137,215,3,1,3,0,None,164,CHE008:CP164:Triticum,CEZANNE,FPWW018_lot2
FPWW0180089,89,17,18,5,7,138,216,3,1,3,0,None,291,CHE008:CP291:Triticum,KOBRA PLUS,FPWW018_lot2
FPWW0180090,90,18,19,5,7,139,217,3,1,3,1,None,1,CHE008:CP1:Triticum,CH CLARO,FPWW018_lot2
FPWW0180091,91,18,19,6,8,142,218,3,1,3,0,None,162,CHE008:CP162:Triticum,CARIBOU,FPWW018_lot2
FPWW0180092,92,17,18,6,8,143,219,3,1,3,0,None,79,CHE008:CP79:Triticum,LEIFFER,FPWW018_lot2
FPWW0180093,93,16,17,6,8,144,220,3,1,3,0,None,135,CHE008:CP135:Triticum,LINDOS,FPWW018_lot2
FPWW0180094,94,15,16,6,8,145,221,3,1,3,0,None,294,CHE008:CP294:Triticum,MARKIZA,FPWW018_lot2
FPWW0180095,95,14,15,6,8,146,222,3,1,3,0,None,211,CHE008:CP211:Triticum,PYTAGOR,FPWW018_lot2
FPWW0180096,96,13,14,6,8,147,223,3,1,3,0,None,332,CHE008:CP332:Triticum,GATSBY,FPWW018_lot2
FPWW0180097,97,12,13,6,8,148,224,2,1,2,0,None,356,CHE008:CP356:Triticum,APOLLO,FPWW018_lot2
FPWW0180098,98,11,12,6,8,149,225,2,1,2,1,None,29,CHE008:CP29:Triticum,SURETTA,FPWW018_lot2
FPWW0180099,99,10,11,6,8,150,226,2,1,2,0,None,108,CHE008:CP108:Triticum,SKAGEN,FPWW018_lot2
FPWW0180100,100,9,10,6,8,151,227,2,1,2,0,None,26,CHE008:CP26:Triticum,ZINAL,FPWW018_lot2
FPWW0180101,101,8,9,6,8,152,228,2,1,2,0,None,36,CHE008:CP36:Triticum,ANTHUS,FPWW018_lot2
FPWW0180102,102,7,8,6,8,153,229,2,1,2,0,None,297,CHE008:CP297:Triticum,NADOBNA,FPWW018_lot2
FPWW0180103,103,6,7,6,8,154,230,1,1,1,0,None,4,CHE008:CP4:Triticum,TANELIN,FPWW018_lot2
FPWW0180104,104,5,6,6,8,155,231,1,1,1,0,None,138,CHE008:CP138:Triticum,EXOTIC,FPWW018_lot2
FPWW0180105,105,4,5,6,8,156,232,1,1,1,0,None,146,CHE008:CP146:Triticum,AROBASE,FPWW018_lot2
FPWW0180106,106,3,4,6,8,157,233,1,1,1,0,None,251,CHE008:CP251:Triticum,BILL,FPWW018_lot2
FPWW0180107,107,2,3,6,8,158,234,1,1,1,0,None,122,CHE008:CP122:Triticum,TORONTO,FPWW018_lot2
FPWW0180108,108,1,2,6,8,159,235,1,1,1,0,None,15,CHE008:CP15:Triticum,GALAXIE,FPWW018_lot2
FPWW0180109,109,1,2,7,9,162,236,1,1,1,0,None,213,CHE008:CP213:Triticum,RAISON,FPWW018_lot2
FPWW0180110,110,2,3,7,9,163,237,1,1,1,0,None,66,CHE008:CP66:Triticum,FORMAT,FPWW018_lot2
FPWW0180111,111,3,4,7,9,164,238,1,1,1,0,None,337,CHE008:CP337:Triticum,HYPERION,FPWW018_lot2
FPWW0180112,112,4,5,7,9,165,239,1,1,1,0,None,328,CHE008:CP328:Triticum,CPBT W130,FPWW018_lot2
FPWW0180113,113,5,6,7,9,166,240,1,1,1,0,None,115,CHE008:CP115:Triticum,STRIKER,FPWW018_lot2
FPWW0180114,114,6,7,7,9,167,241,1,1,1,1,None,29,CHE008:CP29:Triticum,SURETTA,FPWW018_lot2
FPWW0180115,115,7,8,7,9,168,242,2,1,2,1,None,1,CHE008:CP1:Triticum,CH CLARO,FPWW018_lot2
FPWW0180116,116,8,9,7,9,169,243,2,1,2,0,None,456,CHE008:CP456:Triticum,SPONTAN,FPWW018_lot2
FPWW0180117,117,9,10,7,9,170,244,2,1,2,0,None,202,CHE008:CP202:Triticum,ORNICAR,FPWW018_lot2
FPWW0180118,118,10,11,7,9,171,245,2,1,2,0,None,96,CHE008:CP96:Triticum,PAMIER,FPWW018_lot2
FPWW0180119,119,11,12,7,9,172,246,2,1,2,0,None,465,CHE008:CP465:Triticum,DILAGO,FPWW018_lot2
FPWW0180120,120,12,13,7,9,173,247,2,1,2,0,None,278,CHE008:CP278:Triticum,BANQUET,FPWW018_lot2
FPWW0180121,121,13,14,7,9,174,248,3,1,3,0,None,232,CHE008:CP232:Triticum,H05581A,FPWW018_lot2
FPWW0180122,122,14,15,7,9,175,249,3,1,3,0,None,45,CHE008:CP45:Triticum,BUSSARD,FPWW018_lot2
FPWW0180123,123,15,16,7,9,176,250,3,1,3,0,None,131,CHE008:CP131:Triticum,CLIFF,FPWW018_lot2
FPWW0180124,124,16,17,7,9,177,251,3,1,3,0,None,245,CHE008:CP245:Triticum,ALTIGO,FPWW018_lot2
FPWW0180125,125,17,18,7,9,178,252,3,1,3,0,None,302,CHE008:CP302:Triticum,RYWALKA,FPWW018_lot2
FPWW0180126,126,18,19,7,9,179,253,3,1,3,0,None,153,CHE008:CP153:Triticum,AZZURO,FPWW018_lot2
FPWW0180127,127,18,19,8,10,182,254,3,2,6,0,None,168,CHE008:CP168:Triticum,DINOSOR,FPWW018_lot2
FPWW0180128,128,17,18,8,10,183,255,3,2,6,0,None,378,CHE008:CP378:Triticum,URBAN,FPWW018_lot2
FPWW0180129,129,16,17,8,10,184,256,3,2,6,0,None,57,CHE008:CP57:Triticum,DISCUS,FPWW018_lot2
FPWW0180130,130,15,16,8,10,185,257,3,2,6,0,None,136,CHE008:CP136:Triticum,JULIUS,FPWW018_lot2
FPWW0180131,131,14,15,8,10,186,258,3,2,6,0,None,338,CHE008:CP338:Triticum,ISTABRAQ,FPWW018_lot2
FPWW0180132,132,13,14,8,10,187,259,3,2,6,0,None,166,CHE008:CP166:Triticum,CHARGER,FPWW018_lot2
FPWW0180133,133,12,13,8,10,188,260,2,2,4,0,None,464,CHE008:CP464:Triticum,GAUDIO,FPWW018_lot2
FPWW0180134,134,11,12,8,10,189,261,2,2,4,0,None,339,CHE008:CP339:Triticum,LIMERICK,FPWW018_lot2
FPWW0180135,135,10,11,8,10,190,262,2,2,4,1,None,424,CHE008:CP424:Triticum,CH NARA,FPWW018_lot2
FPWW0180136,136,9,10,8,10,191,263,2,2,4,0,None,239,CHE008:CP239:Triticum,PR22R58,FPWW018_lot2
FPWW0180137,137,8,9,8,10,192,264,2,2,4,0,None,299,CHE008:CP299:Triticum,NATEJA,FPWW018_lot2
FPWW0180138,138,7,8,8,10,193,265,2,2,4,0,None,117,CHE008:CP117:Triticum,TABASCO,FPWW018_lot2
FPWW0180139,139,6,7,8,10,194,266,1,2,2,0,None,89,CHE008:CP89:Triticum,MEUNIER,FPWW018_lot2
FPWW0180140,140,5,6,8,10,195,267,1,2,2,0,None,206,CHE008:CP206:Triticum,PARADOR,FPWW018_lot2
FPWW0180141,141,4,5,8,10,196,268,1,2,2,0,None,192,CHE008:CP192:Triticum,LONA,FPWW018_lot2
FPWW0180142,142,3,4,8,10,197,269,1,2,2,0,None,103,CHE008:CP103:Triticum,QUEBON,FPWW018_lot2
FPWW0180143,143,2,3,8,10,198,270,1,2,2,0,None,223,CHE008:CP223:Triticum,TOISONDOR,FPWW018_lot2
FPWW0180144,144,1,2,8,10,199,271,1,2,2,0,None,290,CHE008:CP290:Triticum,KOBIERA,FPWW018_lot2
FPWW0180145,145,1,2,9,11,202,272,1,2,2,0,None,461,CHE008:CP461:Triticum,LINARD,FPWW018_lot2
FPWW0180146,146,2,3,9,11,203,273,1,2,2,0,None,458,CHE008:CP458:Triticum,SPLUGA,FPWW018_lot2
FPWW0180147,147,3,4,9,11,204,274,1,2,2,0,None,275,CHE008:CP275:Triticum,RAINER,FPWW018_lot2
FPWW0180148,148,4,5,9,11,205,275,1,2,2,0,None,181,CHE008:CP181:Triticum,HAUSSMANN,FPWW018_lot2
FPWW0180149,149,5,6,9,11,206,276,1,2,2,0,None,466,CHE008:CP466:Triticum,PONCIONE,FPWW018_lot2
FPWW0180150,150,6,7,9,11,207,277,1,2,2,0,None,366,CHE008:CP366:Triticum,ORESTIS,FPWW018_lot2
FPWW0180151,151,7,8,9,11,208,278,2,2,4,0,None,363,CHE008:CP363:Triticum,KANZLER,FPWW018_lot2
FPWW0180152,152,8,9,9,11,209,279,2,2,4,0,None,58,CHE008:CP58:Triticum,DEKAN,FPWW018_lot2
FPWW0180153,153,9,10,9,11,210,280,2,2,4,0,None,386,CHE008:CP386:Triticum,VANEK,FPWW018_lot2
FPWW0180154,154,10,11,9,11,211,281,2,2,4,0,None,376,CHE008:CP376:Triticum,CAESAR,FPWW018_lot2
FPWW0180155,155,11,12,9,11,212,282,2,2,4,0,None,19,CHE008:CP19:Triticum,CH COMBIN,FPWW018_lot2
FPWW0180156,156,12,13,9,11,213,283,2,2,4,0,None,141,CHE008:CP141:Triticum,ACIENDA,FPWW018_lot2
FPWW0180157,157,13,14,9,11,214,284,3,2,6,1,None,1,CHE008:CP1:Triticum,CH CLARO,FPWW018_lot2
FPWW0180158,158,14,15,9,11,215,285,3,2,6,0,None,387,CHE008:CP387:Triticum,TRAPPE,FPWW018_lot2
FPWW0180159,159,15,16,9,11,216,286,3,2,6,0,None,372,CHE008:CP372:Triticum,SPERBER,FPWW018_lot2
FPWW0180160,160,16,17,9,11,217,287,3,2,6,0,None,198,CHE008:CP198:Triticum,NIRVANA,FPWW018_lot2
FPWW0180161,161,17,18,9,11,218,288,3,2,6,0,None,274,CHE008:CP274:Triticum,GLOBUS,FPWW018_lot2
FPWW0180162,162,18,19,9,11,219,289,3,2,6,0,None,349,CHE008:CP349:Triticum,VELOCITY,FPWW018_lot2
FPWW0180163,163,18,19,10,12,222,290,3,2,6,1,None,424,CHE008:CP424:Triticum,CH NARA,FPWW018_lot2
FPWW0180164,164,17,18,10,12,223,291,3,2,6,1,None,29,CHE008:CP29:Triticum,SURETTA,FPWW018_lot2
FPWW0180165,165,16,17,10,12,224,292,3,2,6,0,None,167,CHE008:CP167:Triticum,CRAKLIN,FPWW018_lot2
FPWW0180166,166,15,16,10,12,225,293,3,2,6,0,None,40,CHE008:CP40:Triticum,BATIS,FPWW018_lot2
FPWW0180167,167,14,15,10,12,226,294,3,2,6,0,None,388,CHE008:CP388:Triticum,BRYZA,FPWW018_lot2
FPWW0180168,168,13,14,10,12,227,295,3,2,6,0,None,52,CHE008:CP52:Triticum,CENTRUM,FPWW018_lot2
FPWW0180169,169,12,13,10,12,228,296,2,2,4,0,None,446,CHE008:CP446:Triticum,ARNOLD,FPWW018_lot2
FPWW0180170,170,11,12,10,12,229,297,2,2,4,0,None,463,CHE008:CP463:Triticum,GENIUS,FPWW018_lot2
FPWW0180171,171,10,11,10,12,230,298,2,2,4,0,None,271,CHE008:CP271:Triticum,ERIWAN,FPWW018_lot2
FPWW0180172,172,9,10,10,12,231,299,2,2,4,0,None,322,CHE008:CP322:Triticum,AMBROSIA,FPWW018_lot2
FPWW0180173,173,8,9,10,12,232,300,2,2,4,0,None,130,CHE008:CP130:Triticum,ZOBEL,FPWW018_lot2
FPWW0180174,174,7,8,10,12,233,301,2,2,4,0,None,43,CHE008:CP43:Triticum,BORNEO,FPWW018_lot2
FPWW0180175,175,6,7,10,12,234,302,1,2,2,0,None,263,CHE008:CP263:Triticum,TORKIL,FPWW018_lot2
FPWW0180176,176,5,6,10,12,235,303,1,2,2,0,None,331,CHE008:CP331:Triticum,EINSTEIN,FPWW018_lot2
FPWW0180177,177,4,5,10,12,236,304,1,2,2,0,None,145,CHE008:CP145:Triticum,ARACK,FPWW018_lot2
FPWW0180178,178,3,4,10,12,237,305,1,2,2,0,None,301,CHE008:CP301:Triticum,OSTKA STRZELECKA,FPWW018_lot2
FPWW0180179,179,2,3,10,12,238,306,1,2,2,0,None,197,CHE008:CP197:Triticum,MERCATO,FPWW018_lot2
FPWW0180180,180,1,2,10,12,239,307,1,2,2,0,None,311,CHE008:CP311:Triticum,APERITIV,FPWW018_lot2
FPWW0180181,181,1,2,11,13,242,308,1,2,2,1,None,29,CHE008:CP29:Triticum,SURETTA,FPWW018_lot2
FPWW0180182,182,2,3,11,13,243,309,1,2,2,1,None,1,CHE008:CP1:Triticum,CH CLARO,FPWW018_lot2
FPWW0180183,183,3,4,11,13,244,310,1,2,2,0,None,48,CHE008:CP48:Triticum,CAPNOR,FPWW018_lot2
FPWW0180184,184,4,5,11,13,245,311,1,2,2,0,None,10,CHE008:CP10:Triticum,CHAUMONT,FPWW018_lot2
FPWW0180185,185,5,6,11,13,246,312,1,2,2,0,None,3,CHE008:CP3:Triticum,LUDWIG,FPWW018_lot2
FPWW0180186,186,6,7,11,13,247,313,1,2,2,0,None,8,CHE008:CP8:Triticum,MAGNO,FPWW018_lot2
FPWW0180187,187,7,8,11,13,248,314,2,2,4,0,None,134,CHE008:CP134:Triticum,HISTORY,FPWW018_lot2
FPWW0180188,188,8,9,11,13,249,315,2,2,4,0,None,357,CHE008:CP357:Triticum,ARES,FPWW018_lot2
FPWW0180189,189,9,10,11,13,250,316,2,2,4,0,None,104,CHE008:CP104:Triticum,RETRO,FPWW018_lot2
FPWW0180190,190,10,11,11,13,251,317,2,2,4,0,None,191,CHE008:CP191:Triticum,KLEBER,FPWW018_lot2
FPWW0180191,191,11,12,11,13,252,318,2,2,4,0,None,326,CHE008:CP326:Triticum,CONSORT,FPWW018_lot2
FPWW0180192,192,12,13,11,13,253,319,2,2,4,0,None,151,CHE008:CP151:Triticum,AVANTAGE,FPWW018_lot2
FPWW0180193,193,13,14,11,13,254,320,3,2,6,0,None,254,CHE008:CP254:Triticum,FASTNET,FPWW018_lot2
FPWW0180194,194,14,15,11,13,255,321,3,2,6,0,None,329,CHE008:CP329:Triticum,DEBEN,FPWW018_lot2
FPWW0180195,195,15,16,11,13,256,322,3,2,6,0,None,248,CHE008:CP248:Triticum,IRIDIUM,FPWW018_lot2
FPWW0180196,196,16,17,11,13,257,323,3,2,6,0,None,389,CHE008:CP389:Triticum,H05606,FPWW018_lot2
FPWW0180197,197,17,18,11,13,258,324,3,2,6,0,None,447,CHE008:CP447:Triticum,FIORINA,FPWW018_lot2
FPWW0180198,198,18,19,11,13,259,325,3,2,6,0,None,377,CHE008:CP377:Triticum,HUSSAR,FPWW018_lot2
FPWW0180199,199,18,19,12,14,262,326,3,2,6,0,None,273,CHE008:CP273:Triticum,FRIDOLIN,FPWW018_lot2
FPWW0180200,200,17,18,12,14,263,327,3,2,6,0,None,324,CHE008:CP324:Triticum,BROMPTON,FPWW018_lot2
FPWW0180201,201,16,17,12,14,264,328,3,2,6,0,None,342,CHE008:CP342:Triticum,MASCOT,FPWW018_lot2
FPWW0180202,202,15,16,12,14,265,329,3,2,6,0,None,189,CHE008:CP189:Triticum,INTENSE,FPWW018_lot2
FPWW0180203,203,14,15,12,14,266,330,3,2,6,0,None,55,CHE008:CP55:Triticum,CUBUS,FPWW018_lot2
FPWW0180204,204,13,14,12,14,267,331,3,2,6,0,None,467,CHE008:CP467:Triticum,SHERIFF,FPWW018_lot2
FPWW0180205,205,12,13,12,14,268,332,2,2,4,0,None,60,CHE008:CP60:Triticum,DRIFTER,FPWW018_lot2
FPWW0180206,206,11,12,12,14,269,333,2,2,4,0,None,238,CHE008:CP238:Triticum,RECITAL,FPWW018_lot2
FPWW0180207,207,10,11,12,14,270,334,2,2,4,0,None,102,CHE008:CP102:Triticum,PROFILUS,FPWW018_lot2
FPWW0180208,208,9,10,12,14,271,335,2,2,4,0,None,180,CHE008:CP180:Triticum,HAMAC,FPWW018_lot2
FPWW0180209,209,8,9,12,14,272,336,2,2,4,0,None,468,CHE008:CP468:Triticum,RUBISKO,FPWW018_lot2
FPWW0180210,210,7,8,12,14,273,337,2,2,4,0,None,308,CHE008:CP308:Triticum,WYDMA,FPWW018_lot2
FPWW0180211,211,6,7,12,14,274,338,1,2,2,0,None,209,CHE008:CP209:Triticum,PR22R20,FPWW018_lot2
FPWW0180212,212,5,6,12,14,275,339,1,2,2,1,None,424,CHE008:CP424:Triticum,CH NARA,FPWW018_lot2
FPWW0180213,213,4,5,12,14,276,340,1,2,2,0,None,330,CHE008:CP330:Triticum,DUXFORD,FPWW018_lot2
FPWW0180214,214,3,4,12,14,277,341,1,2,2,0,None,196,CHE008:CP196:Triticum,MENDEL,FPWW018_lot2
FPWW0180215,215,2,3,12,14,278,342,1,2,2,0,None,107,CHE008:CP107:Triticum,SCHAMANE,FPWW018_lot2
FPWW0180216,216,1,2,12,14,279,343,1,2,2,0,None,200,CHE008:CP200:Triticum,OCTET,FPWW018_lot2
FPWW0180217,217,1,2,13,15,282,344,1,2,2,0,None,97,CHE008:CP97:Triticum,PAROLI,FPWW018_lot2
FPWW0180218,218,2,3,13,15,283,345,1,2,2,0,None,371,CHE008:CP371:Triticum,SLEJPNER,FPWW018_lot2
FPWW0180219,219,3,4,13,15,284,346,1,2,2,0,None,129,CHE008:CP129:Triticum,ZENTOS,FPWW018_lot2
FPWW0180220,220,4,5,13,15,285,347,1,2,2,0,None,62,CHE008:CP62:Triticum,ELLVIS,FPWW018_lot2
FPWW0180221,221,5,6,13,15,286,348,1,2,2,0,None,176,CHE008:CP176:Triticum,FORBAN,FPWW018_lot2
FPWW0180222,222,6,7,13,15,287,349,1,2,2,0,None,185,CHE008:CP185:Triticum,RICHEPAIN,FPWW018_lot2
FPWW0180223,223,7,8,13,15,288,350,2,2,4,0,None,227,CHE008:CP227:Triticum,INÉDIT,FPWW018_lot2
FPWW0180224,224,8,9,13,15,289,351,2,2,4,1,None,29,CHE008:CP29:Triticum,SURETTA,FPWW018_lot2
FPWW0180225,225,9,10,13,15,290,352,2,2,4,0,None,155,CHE008:CP155:Triticum,BALANCE,FPWW018_lot2
FPWW0180226,226,10,11,13,15,291,353,2,2,4,0,None,344,CHE008:CP344:Triticum,MUSKETEER,FPWW018_lot2
FPWW0180227,227,11,12,13,15,292,354,2,2,4,0,None,54,CHE008:CP54:Triticum,CETUS,FPWW018_lot2
FPWW0180228,228,12,13,13,15,293,355,2,2,4,0,None,121,CHE008:CP121:Triticum,TORAS,FPWW018_lot2
FPWW0180229,229,13,14,13,15,294,356,3,2,6,0,None,284,CHE008:CP284:Triticum,BATUTA,FPWW018_lot2
FPWW0180230,230,14,15,13,15,295,357,3,2,6,0,None,279,CHE008:CP279:Triticum,CORSAIRE,FPWW018_lot2
FPWW0180231,231,15,16,13,15,296,358,3,2,6,0,None,244,CHE008:CP244:Triticum,ALDRIC,FPWW018_lot2
FPWW0180232,232,16,17,13,15,297,359,3,2,6,0,None,46,CHE008:CP46:Triticum,BUTEO,FPWW018_lot2
FPWW0180233,233,17,18,13,15,298,360,3,2,6,0,None,125,CHE008:CP125:Triticum,TUKAN,FPWW018_lot2
FPWW0180234,234,18,19,13,15,299,361,3,2,6,0,None,128,CHE008:CP128:Triticum,WINNETOU,FPWW018_lot2
FPWW0180235,235,18,19,14,16,302,362,3,2,6,0,None,64,CHE008:CP64:Triticum,ESKET,FPWW018_lot2
FPWW0180236,236,17,18,14,16,303,363,3,2,6,0,None,305,CHE008:CP305:Triticum,SMUGA,FPWW018_lot2
FPWW0180237,237,16,17,14,16,304,364,3,2,6,0,None,365,CHE008:CP365:Triticum,MIKON,FPWW018_lot2
FPWW0180238,238,15,16,14,16,305,365,3,2,6,0,None,237,CHE008:CP237:Triticum,ORATORIO,FPWW018_lot2
FPWW0180239,239,14,15,14,16,306,366,3,2,6,0,None,225,CHE008:CP225:Triticum,VERSAILLES,FPWW018_lot2
FPWW0180240,240,13,14,14,16,307,367,3,2,6,0,None,13,CHE008:CP13:Triticum,CAPHORN,FPWW018_lot2
FPWW0180241,241,12,13,14,16,308,368,2,2,4,0,None,243,CHE008:CP243:Triticum,EUCLIDE,FPWW018_lot2
FPWW0180242,242,11,12,14,16,309,369,2,2,4,1,None,1,CHE008:CP1:Triticum,CH CLARO,FPWW018_lot2
FPWW0180243,243,10,11,14,16,310,370,2,2,4,0,None,215,CHE008:CP215:Triticum,SAMURAI,FPWW018_lot2
FPWW0180244,244,9,10,14,16,311,371,2,2,4,0,None,307,CHE008:CP307:Triticum,TONACJA,FPWW018_lot2
FPWW0180245,245,8,9,14,16,312,372,2,2,4,0,None,341,CHE008:CP341:Triticum,MARKSMAN,FPWW018_lot2
FPWW0180246,246,7,8,14,16,313,373,2,2,4,0,None,41,CHE008:CP41:Triticum,BISCAY,FPWW018_lot2
FPWW0180247,247,6,7,14,16,314,374,1,2,2,0,None,295,CHE008:CP295:Triticum,MEWA,FPWW018_lot2
FPWW0180248,248,5,6,14,16,315,375,1,2,2,0,None,72,CHE008:CP72:Triticum,INSPIRATION,FPWW018_lot2
FPWW0180249,249,4,5,14,16,316,376,1,2,2,0,None,276,CHE008:CP276:Triticum,VITUS,FPWW018_lot2
FPWW0180250,250,3,4,14,16,317,377,1,2,2,0,None,252,CHE008:CP252:Triticum,CASSIOPEIA,FPWW018_lot2
FPWW0180251,251,2,3,14,16,318,378,1,2,2,0,None,49,CHE008:CP49:Triticum,CARENIUS,FPWW018_lot2
FPWW0180252,252,1,2,14,16,319,379,1,2,2,0,None,175,CHE008:CP175:Triticum,FOLIO,FPWW018_lot2
FPWW0180253,253,1,2,15,17,322,380,1,3,3,0,None,18,CHE008:CP18:Triticum,VANILNOIR,FPWW018_lot2
FPWW0180254,254,2,3,15,17,323,381,1,3,3,0,None,296,CHE008:CP296:Triticum,MUZA,FPWW018_lot2
FPWW0180255,255,3,4,15,17,324,382,1,3,3,0,None,68,CHE008:CP68:Triticum,HALDOR,FPWW018_lot2
FPWW0180256,256,4,5,15,17,325,383,1,3,3,1,None,29,CHE008:CP29:Triticum,SURETTA,FPWW018_lot2
FPWW0180257,257,5,6,15,17,326,384,1,3,3,0,None,370,CHE008:CP370:Triticum,SAVANNAH,FPWW018_lot2
FPWW0180258,258,6,7,15,17,327,385,1,3,3,0,None,335,CHE008:CP335:Triticum,GULLIVER,FPWW018_lot2
FPWW0180259,259,7,8,15,17,328,386,2,3,6,0,None,81,CHE008:CP81:Triticum,LUCIUS,FPWW018_lot2
FPWW0180260,260,8,9,15,17,329,387,2,3,6,0,None,201,CHE008:CP201:Triticum,ORDEAL,FPWW018_lot2
FPWW0180261,261,9,10,15,17,330,388,2,3,6,0,None,355,CHE008:CP355:Triticum,VIVANT,FPWW018_lot2
FPWW0180262,262,10,11,15,17,331,389,2,3,6,0,None,73,CHE008:CP73:Triticum,JAFET,FPWW018_lot2
FPWW0180263,263,11,12,15,17,332,390,2,3,6,0,None,269,CHE008:CP269:Triticum,CAPO,FPWW018_lot2
FPWW0180264,264,12,13,15,17,333,391,2,3,6,0,None,113,CHE008:CP113:Triticum,SOLITÄR,FPWW018_lot2
FPWW0180265,265,13,14,15,17,334,392,3,3,9,0,None,179,CHE008:CP179:Triticum,GRISBY,FPWW018_lot2
FPWW0180266,266,14,15,15,17,335,393,3,3,9,0,None,31,CHE008:CP31:Triticum,ACTROS,FPWW018_lot2
FPWW0180267,267,15,16,15,17,336,394,3,3,9,0,None,459,CHE008:CP459:Triticum,ROSATCH,FPWW018_lot2
FPWW0180268,268,16,17,15,17,337,395,3,3,9,0,None,260,CHE008:CP260:Triticum,SMUGGLER,FPWW018_lot2
FPWW0180269,269,17,18,15,17,338,396,3,3,9,0,None,14,CHE008:CP14:Triticum,MULAN,FPWW018_lot2
FPWW0180270,270,18,19,15,17,339,397,3,3,9,0,None,69,CHE008:CP69:Triticum,HERMANN,FPWW018_lot2
FPWW0180271,271,18,19,16,18,342,398,3,3,9,0,None,9,CHE008:CP9:Triticum,FORNO,FPWW018_lot2
FPWW0180272,272,17,18,16,18,343,399,3,3,9,0,None,210,CHE008:CP210:Triticum,PULSAR,FPWW018_lot2
FPWW0180273,273,16,17,16,18,344,400,3,3,9,0,None,321,CHE008:CP321:Triticum,ALCHEMY,FPWW018_lot2
FPWW0180274,274,15,16,16,18,345,401,3,3,9,0,None,98,CHE008:CP98:Triticum,PETRUS,FPWW018_lot2
FPWW0180275,275,14,15,16,18,346,402,3,3,9,0,None,380,CHE008:CP380:Triticum,MONSUN,FPWW018_lot2
FPWW0180276,276,13,14,16,18,347,403,3,3,9,0,None,229,CHE008:CP229:Triticum,INTÉRÊT,FPWW018_lot2
FPWW0180277,277,12,13,16,18,348,404,2,3,6,0,None,320,CHE008:CP320:Triticum,SW HURTIG,FPWW018_lot2
FPWW0180278,278,11,12,16,18,349,405,2,3,6,0,None,183,CHE008:CP183:Triticum,INCISIF,FPWW018_lot2
FPWW0180279,279,10,11,16,18,350,406,2,3,6,0,None,228,CHE008:CP228:Triticum,CCB PRÉFÉRENCE,FPWW018_lot2
FPWW0180280,280,9,10,16,18,351,407,2,3,6,1,None,424,CHE008:CP424:Triticum,CH NARA,FPWW018_lot2
FPWW0180281,281,8,9,16,18,352,408,2,3,6,0,None,214,CHE008:CP214:Triticum,ROYSSAC,FPWW018_lot2
FPWW0180282,282,7,8,16,18,353,409,2,3,6,0,None,126,CHE008:CP126:Triticum,TULSA,FPWW018_lot2
FPWW0180283,283,6,7,16,18,354,410,1,3,3,0,None,224,CHE008:CP224:Triticum,TROCADERO,FPWW018_lot2
FPWW0180284,284,5,6,16,18,355,411,1,3,3,0,None,27,CHE008:CP27:Triticum,SIMANO,FPWW018_lot2
FPWW0180285,285,4,5,16,18,356,412,1,3,3,0,None,451,CHE008:CP451:Triticum,BARETTA,FPWW018_lot2
FPWW0180286,286,3,4,16,18,357,413,1,3,3,0,None,157,CHE008:CP157:Triticum,BASTIDE,FPWW018_lot2
FPWW0180287,287,2,3,16,18,358,414,1,3,3,0,None,148,CHE008:CP148:Triticum,ATTLASS,FPWW018_lot2
FPWW0180288,288,1,2,16,18,359,415,1,3,3,0,None,316,CHE008:CP316:Triticum,SW GNEJS,FPWW018_lot2
FPWW0180289,289,1,2,17,19,362,416,1,3,3,0,None,288,CHE008:CP288:Triticum,FREGATA,FPWW018_lot2
FPWW0180290,290,2,3,17,19,363,417,1,3,3,0,None,21,CHE008:CP21:Triticum,PAPAGENO,FPWW018_lot2
FPWW0180291,291,3,4,17,19,364,418,1,3,3,0,None,277,CHE008:CP277:Triticum,XENOS,FPWW018_lot2
FPWW0180292,292,4,5,17,19,365,419,1,3,3,0,None,220,CHE008:CP220:Triticum,SISLEY,FPWW018_lot2
FPWW0180293,293,5,6,17,19,366,420,1,3,3,0,None,17,CHE008:CP17:Triticum,TITLIS,FPWW018_lot2
FPWW0180294,294,6,7,17,19,367,421,1,3,3,0,None,454,CHE008:CP454:Triticum,LAGALP,FPWW018_lot2
FPWW0180295,295,7,8,17,19,368,422,2,3,6,0,None,144,CHE008:CP144:Triticum,ALLISTER,FPWW018_lot2
FPWW0180296,296,8,9,17,19,369,423,2,3,6,0,None,133,CHE008:CP133:Triticum,FLORETT,FPWW018_lot2
FPWW0180297,297,9,10,17,19,370,424,2,3,6,0,None,188,CHE008:CP188:Triticum,INTACT,FPWW018_lot2
FPWW0180298,298,10,11,17,19,371,425,2,3,6,0,None,25,CHE008:CP25:Triticum,CH CAMEDO,FPWW018_lot2
FPWW0180299,299,11,12,17,19,372,426,2,3,6,0,None,359,CHE008:CP359:Triticum,HANSEAT,FPWW018_lot2
FPWW0180300,300,12,13,17,19,373,427,2,3,6,0,None,413,CHE008:CP413:Triticum,HYSTAR,FPWW018_lot2
FPWW0180301,301,13,14,17,19,374,428,3,3,9,0,None,334,CHE008:CP334:Triticum,GLASGOW,FPWW018_lot2
FPWW0180302,302,14,15,17,19,375,429,3,3,9,0,None,123,CHE008:CP123:Triticum,TRANSIT,FPWW018_lot2
FPWW0180303,303,15,16,17,19,376,430,3,3,9,0,None,44,CHE008:CP44:Triticum,BRILLIANT,FPWW018_lot2
FPWW0180304,304,16,17,17,19,377,431,3,3,9,1,None,29,CHE008:CP29:Triticum,SURETTA,FPWW018_lot2
FPWW0180305,305,17,18,17,19,378,432,3,3,9,1,None,424,CHE008:CP424:Triticum,CH NARA,FPWW018_lot2
FPWW0180306,306,18,19,17,19,379,433,3,3,9,0,None,231,CHE008:CP231:Triticum,BUENO,FPWW018_lot2
FPWW0180307,307,18,19,18,20,382,434,3,3,9,0,None,343,CHE008:CP343:Triticum,MONTY,FPWW018_lot2
FPWW0180308,308,17,18,18,20,383,435,3,3,9,0,None,150,CHE008:CP150:Triticum,AUTAN,FPWW018_lot2
FPWW0180309,309,16,17,18,20,384,436,3,3,9,0,None,452,CHE008:CP452:Triticum,MONTALBANO,FPWW018_lot2
FPWW0180310,310,15,16,18,20,385,437,3,3,9,0,None,358,CHE008:CP358:Triticum,EXSEPT,FPWW018_lot2
FPWW0180311,311,14,15,18,20,386,438,3,3,9,0,None,266,CHE008:CP266:Triticum,ZANATAN,FPWW018_lot2
FPWW0180312,312,13,14,18,20,387,439,3,3,9,0,None,270,CHE008:CP270:Triticum,ELEMENT,FPWW018_lot2
FPWW0180313,313,12,13,18,20,388,440,2,3,6,0,None,424,CHE008:CP424:Triticum,CH NARA,FPWW018_lot2
FPWW0180314,314,11,12,18,20,389,441,2,3,6,0,None,142,CHE008:CP142:Triticum,AGUILA,FPWW018_lot2
FPWW0180315,315,10,11,18,20,390,442,2,3,6,0,None,424,CHE008:CP424:Triticum,CH NARA,FPWW018_lot2
FPWW0180316,316,9,10,18,20,391,443,2,3,6,0,None,240,CHE008:CP240:Triticum,ASTRADO,FPWW018_lot2
FPWW0180317,317,8,9,18,20,392,444,2,3,6,0,None,272,CHE008:CP272:Triticum,EUROJET,FPWW018_lot2
FPWW0180318,318,7,8,18,20,393,445,2,3,6,0,None,287,CHE008:CP287:Triticum,FINEZJA,FPWW018_lot2
FPWW0180319,319,6,7,18,20,394,446,1,3,3,0,None,205,CHE008:CP205:Triticum,PALADAIN,FPWW018_lot2
FPWW0180320,320,5,6,18,20,395,447,1,3,3,0,None,286,CHE008:CP286:Triticum,FIGURA,FPWW018_lot2
FPWW0180321,321,4,5,18,20,396,448,1,3,3,0,None,160,CHE008:CP160:Triticum,CALISTO,FPWW018_lot2
FPWW0180322,322,3,4,18,20,397,449,1,3,3,1,None,1,CHE008:CP1:Triticum,CH CLARO,FPWW018_lot2
FPWW0180323,323,2,3,18,20,398,450,1,3,3,1,None,424,CHE008:CP424:Triticum,CH NARA,FPWW018_lot2
FPWW0180324,324,1,2,18,20,399,451,1,3,3,0,None,7,CHE008:CP7:Triticum,APACHE,FPWW018_lot2
FPWW0180325,325,1,2,19,21,402,452,1,3,3,0,None,453,CHE008:CP453:Triticum,COLMETTA,FPWW018_lot2
FPWW0180326,326,2,3,19,21,403,453,1,3,3,0,None,140,CHE008:CP140:Triticum,LOCH 3754 ADLON,FPWW018_lot2
FPWW0180327,327,3,4,19,21,404,454,1,3,3,0,None,92,CHE008:CP92:Triticum,MONOPOL,FPWW018_lot2
FPWW0180328,328,4,5,19,21,405,455,1,3,3,0,None,345,CHE008:CP345:Triticum,OAKLEY,FPWW018_lot2
FPWW0180329,329,5,6,19,21,406,456,1,3,3,0,None,264,CHE008:CP264:Triticum,TRINTELLA,FPWW018_lot2
FPWW0180330,330,6,7,19,21,407,457,1,3,3,0,None,82,CHE008:CP82:Triticum,MAGISTER,FPWW018_lot2
FPWW0180331,331,7,8,19,21,408,458,2,3,6,0,None,230,CHE008:CP230:Triticum,EXPERT,FPWW018_lot2
FPWW0180332,332,8,9,19,21,409,459,2,3,6,0,None,53,CHE008:CP53:Triticum,COMPLIMENT,FPWW018_lot2
FPWW0180333,333,9,10,19,21,410,460,2,3,6,0,None,118,CHE008:CP118:Triticum,TAMBOR,FPWW018_lot2
FPWW0180334,334,10,11,19,21,411,461,2,3,6,0,None,177,CHE008:CP177:Triticum,GARCIA,FPWW018_lot2
FPWW0180335,335,11,12,19,21,412,462,2,3,6,0,None,448,CHE008:CP448:Triticum,BERNSTEIN,FPWW018_lot2
FPWW0180336,336,12,13,19,21,413,463,2,3,6,1,None,1,CHE008:CP1:Triticum,CH CLARO,FPWW018_lot2
FPWW0180337,337,13,14,19,21,414,464,3,3,9,0,None,450,CHE008:CP450:Triticum,SAILOR,FPWW018_lot2
FPWW0180338,338,14,15,19,21,415,465,3,3,9,0,None,56,CHE008:CP56:Triticum,CONTRA,FPWW018_lot2
FPWW0180339,339,15,16,19,21,416,466,3,3,9,0,None,112,CHE008:CP112:Triticum,SOKRATES,FPWW018_lot2
FPWW0180340,340,16,17,19,21,417,467,3,3,9,0,None,362,CHE008:CP362:Triticum,IBIS,FPWW018_lot2
FPWW0180341,341,17,18,19,21,418,468,3,3,9,0,None,159,CHE008:CP159:Triticum,BRANDO,FPWW018_lot2
FPWW0180342,342,18,19,19,21,419,469,3,3,9,0,None,190,CHE008:CP190:Triticum,ISENGRAIN,FPWW018_lot2
FPWW0180343,343,18,19,20,22,422,470,3,3,9,0,None,369,CHE008:CP369:Triticum,RENAN,FPWW018_lot2
FPWW0180344,344,17,18,20,22,423,471,3,3,9,0,None,63,CHE008:CP63:Triticum,FEDOR,FPWW018_lot2
FPWW0180345,345,16,17,20,22,424,472,3,3,9,0,None,161,CHE008:CP161:Triticum,CAMPERO,FPWW018_lot2
FPWW0180346,346,15,16,20,22,425,473,3,3,9,0,None,262,CHE008:CP262:Triticum,SYMBOL,FPWW018_lot2
FPWW0180347,347,14,15,20,22,426,474,3,3,9,0,None,137,CHE008:CP137:Triticum,TIGER,FPWW018_lot2
FPWW0180348,348,13,14,20,22,427,475,3,3,9,0,None,208,CHE008:CP208:Triticum,PR 22 R 28,FPWW018_lot2
FPWW0180349,349,12,13,20,22,428,476,2,3,6,0,None,106,CHE008:CP106:Triticum,ROMANUS,FPWW018_lot2
FPWW0180350,350,11,12,20,22,429,477,2,3,6,0,None,218,CHE008:CP218:Triticum,SEMAFOR,FPWW018_lot2
FPWW0180351,351,10,11,20,22,430,478,2,3,6,0,None,67,CHE008:CP67:Triticum,GREIF,FPWW018_lot2
FPWW0180352,352,9,10,20,22,431,479,2,3,6,0,None,462,CHE008:CP462:Triticum,HANSWIN+MONTALTO,FPWW018_lot2
FPWW0180353,353,8,9,20,22,432,480,2,3,6,0,None,384,CHE008:CP384:Triticum,KWS CHAMSIN LP 779.2.04,FPWW018_lot2
FPWW0180354,354,7,8,20,22,433,481,2,3,6,1,None,29,CHE008:CP29:Triticum,SURETTA,FPWW018_lot2
FPWW0180355,355,6,7,20,22,434,482,1,3,3,0,None,289,CHE008:CP289:Triticum,IZYDA,FPWW018_lot2
FPWW0180356,356,5,6,20,22,435,483,1,3,3,0,None,310,CHE008:CP310:Triticum,ZYTA,FPWW018_lot2
FPWW0180357,357,4,5,20,22,436,484,1,3,3,0,None,11,CHE008:CP11:Triticum,CAMBRENA,FPWW018_lot2
FPWW0180358,358,3,4,20,22,437,485,1,3,3,0,None,93,CHE008:CP93:Triticum,NATURASTAR,FPWW018_lot2
FPWW0180359,359,2,3,20,22,438,486,1,3,3,0,None,193,CHE008:CP193:Triticum,MACRO,FPWW018_lot2
FPWW0180360,360,1,2,20,22,439,487,1,3,3,0,None,24,CHE008:CP24:Triticum,ZENITH,FPWW018_lot2
FPWW0180361,361,1,2,21,23,442,488,1,3,3,0,None,353,CHE008:CP353:Triticum,WELFORD,FPWW018_lot2
FPWW0180362,362,2,3,21,23,443,489,1,3,3,0,None,327,CHE008:CP327:Triticum,CORDIALE,FPWW018_lot2
FPWW0180363,363,3,4,21,23,444,490,1,3,3,0,None,100,CHE008:CP100:Triticum,POTENZIAL,FPWW018_lot2
FPWW0180364,364,4,5,21,23,445,491,1,3,3,0,None,42,CHE008:CP42:Triticum,BOOMER,FPWW018_lot2
FPWW0180365,365,5,6,21,23,446,492,1,3,3,0,None,172,CHE008:CP172:Triticum,EQUINOX,FPWW018_lot2
FPWW0180366,366,6,7,21,23,447,493,1,3,3,0,None,259,CHE008:CP259:Triticum,SENAT,FPWW018_lot2
FPWW0180367,367,7,8,21,23,448,494,2,3,6,0,None,5,CHE008:CP5:Triticum,LEVIS,FPWW018_lot2
FPWW0180368,368,8,9,21,23,449,495,2,3,6,0,None,303,CHE008:CP303:Triticum,RUBENS,FPWW018_lot2
FPWW0180369,369,9,10,21,23,450,496,2,3,6,0,None,352,CHE008:CP352:Triticum,ZEBEDEE,FPWW018_lot2
FPWW0180370,370,10,11,21,23,451,497,2,3,6,0,None,6,CHE008:CP6:Triticum,ARINA,FPWW018_lot2
FPWW0180371,371,11,12,21,23,452,498,2,3,6,0,None,368,CHE008:CP368:Triticum,RAMIRO,FPWW018_lot2
FPWW0180372,372,12,13,21,23,453,499,2,3,6,0,None,152,CHE008:CP152:Triticum,AZIMUT,FPWW018_lot2
FPWW0180373,373,13,14,21,23,454,500,3,3,9,0,None,367,CHE008:CP367:Triticum,PRINZ,FPWW018_lot2
FPWW0180374,374,14,15,21,23,455,501,3,3,9,0,None,170,CHE008:CP170:Triticum,EPIDOC,FPWW018_lot2
FPWW0180375,375,15,16,21,23,456,502,3,3,9,1,None,1,CHE008:CP1:Triticum,CH CLARO,FPWW018_lot2
FPWW0180376,376,16,17,21,23,457,503,3,3,9,0,None,293,CHE008:CP293:Triticum,LEGENDA,FPWW018_lot2
FPWW0180377,377,17,18,21,23,458,504,3,3,9,0,None,292,CHE008:CP292:Triticum,KORWETA,FPWW018_lot2
FPWW0180378,378,18,19,21,23,459,505,3,3,9,0,None,236,CHE008:CP236:Triticum,INNOV,FPWW018_lot2
