"date","Plot_ID","Exp_ID","Rep","Gen_ID","Plot","AprilDay","Exp_IDnr","height.cor","RHmean","RHmax","RHmin","Tmean","Tmax","Tmin","Tsum","VPD","GDD"
2017-02-27,"FPWW0180038","FPWW018",1,2,38,-33,2,0.0233265201514698,51.9354166666667,75.15,33.6,6.22950694444445,14.72,-1.79783333333333,6.54879166666667,0.622566881357205,85.3882951388889
2017-02-27,"FPWW0180107","FPWW018",1,122,107,-33,2,0.0268783651854516,51.9354166666667,75.15,33.6,6.22950694444445,14.72,-1.79783333333333,6.54879166666667,0.622566881357205,85.3882951388889
2017-02-27,"FPWW0180115","FPWW018",1,1,115,-33,2,0.0237093952437876,51.9354166666667,75.15,33.6,6.22950694444445,14.72,-1.79783333333333,6.54879166666667,0.622566881357205,85.3882951388889
2017-02-27,"FPWW0180125","FPWW018",1,302,125,-33,2,0.0220890528113074,51.9354166666667,75.15,33.6,6.22950694444445,14.72,-1.79783333333333,6.54879166666667,0.622566881357205,85.3882951388889
2017-02-27,"FPWW0180178","FPWW018",1,301,178,-33,2,0.0230543049071343,51.9354166666667,75.15,33.6,6.22950694444445,14.72,-1.79783333333333,6.54879166666667,0.622566881357205,85.3882951388889
2017-02-27,"FPWW0180245","FPWW018",1,341,245,-33,2,0.0230449645897511,51.9354166666667,75.15,33.6,6.22950694444445,14.72,-1.79783333333333,6.54879166666667,0.622566881357205,85.3882951388889
2017-02-27,"FPWW0180349","FPWW018",1,106,349,-33,2,0.0210074632522752,51.9354166666667,75.15,33.6,6.22950694444445,14.72,-1.79783333333333,6.54879166666667,0.622566881357205,85.3882951388889
2017-02-27,"FPWW0180350","FPWW018",1,218,350,-33,2,0.0239092587245844,51.9354166666667,75.15,33.6,6.22950694444445,14.72,-1.79783333333333,6.54879166666667,0.622566881357205,85.3882951388889
2017-02-27,"FPWW0180436","FPWW018",2,301,436,-33,2,0.0275675441183398,51.9354166666667,75.15,33.6,6.22950694444445,14.72,-1.79783333333333,6.54879166666667,0.622566881357205,85.3882951388889
2017-02-27,"FPWW0180590","FPWW018",2,341,590,-33,2,0.0235523781592656,51.9354166666667,75.15,33.6,6.22950694444445,14.72,-1.79783333333333,6.54879166666667,0.622566881357205,85.3882951388889
2017-02-27,"FPWW0180591","FPWW018",2,106,591,-33,2,0.0258290818190802,51.9354166666667,75.15,33.6,6.22950694444445,14.72,-1.79783333333333,6.54879166666667,0.622566881357205,85.3882951388889
2017-02-27,"FPWW0180604","FPWW018",2,302,604,-33,2,0.0246842021160242,51.9354166666667,75.15,33.6,6.22950694444445,14.72,-1.79783333333333,6.54879166666667,0.622566881357205,85.3882951388889
2017-02-27,"FPWW0180611","FPWW018",2,218,611,-33,2,0.022326236715485,51.9354166666667,75.15,33.6,6.22950694444445,14.72,-1.79783333333333,6.54879166666667,0.622566881357205,85.3882951388889
2017-02-27,"FPWW0180615","FPWW018",2,2,615,-33,2,0.0239326473968822,51.9354166666667,75.15,33.6,6.22950694444445,14.72,-1.79783333333333,6.54879166666667,0.622566881357205,85.3882951388889
2017-02-27,"FPWW0180623","FPWW018",2,1,623,-33,2,0.0281878310433726,51.9354166666667,75.15,33.6,6.22950694444445,14.72,-1.79783333333333,6.54879166666667,0.622566881357205,85.3882951388889
2017-02-27,"FPWW0180673","FPWW018",2,122,673,-33,2,0.029434003727453,51.9354166666667,75.15,33.6,6.22950694444445,14.72,-1.79783333333333,6.54879166666667,0.622566881357205,85.3882951388889
2017-03-10,"FPWW0180038","FPWW018",1,2,38,-22,2,0.0295150542956088,68.0458333333333,99.35,30,6.86765972222222,13.4866666666667,0.549166666666667,6.86765972222222,0.543209064469127,136.083072916667
2017-03-10,"FPWW0180107","FPWW018",1,122,107,-22,2,0.0306142634116382,68.0458333333333,99.35,30,6.86765972222222,13.4866666666667,0.549166666666667,6.86765972222222,0.543209064469127,136.083072916667
2017-03-10,"FPWW0180115","FPWW018",1,1,115,-22,2,0.0301944699149748,68.0458333333333,99.35,30,6.86765972222222,13.4866666666667,0.549166666666667,6.86765972222222,0.543209064469127,136.083072916667
2017-03-10,"FPWW0180125","FPWW018",1,302,125,-22,2,0.0287678709740949,68.0458333333333,99.35,30,6.86765972222222,13.4866666666667,0.549166666666667,6.86765972222222,0.543209064469127,136.083072916667
2017-03-10,"FPWW0180178","FPWW018",1,301,178,-22,2,0.0301848139361215,68.0458333333333,99.35,30,6.86765972222222,13.4866666666667,0.549166666666667,6.86765972222222,0.543209064469127,136.083072916667
2017-03-10,"FPWW0180245","FPWW018",1,341,245,-22,2,0.0311270495687078,68.0458333333333,99.35,30,6.86765972222222,13.4866666666667,0.549166666666667,6.86765972222222,0.543209064469127,136.083072916667
2017-03-10,"FPWW0180349","FPWW018",1,106,349,-22,2,0.0279830590758669,68.0458333333333,99.35,30,6.86765972222222,13.4866666666667,0.549166666666667,6.86765972222222,0.543209064469127,136.083072916667
2017-03-10,"FPWW0180350","FPWW018",1,218,350,-22,2,0.0321229303389638,68.0458333333333,99.35,30,6.86765972222222,13.4866666666667,0.549166666666667,6.86765972222222,0.543209064469127,136.083072916667
2017-03-10,"FPWW0180436","FPWW018",2,301,436,-22,2,0.030589529893186,68.0458333333333,99.35,30,6.86765972222222,13.4866666666667,0.549166666666667,6.86765972222222,0.543209064469127,136.083072916667
2017-03-10,"FPWW0180590","FPWW018",2,341,590,-22,2,0.029763747753376,68.0458333333333,99.35,30,6.86765972222222,13.4866666666667,0.549166666666667,6.86765972222222,0.543209064469127,136.083072916667
2017-03-10,"FPWW0180591","FPWW018",2,106,591,-22,2,0.031749566064152,68.0458333333333,99.35,30,6.86765972222222,13.4866666666667,0.549166666666667,6.86765972222222,0.543209064469127,136.083072916667
2017-03-10,"FPWW0180604","FPWW018",2,302,604,-22,2,0.0301583926219053,68.0458333333333,99.35,30,6.86765972222222,13.4866666666667,0.549166666666667,6.86765972222222,0.543209064469127,136.083072916667
2017-03-10,"FPWW0180611","FPWW018",2,218,611,-22,2,0.0306126556850503,68.0458333333333,99.35,30,6.86765972222222,13.4866666666667,0.549166666666667,6.86765972222222,0.543209064469127,136.083072916667
2017-03-10,"FPWW0180615","FPWW018",2,2,615,-22,2,0.0290159044749804,68.0458333333333,99.35,30,6.86765972222222,13.4866666666667,0.549166666666667,6.86765972222222,0.543209064469127,136.083072916667
2017-03-10,"FPWW0180623","FPWW018",2,1,623,-22,2,0.042245255965157,68.0458333333333,99.35,30,6.86765972222222,13.4866666666667,0.549166666666667,6.86765972222222,0.543209064469127,136.083072916667
2017-03-10,"FPWW0180673","FPWW018",2,122,673,-22,2,0.0314962516873978,68.0458333333333,99.35,30,6.86765972222222,13.4866666666667,0.549166666666667,6.86765972222222,0.543209064469127,136.083072916667
2017-03-17,"FPWW0180038","FPWW018",1,2,38,-15,2,0.0217834230746316,58.7541666666667,81.45,41.3,10.7136458333333,18.79,2.61583333333333,10.7136458333333,0.70492324924971,186.840336805556
2017-03-17,"FPWW0180107","FPWW018",1,122,107,-15,2,0.0210501096143524,58.7541666666667,81.45,41.3,10.7136458333333,18.79,2.61583333333333,10.7136458333333,0.70492324924971,186.840336805556
2017-03-17,"FPWW0180115","FPWW018",1,1,115,-15,2,0.0244583056580982,58.7541666666667,81.45,41.3,10.7136458333333,18.79,2.61583333333333,10.7136458333333,0.70492324924971,186.840336805556
2017-03-17,"FPWW0180125","FPWW018",1,302,125,-15,2,0.0195633243745922,58.7541666666667,81.45,41.3,10.7136458333333,18.79,2.61583333333333,10.7136458333333,0.70492324924971,186.840336805556
2017-03-17,"FPWW0180178","FPWW018",1,301,178,-15,2,0.0220402436899007,58.7541666666667,81.45,41.3,10.7136458333333,18.79,2.61583333333333,10.7136458333333,0.70492324924971,186.840336805556
2017-03-17,"FPWW0180245","FPWW018",1,341,245,-15,2,0.0201294827253653,58.7541666666667,81.45,41.3,10.7136458333333,18.79,2.61583333333333,10.7136458333333,0.70492324924971,186.840336805556
2017-03-17,"FPWW0180349","FPWW018",1,106,349,-15,2,0.018054774638529,58.7541666666667,81.45,41.3,10.7136458333333,18.79,2.61583333333333,10.7136458333333,0.70492324924971,186.840336805556
2017-03-17,"FPWW0180350","FPWW018",1,218,350,-15,2,0.0212614123363112,58.7541666666667,81.45,41.3,10.7136458333333,18.79,2.61583333333333,10.7136458333333,0.70492324924971,186.840336805556
2017-03-17,"FPWW0180436","FPWW018",2,301,436,-15,2,0.0230984293671047,58.7541666666667,81.45,41.3,10.7136458333333,18.79,2.61583333333333,10.7136458333333,0.70492324924971,186.840336805556
2017-03-17,"FPWW0180590","FPWW018",2,341,590,-15,2,0.0225773750597187,58.7541666666667,81.45,41.3,10.7136458333333,18.79,2.61583333333333,10.7136458333333,0.70492324924971,186.840336805556
2017-03-17,"FPWW0180591","FPWW018",2,106,591,-15,2,0.0287216842671553,58.7541666666667,81.45,41.3,10.7136458333333,18.79,2.61583333333333,10.7136458333333,0.70492324924971,186.840336805556
2017-03-17,"FPWW0180604","FPWW018",2,302,604,-15,2,0.0309459498880452,58.7541666666667,81.45,41.3,10.7136458333333,18.79,2.61583333333333,10.7136458333333,0.70492324924971,186.840336805556
2017-03-17,"FPWW0180611","FPWW018",2,218,611,-15,2,0.0258110630751366,58.7541666666667,81.45,41.3,10.7136458333333,18.79,2.61583333333333,10.7136458333333,0.70492324924971,186.840336805556
2017-03-17,"FPWW0180615","FPWW018",2,2,615,-15,2,0.0242653697946447,58.7541666666667,81.45,41.3,10.7136458333333,18.79,2.61583333333333,10.7136458333333,0.70492324924971,186.840336805556
2017-03-17,"FPWW0180623","FPWW018",2,1,623,-15,2,0.0311798234519404,58.7541666666667,81.45,41.3,10.7136458333333,18.79,2.61583333333333,10.7136458333333,0.70492324924971,186.840336805556
2017-03-17,"FPWW0180673","FPWW018",2,122,673,-15,2,0.0214666410677221,58.7541666666667,81.45,41.3,10.7136458333333,18.79,2.61583333333333,10.7136458333333,0.70492324924971,186.840336805556
2017-03-30,"FPWW0180038","FPWW018",1,2,38,-2,2,0.056337443965889,57.1458333333333,79.8,30.3,11.3012083333333,20.1,3.66166666666667,11.3012083333333,0.900152884850987,299.83415625
2017-03-30,"FPWW0180107","FPWW018",1,122,107,-2,2,0.0578292522402706,57.1458333333333,79.8,30.3,11.3012083333333,20.1,3.66166666666667,11.3012083333333,0.900152884850987,299.83415625
2017-03-30,"FPWW0180115","FPWW018",1,1,115,-2,2,0.0838854092162834,57.1458333333333,79.8,30.3,11.3012083333333,20.1,3.66166666666667,11.3012083333333,0.900152884850987,299.83415625
2017-03-30,"FPWW0180125","FPWW018",1,302,125,-2,2,0.0432438600219975,57.1458333333333,79.8,30.3,11.3012083333333,20.1,3.66166666666667,11.3012083333333,0.900152884850987,299.83415625
2017-03-30,"FPWW0180178","FPWW018",1,301,178,-2,2,0.0567217601577813,57.1458333333333,79.8,30.3,11.3012083333333,20.1,3.66166666666667,11.3012083333333,0.900152884850987,299.83415625
2017-03-30,"FPWW0180245","FPWW018",1,341,245,-2,2,0.0495907809892552,57.1458333333333,79.8,30.3,11.3012083333333,20.1,3.66166666666667,11.3012083333333,0.900152884850987,299.83415625
2017-03-30,"FPWW0180349","FPWW018",1,106,349,-2,2,0.0519336531861277,57.1458333333333,79.8,30.3,11.3012083333333,20.1,3.66166666666667,11.3012083333333,0.900152884850987,299.83415625
2017-03-30,"FPWW0180350","FPWW018",1,218,350,-2,2,0.0577031416351061,57.1458333333333,79.8,30.3,11.3012083333333,20.1,3.66166666666667,11.3012083333333,0.900152884850987,299.83415625
2017-03-30,"FPWW0180436","FPWW018",2,301,436,-2,2,0.0465297382177037,57.1458333333333,79.8,30.3,11.3012083333333,20.1,3.66166666666667,11.3012083333333,0.900152884850987,299.83415625
2017-03-30,"FPWW0180590","FPWW018",2,341,590,-2,2,0.0557157035496084,57.1458333333333,79.8,30.3,11.3012083333333,20.1,3.66166666666667,11.3012083333333,0.900152884850987,299.83415625
2017-03-30,"FPWW0180591","FPWW018",2,106,591,-2,2,0.0497957114315718,57.1458333333333,79.8,30.3,11.3012083333333,20.1,3.66166666666667,11.3012083333333,0.900152884850987,299.83415625
2017-03-30,"FPWW0180604","FPWW018",2,302,604,-2,2,0.0533259400366227,57.1458333333333,79.8,30.3,11.3012083333333,20.1,3.66166666666667,11.3012083333333,0.900152884850987,299.83415625
2017-03-30,"FPWW0180611","FPWW018",2,218,611,-2,2,0.0734651372937214,57.1458333333333,79.8,30.3,11.3012083333333,20.1,3.66166666666667,11.3012083333333,0.900152884850987,299.83415625
2017-03-30,"FPWW0180615","FPWW018",2,2,615,-2,2,0.0642086607387019,57.1458333333333,79.8,30.3,11.3012083333333,20.1,3.66166666666667,11.3012083333333,0.900152884850987,299.83415625
2017-03-30,"FPWW0180623","FPWW018",2,1,623,-2,2,0.105210081349449,57.1458333333333,79.8,30.3,11.3012083333333,20.1,3.66166666666667,11.3012083333333,0.900152884850987,299.83415625
2017-03-30,"FPWW0180673","FPWW018",2,122,673,-2,2,0.0679706203960916,57.1458333333333,79.8,30.3,11.3012083333333,20.1,3.66166666666667,11.3012083333333,0.900152884850987,299.83415625
2017-04-07,"FPWW0180038","FPWW018",1,2,38,6,2,0.122353419104381,53.2708333333333,78.4,29.5,8.84338888888889,18.3716666666667,-0.538333333333333,8.88672916666667,0.808159720559448,381.32965625
2017-04-07,"FPWW0180107","FPWW018",1,122,107,6,2,0.118216848149445,53.2708333333333,78.4,29.5,8.84338888888889,18.3716666666667,-0.538333333333333,8.88672916666667,0.808159720559448,381.32965625
2017-04-07,"FPWW0180115","FPWW018",1,1,115,6,2,0.173924124175353,53.2708333333333,78.4,29.5,8.84338888888889,18.3716666666667,-0.538333333333333,8.88672916666667,0.808159720559448,381.32965625
2017-04-07,"FPWW0180125","FPWW018",1,302,125,6,2,0.0835939204042635,53.2708333333333,78.4,29.5,8.84338888888889,18.3716666666667,-0.538333333333333,8.88672916666667,0.808159720559448,381.32965625
2017-04-07,"FPWW0180178","FPWW018",1,301,178,6,2,0.107487033058483,53.2708333333333,78.4,29.5,8.84338888888889,18.3716666666667,-0.538333333333333,8.88672916666667,0.808159720559448,381.32965625
2017-04-07,"FPWW0180245","FPWW018",1,341,245,6,2,0.100528718168145,53.2708333333333,78.4,29.5,8.84338888888889,18.3716666666667,-0.538333333333333,8.88672916666667,0.808159720559448,381.32965625
2017-04-07,"FPWW0180349","FPWW018",1,106,349,6,2,0.107976740323395,53.2708333333333,78.4,29.5,8.84338888888889,18.3716666666667,-0.538333333333333,8.88672916666667,0.808159720559448,381.32965625
2017-04-07,"FPWW0180350","FPWW018",1,218,350,6,2,0.117977562714821,53.2708333333333,78.4,29.5,8.84338888888889,18.3716666666667,-0.538333333333333,8.88672916666667,0.808159720559448,381.32965625
2017-04-07,"FPWW0180436","FPWW018",2,301,436,6,2,0.0878923707017322,53.2708333333333,78.4,29.5,8.84338888888889,18.3716666666667,-0.538333333333333,8.88672916666667,0.808159720559448,381.32965625
2017-04-07,"FPWW0180590","FPWW018",2,341,590,6,2,0.111485134676108,53.2708333333333,78.4,29.5,8.84338888888889,18.3716666666667,-0.538333333333333,8.88672916666667,0.808159720559448,381.32965625
2017-04-07,"FPWW0180591","FPWW018",2,106,591,6,2,0.105270717084288,53.2708333333333,78.4,29.5,8.84338888888889,18.3716666666667,-0.538333333333333,8.88672916666667,0.808159720559448,381.32965625
2017-04-07,"FPWW0180604","FPWW018",2,302,604,6,2,0.104791060797228,53.2708333333333,78.4,29.5,8.84338888888889,18.3716666666667,-0.538333333333333,8.88672916666667,0.808159720559448,381.32965625
2017-04-07,"FPWW0180611","FPWW018",2,218,611,6,2,0.139875970690643,53.2708333333333,78.4,29.5,8.84338888888889,18.3716666666667,-0.538333333333333,8.88672916666667,0.808159720559448,381.32965625
2017-04-07,"FPWW0180615","FPWW018",2,2,615,6,2,0.138938235936673,53.2708333333333,78.4,29.5,8.84338888888889,18.3716666666667,-0.538333333333333,8.88672916666667,0.808159720559448,381.32965625
2017-04-07,"FPWW0180623","FPWW018",2,1,623,6,2,0.194157661884007,53.2708333333333,78.4,29.5,8.84338888888889,18.3716666666667,-0.538333333333333,8.88672916666667,0.808159720559448,381.32965625
2017-04-07,"FPWW0180673","FPWW018",2,122,673,6,2,0.153895182652604,53.2708333333333,78.4,29.5,8.84338888888889,18.3716666666667,-0.538333333333333,8.88672916666667,0.808159720559448,381.32965625
2017-04-13,"FPWW0180038","FPWW018",1,2,38,12,2,0.204737071326286,50.15,64.1,33.15,11.1318125,18.965,4.22883333333333,11.1318125,0.881224824173428,453.55390625
2017-04-13,"FPWW0180107","FPWW018",1,122,107,12,2,0.198550861321304,50.15,64.1,33.15,11.1318125,18.965,4.22883333333333,11.1318125,0.881224824173428,453.55390625
2017-04-13,"FPWW0180115","FPWW018",1,1,115,12,2,0.259520847260775,50.15,64.1,33.15,11.1318125,18.965,4.22883333333333,11.1318125,0.881224824173428,453.55390625
2017-04-13,"FPWW0180125","FPWW018",1,302,125,12,2,0.138363698231463,50.15,64.1,33.15,11.1318125,18.965,4.22883333333333,11.1318125,0.881224824173428,453.55390625
2017-04-13,"FPWW0180178","FPWW018",1,301,178,12,2,0.16899334231092,50.15,64.1,33.15,11.1318125,18.965,4.22883333333333,11.1318125,0.881224824173428,453.55390625
2017-04-13,"FPWW0180245","FPWW018",1,341,245,12,2,0.16050491753371,50.15,64.1,33.15,11.1318125,18.965,4.22883333333333,11.1318125,0.881224824173428,453.55390625
2017-04-13,"FPWW0180349","FPWW018",1,106,349,12,2,0.165477267770893,50.15,64.1,33.15,11.1318125,18.965,4.22883333333333,11.1318125,0.881224824173428,453.55390625
2017-04-13,"FPWW0180350","FPWW018",1,218,350,12,2,0.191291363602603,50.15,64.1,33.15,11.1318125,18.965,4.22883333333333,11.1318125,0.881224824173428,453.55390625
2017-04-13,"FPWW0180436","FPWW018",2,301,436,12,2,0.147027385853264,50.15,64.1,33.15,11.1318125,18.965,4.22883333333333,11.1318125,0.881224824173428,453.55390625
2017-04-13,"FPWW0180590","FPWW018",2,341,590,12,2,0.179002636138689,50.15,64.1,33.15,11.1318125,18.965,4.22883333333333,11.1318125,0.881224824173428,453.55390625
2017-04-13,"FPWW0180591","FPWW018",2,106,591,12,2,0.173514812952242,50.15,64.1,33.15,11.1318125,18.965,4.22883333333333,11.1318125,0.881224824173428,453.55390625
2017-04-13,"FPWW0180604","FPWW018",2,302,604,12,2,0.173649409771049,50.15,64.1,33.15,11.1318125,18.965,4.22883333333333,11.1318125,0.881224824173428,453.55390625
2017-04-13,"FPWW0180611","FPWW018",2,218,611,12,2,0.209482439334426,50.15,64.1,33.15,11.1318125,18.965,4.22883333333333,11.1318125,0.881224824173428,453.55390625
2017-04-13,"FPWW0180615","FPWW018",2,2,615,12,2,0.217391613248769,50.15,64.1,33.15,11.1318125,18.965,4.22883333333333,11.1318125,0.881224824173428,453.55390625
2017-04-13,"FPWW0180623","FPWW018",2,1,623,12,2,0.270280139466223,50.15,64.1,33.15,11.1318125,18.965,4.22883333333333,11.1318125,0.881224824173428,453.55390625
2017-04-13,"FPWW0180673","FPWW018",2,122,673,12,2,0.234283739221849,50.15,64.1,33.15,11.1318125,18.965,4.22883333333333,11.1318125,0.881224824173428,453.55390625
2017-04-18,"FPWW0180038","FPWW018",1,2,38,17,2,0.228240129861807,76.94375,94.15,46.7,2.52532638888889,7.56933333333333,-0.117,2.53020138888889,0.295328999327984,487.777572916666
2017-04-18,"FPWW0180107","FPWW018",1,122,107,17,2,0.227383772674163,76.94375,94.15,46.7,2.52532638888889,7.56933333333333,-0.117,2.53020138888889,0.295328999327984,487.777572916666
2017-04-18,"FPWW0180115","FPWW018",1,1,115,17,2,0.292605199776054,76.94375,94.15,46.7,2.52532638888889,7.56933333333333,-0.117,2.53020138888889,0.295328999327984,487.777572916666
2017-04-18,"FPWW0180125","FPWW018",1,302,125,17,2,0.159645152068424,76.94375,94.15,46.7,2.52532638888889,7.56933333333333,-0.117,2.53020138888889,0.295328999327984,487.777572916666
2017-04-18,"FPWW0180178","FPWW018",1,301,178,17,2,0.191083361865957,76.94375,94.15,46.7,2.52532638888889,7.56933333333333,-0.117,2.53020138888889,0.295328999327984,487.777572916666
2017-04-18,"FPWW0180245","FPWW018",1,341,245,17,2,0.188356898059542,76.94375,94.15,46.7,2.52532638888889,7.56933333333333,-0.117,2.53020138888889,0.295328999327984,487.777572916666
2017-04-18,"FPWW0180349","FPWW018",1,106,349,17,2,0.188891986720858,76.94375,94.15,46.7,2.52532638888889,7.56933333333333,-0.117,2.53020138888889,0.295328999327984,487.777572916666
2017-04-18,"FPWW0180350","FPWW018",1,218,350,17,2,0.221969308754343,76.94375,94.15,46.7,2.52532638888889,7.56933333333333,-0.117,2.53020138888889,0.295328999327984,487.777572916666
2017-04-18,"FPWW0180436","FPWW018",2,301,436,17,2,0.177319956240385,76.94375,94.15,46.7,2.52532638888889,7.56933333333333,-0.117,2.53020138888889,0.295328999327984,487.777572916666
2017-04-18,"FPWW0180590","FPWW018",2,341,590,17,2,0.198355926910237,76.94375,94.15,46.7,2.52532638888889,7.56933333333333,-0.117,2.53020138888889,0.295328999327984,487.777572916666
2017-04-18,"FPWW0180591","FPWW018",2,106,591,17,2,0.20038890598482,76.94375,94.15,46.7,2.52532638888889,7.56933333333333,-0.117,2.53020138888889,0.295328999327984,487.777572916666
2017-04-18,"FPWW0180604","FPWW018",2,302,604,17,2,0.205737034700217,76.94375,94.15,46.7,2.52532638888889,7.56933333333333,-0.117,2.53020138888889,0.295328999327984,487.777572916666
2017-04-18,"FPWW0180611","FPWW018",2,218,611,17,2,0.232693929091536,76.94375,94.15,46.7,2.52532638888889,7.56933333333333,-0.117,2.53020138888889,0.295328999327984,487.777572916666
2017-04-18,"FPWW0180615","FPWW018",2,2,615,17,2,0.240984791929428,76.94375,94.15,46.7,2.52532638888889,7.56933333333333,-0.117,2.53020138888889,0.295328999327984,487.777572916666
2017-04-18,"FPWW0180623","FPWW018",2,1,623,17,2,0.286443309848576,76.94375,94.15,46.7,2.52532638888889,7.56933333333333,-0.117,2.53020138888889,0.295328999327984,487.777572916666
2017-04-18,"FPWW0180673","FPWW018",2,122,673,17,2,0.257602673871672,76.94375,94.15,46.7,2.52532638888889,7.56933333333333,-0.117,2.53020138888889,0.295328999327984,487.777572916666
2017-04-21,"FPWW0180038","FPWW018",1,2,38,20,2,0.222317773853514,46.2604166666667,74.15,23.9,4.98295833333333,15.9633333333333,-4.6715,5.91421527777778,0.746049642395598,497.013232638889
2017-04-21,"FPWW0180107","FPWW018",1,122,107,20,2,0.222645684309289,46.2604166666667,74.15,23.9,4.98295833333333,15.9633333333333,-4.6715,5.91421527777778,0.746049642395598,497.013232638889
2017-04-21,"FPWW0180115","FPWW018",1,1,115,20,2,0.289208355619527,46.2604166666667,74.15,23.9,4.98295833333333,15.9633333333333,-4.6715,5.91421527777778,0.746049642395598,497.013232638889
2017-04-21,"FPWW0180125","FPWW018",1,302,125,20,2,0.15736612993501,46.2604166666667,74.15,23.9,4.98295833333333,15.9633333333333,-4.6715,5.91421527777778,0.746049642395598,497.013232638889
2017-04-21,"FPWW0180178","FPWW018",1,301,178,20,2,0.188065578968263,46.2604166666667,74.15,23.9,4.98295833333333,15.9633333333333,-4.6715,5.91421527777778,0.746049642395598,497.013232638889
2017-04-21,"FPWW0180245","FPWW018",1,341,245,20,2,0.180060507100397,46.2604166666667,74.15,23.9,4.98295833333333,15.9633333333333,-4.6715,5.91421527777778,0.746049642395598,497.013232638889
2017-04-21,"FPWW0180349","FPWW018",1,106,349,20,2,0.18515506886663,46.2604166666667,74.15,23.9,4.98295833333333,15.9633333333333,-4.6715,5.91421527777778,0.746049642395598,497.013232638889
2017-04-21,"FPWW0180350","FPWW018",1,218,350,20,2,0.21500288282771,46.2604166666667,74.15,23.9,4.98295833333333,15.9633333333333,-4.6715,5.91421527777778,0.746049642395598,497.013232638889
2017-04-21,"FPWW0180436","FPWW018",2,301,436,20,2,0.169599429253664,46.2604166666667,74.15,23.9,4.98295833333333,15.9633333333333,-4.6715,5.91421527777778,0.746049642395598,497.013232638889
2017-04-21,"FPWW0180590","FPWW018",2,341,590,20,2,0.195575997902971,46.2604166666667,74.15,23.9,4.98295833333333,15.9633333333333,-4.6715,5.91421527777778,0.746049642395598,497.013232638889
2017-04-21,"FPWW0180591","FPWW018",2,106,591,20,2,0.189368157385561,46.2604166666667,74.15,23.9,4.98295833333333,15.9633333333333,-4.6715,5.91421527777778,0.746049642395598,497.013232638889
2017-04-21,"FPWW0180604","FPWW018",2,302,604,20,2,0.194116629777448,46.2604166666667,74.15,23.9,4.98295833333333,15.9633333333333,-4.6715,5.91421527777778,0.746049642395598,497.013232638889
2017-04-21,"FPWW0180611","FPWW018",2,218,611,20,2,0.237882655508581,46.2604166666667,74.15,23.9,4.98295833333333,15.9633333333333,-4.6715,5.91421527777778,0.746049642395598,497.013232638889
2017-04-21,"FPWW0180615","FPWW018",2,2,615,20,2,0.237615708945681,46.2604166666667,74.15,23.9,4.98295833333333,15.9633333333333,-4.6715,5.91421527777778,0.746049642395598,497.013232638889
2017-04-21,"FPWW0180623","FPWW018",2,1,623,20,2,0.283364499059295,46.2604166666667,74.15,23.9,4.98295833333333,15.9633333333333,-4.6715,5.91421527777778,0.746049642395598,497.013232638889
2017-04-21,"FPWW0180673","FPWW018",2,122,673,20,2,0.258299319271794,46.2604166666667,74.15,23.9,4.98295833333333,15.9633333333333,-4.6715,5.91421527777778,0.746049642395598,497.013232638889
2017-04-24,"FPWW0180038","FPWW018",1,2,38,23,2,0.228167370749045,50.2104166666667,69.1,28.25,10.0669791666667,20.9316666666667,-0.175166666666667,10.0742777777778,0.98164746433058,523.737246527778
2017-04-24,"FPWW0180107","FPWW018",1,122,107,23,2,0.230797431436293,50.2104166666667,69.1,28.25,10.0669791666667,20.9316666666667,-0.175166666666667,10.0742777777778,0.98164746433058,523.737246527778
2017-04-24,"FPWW0180115","FPWW018",1,1,115,23,2,0.295084499408314,50.2104166666667,69.1,28.25,10.0669791666667,20.9316666666667,-0.175166666666667,10.0742777777778,0.98164746433058,523.737246527778
2017-04-24,"FPWW0180125","FPWW018",1,302,125,23,2,0.167199450715332,50.2104166666667,69.1,28.25,10.0669791666667,20.9316666666667,-0.175166666666667,10.0742777777778,0.98164746433058,523.737246527778
2017-04-24,"FPWW0180178","FPWW018",1,301,178,23,2,0.203985734543893,50.2104166666667,69.1,28.25,10.0669791666667,20.9316666666667,-0.175166666666667,10.0742777777778,0.98164746433058,523.737246527778
2017-04-24,"FPWW0180245","FPWW018",1,341,245,23,2,0.187510449862251,50.2104166666667,69.1,28.25,10.0669791666667,20.9316666666667,-0.175166666666667,10.0742777777778,0.98164746433058,523.737246527778
2017-04-24,"FPWW0180349","FPWW018",1,106,349,23,2,0.198040569708351,50.2104166666667,69.1,28.25,10.0669791666667,20.9316666666667,-0.175166666666667,10.0742777777778,0.98164746433058,523.737246527778
2017-04-24,"FPWW0180350","FPWW018",1,218,350,23,2,0.222423041689568,50.2104166666667,69.1,28.25,10.0669791666667,20.9316666666667,-0.175166666666667,10.0742777777778,0.98164746433058,523.737246527778
2017-04-24,"FPWW0180436","FPWW018",2,301,436,23,2,0.190347724107594,50.2104166666667,69.1,28.25,10.0669791666667,20.9316666666667,-0.175166666666667,10.0742777777778,0.98164746433058,523.737246527778
2017-04-24,"FPWW0180590","FPWW018",2,341,590,23,2,0.200987298410981,50.2104166666667,69.1,28.25,10.0669791666667,20.9316666666667,-0.175166666666667,10.0742777777778,0.98164746433058,523.737246527778
2017-04-24,"FPWW0180591","FPWW018",2,106,591,23,2,0.200579839949725,50.2104166666667,69.1,28.25,10.0669791666667,20.9316666666667,-0.175166666666667,10.0742777777778,0.98164746433058,523.737246527778
2017-04-24,"FPWW0180604","FPWW018",2,302,604,23,2,0.207177395713963,50.2104166666667,69.1,28.25,10.0669791666667,20.9316666666667,-0.175166666666667,10.0742777777778,0.98164746433058,523.737246527778
2017-04-24,"FPWW0180611","FPWW018",2,218,611,23,2,0.247687559184574,50.2104166666667,69.1,28.25,10.0669791666667,20.9316666666667,-0.175166666666667,10.0742777777778,0.98164746433058,523.737246527778
2017-04-24,"FPWW0180615","FPWW018",2,2,615,23,2,0.242965635970231,50.2104166666667,69.1,28.25,10.0669791666667,20.9316666666667,-0.175166666666667,10.0742777777778,0.98164746433058,523.737246527778
2017-04-24,"FPWW0180623","FPWW018",2,1,623,23,2,0.28834409803017,50.2104166666667,69.1,28.25,10.0669791666667,20.9316666666667,-0.175166666666667,10.0742777777778,0.98164746433058,523.737246527778
2017-04-24,"FPWW0180673","FPWW018",2,122,673,23,2,0.259956225104058,50.2104166666667,69.1,28.25,10.0669791666667,20.9316666666667,-0.175166666666667,10.0742777777778,0.98164746433058,523.737246527778
2017-05-02,"FPWW0180038","FPWW018",1,2,38,31,2,0.242563309215447,68.39375,93.7,41.85,8.80063888888889,14.7616666666667,2.21216666666667,8.80063888888889,0.510839846019943,567.543059027778
2017-05-02,"FPWW0180107","FPWW018",1,122,107,31,2,0.254734714025522,68.39375,93.7,41.85,8.80063888888889,14.7616666666667,2.21216666666667,8.80063888888889,0.510839846019943,567.543059027778
2017-05-02,"FPWW0180115","FPWW018",1,1,115,31,2,0.317002689009119,68.39375,93.7,41.85,8.80063888888889,14.7616666666667,2.21216666666667,8.80063888888889,0.510839846019943,567.543059027778
2017-05-02,"FPWW0180125","FPWW018",1,302,125,31,2,0.192366558094419,68.39375,93.7,41.85,8.80063888888889,14.7616666666667,2.21216666666667,8.80063888888889,0.510839846019943,567.543059027778
2017-05-02,"FPWW0180178","FPWW018",1,301,178,31,2,0.230122850011496,68.39375,93.7,41.85,8.80063888888889,14.7616666666667,2.21216666666667,8.80063888888889,0.510839846019943,567.543059027778
2017-05-02,"FPWW0180245","FPWW018",1,341,245,31,2,0.211672829182001,68.39375,93.7,41.85,8.80063888888889,14.7616666666667,2.21216666666667,8.80063888888889,0.510839846019943,567.543059027778
2017-05-02,"FPWW0180349","FPWW018",1,106,349,31,2,0.221072116458335,68.39375,93.7,41.85,8.80063888888889,14.7616666666667,2.21216666666667,8.80063888888889,0.510839846019943,567.543059027778
2017-05-02,"FPWW0180350","FPWW018",1,218,350,31,2,0.240627121378134,68.39375,93.7,41.85,8.80063888888889,14.7616666666667,2.21216666666667,8.80063888888889,0.510839846019943,567.543059027778
2017-05-02,"FPWW0180436","FPWW018",2,301,436,31,2,0.225115659974596,68.39375,93.7,41.85,8.80063888888889,14.7616666666667,2.21216666666667,8.80063888888889,0.510839846019943,567.543059027778
2017-05-02,"FPWW0180590","FPWW018",2,341,590,31,2,0.225940277453135,68.39375,93.7,41.85,8.80063888888889,14.7616666666667,2.21216666666667,8.80063888888889,0.510839846019943,567.543059027778
2017-05-02,"FPWW0180591","FPWW018",2,106,591,31,2,0.229094377401002,68.39375,93.7,41.85,8.80063888888889,14.7616666666667,2.21216666666667,8.80063888888889,0.510839846019943,567.543059027778
2017-05-02,"FPWW0180604","FPWW018",2,302,604,31,2,0.229953236449197,68.39375,93.7,41.85,8.80063888888889,14.7616666666667,2.21216666666667,8.80063888888889,0.510839846019943,567.543059027778
2017-05-02,"FPWW0180611","FPWW018",2,218,611,31,2,0.246645456604517,68.39375,93.7,41.85,8.80063888888889,14.7616666666667,2.21216666666667,8.80063888888889,0.510839846019943,567.543059027778
2017-05-02,"FPWW0180615","FPWW018",2,2,615,31,2,0.253113175110117,68.39375,93.7,41.85,8.80063888888889,14.7616666666667,2.21216666666667,8.80063888888889,0.510839846019943,567.543059027778
2017-05-02,"FPWW0180623","FPWW018",2,1,623,31,2,0.311687124437627,68.39375,93.7,41.85,8.80063888888889,14.7616666666667,2.21216666666667,8.80063888888889,0.510839846019943,567.543059027778
2017-05-02,"FPWW0180673","FPWW018",2,122,673,31,2,0.274391613956008,68.39375,93.7,41.85,8.80063888888889,14.7616666666667,2.21216666666667,8.80063888888889,0.510839846019943,567.543059027778
2017-05-05,"FPWW0180038","FPWW018",1,2,38,34,2,0.279927317519767,63.0708333333333,91.75,42,11.92910625,17.9011666666667,6.42656666666667,11.92910625,0.634574703769587,598.459262436868
2017-05-05,"FPWW0180107","FPWW018",1,122,107,34,2,0.288577893365642,63.0708333333333,91.75,42,11.92910625,17.9011666666667,6.42656666666667,11.92910625,0.634574703769587,598.459262436868
2017-05-05,"FPWW0180115","FPWW018",1,1,115,34,2,0.349994293655078,63.0708333333333,91.75,42,11.92910625,17.9011666666667,6.42656666666667,11.92910625,0.634574703769587,598.459262436868
2017-05-05,"FPWW0180125","FPWW018",1,302,125,34,2,0.231462767766634,63.0708333333333,91.75,42,11.92910625,17.9011666666667,6.42656666666667,11.92910625,0.634574703769587,598.459262436868
2017-05-05,"FPWW0180178","FPWW018",1,301,178,34,2,0.270545314768305,63.0708333333333,91.75,42,11.92910625,17.9011666666667,6.42656666666667,11.92910625,0.634574703769587,598.459262436868
2017-05-05,"FPWW0180245","FPWW018",1,341,245,34,2,0.245401963026618,63.0708333333333,91.75,42,11.92910625,17.9011666666667,6.42656666666667,11.92910625,0.634574703769587,598.459262436868
2017-05-05,"FPWW0180349","FPWW018",1,106,349,34,2,0.255888096106122,63.0708333333333,91.75,42,11.92910625,17.9011666666667,6.42656666666667,11.92910625,0.634574703769587,598.459262436868
2017-05-05,"FPWW0180350","FPWW018",1,218,350,34,2,0.284149738864658,63.0708333333333,91.75,42,11.92910625,17.9011666666667,6.42656666666667,11.92910625,0.634574703769587,598.459262436868
2017-05-05,"FPWW0180436","FPWW018",2,301,436,34,2,0.266715960591834,63.0708333333333,91.75,42,11.92910625,17.9011666666667,6.42656666666667,11.92910625,0.634574703769587,598.459262436868
2017-05-05,"FPWW0180590","FPWW018",2,341,590,34,2,0.256917770163253,63.0708333333333,91.75,42,11.92910625,17.9011666666667,6.42656666666667,11.92910625,0.634574703769587,598.459262436868
2017-05-05,"FPWW0180591","FPWW018",2,106,591,34,2,0.270316654127508,63.0708333333333,91.75,42,11.92910625,17.9011666666667,6.42656666666667,11.92910625,0.634574703769587,598.459262436868
2017-05-05,"FPWW0180604","FPWW018",2,302,604,34,2,0.272950486713331,63.0708333333333,91.75,42,11.92910625,17.9011666666667,6.42656666666667,11.92910625,0.634574703769587,598.459262436868
2017-05-05,"FPWW0180611","FPWW018",2,218,611,34,2,0.292354718130069,63.0708333333333,91.75,42,11.92910625,17.9011666666667,6.42656666666667,11.92910625,0.634574703769587,598.459262436868
2017-05-05,"FPWW0180615","FPWW018",2,2,615,34,2,0.287175061238571,63.0708333333333,91.75,42,11.92910625,17.9011666666667,6.42656666666667,11.92910625,0.634574703769587,598.459262436868
2017-05-05,"FPWW0180623","FPWW018",2,1,623,34,2,0.345330756978832,63.0708333333333,91.75,42,11.92910625,17.9011666666667,6.42656666666667,11.92910625,0.634574703769587,598.459262436868
2017-05-05,"FPWW0180673","FPWW018",2,122,673,34,2,0.308348140676364,63.0708333333333,91.75,42,11.92910625,17.9011666666667,6.42656666666667,11.92910625,0.634574703769587,598.459262436868
2017-05-09,"FPWW0180038","FPWW018",1,2,38,38,2,0.345215833913954,69.2666666666667,91.85,46.85,7.67003194444444,13.5303333333333,3.4468,7.67003194444444,0.443924825190724,633.786318686869
2017-05-09,"FPWW0180107","FPWW018",1,122,107,38,2,0.3542183437131,69.2666666666667,91.85,46.85,7.67003194444444,13.5303333333333,3.4468,7.67003194444444,0.443924825190724,633.786318686869
2017-05-09,"FPWW0180115","FPWW018",1,1,115,38,2,0.420091113378961,69.2666666666667,91.85,46.85,7.67003194444444,13.5303333333333,3.4468,7.67003194444444,0.443924825190724,633.786318686869
2017-05-09,"FPWW0180125","FPWW018",1,302,125,38,2,0.291583999064672,69.2666666666667,91.85,46.85,7.67003194444444,13.5303333333333,3.4468,7.67003194444444,0.443924825190724,633.786318686869
2017-05-09,"FPWW0180178","FPWW018",1,301,178,38,2,0.34404248197979,69.2666666666667,91.85,46.85,7.67003194444444,13.5303333333333,3.4468,7.67003194444444,0.443924825190724,633.786318686869
2017-05-09,"FPWW0180245","FPWW018",1,341,245,38,2,0.306799857468997,69.2666666666667,91.85,46.85,7.67003194444444,13.5303333333333,3.4468,7.67003194444444,0.443924825190724,633.786318686869
2017-05-09,"FPWW0180349","FPWW018",1,106,349,38,2,0.321270416875857,69.2666666666667,91.85,46.85,7.67003194444444,13.5303333333333,3.4468,7.67003194444444,0.443924825190724,633.786318686869
2017-05-09,"FPWW0180350","FPWW018",1,218,350,38,2,0.355469880797359,69.2666666666667,91.85,46.85,7.67003194444444,13.5303333333333,3.4468,7.67003194444444,0.443924825190724,633.786318686869
2017-05-09,"FPWW0180436","FPWW018",2,301,436,38,2,0.344714689731278,69.2666666666667,91.85,46.85,7.67003194444444,13.5303333333333,3.4468,7.67003194444444,0.443924825190724,633.786318686869
2017-05-09,"FPWW0180590","FPWW018",2,341,590,38,2,0.319627987800443,69.2666666666667,91.85,46.85,7.67003194444444,13.5303333333333,3.4468,7.67003194444444,0.443924825190724,633.786318686869
2017-05-09,"FPWW0180591","FPWW018",2,106,591,38,2,0.342111010626002,69.2666666666667,91.85,46.85,7.67003194444444,13.5303333333333,3.4468,7.67003194444444,0.443924825190724,633.786318686869
2017-05-09,"FPWW0180604","FPWW018",2,302,604,38,2,0.338130264028118,69.2666666666667,91.85,46.85,7.67003194444444,13.5303333333333,3.4468,7.67003194444444,0.443924825190724,633.786318686869
2017-05-09,"FPWW0180611","FPWW018",2,218,611,38,2,0.360884642083834,69.2666666666667,91.85,46.85,7.67003194444444,13.5303333333333,3.4468,7.67003194444444,0.443924825190724,633.786318686869
2017-05-09,"FPWW0180615","FPWW018",2,2,615,38,2,0.351673421976251,69.2666666666667,91.85,46.85,7.67003194444444,13.5303333333333,3.4468,7.67003194444444,0.443924825190724,633.786318686869
2017-05-09,"FPWW0180623","FPWW018",2,1,623,38,2,0.41515046992172,69.2666666666667,91.85,46.85,7.67003194444444,13.5303333333333,3.4468,7.67003194444444,0.443924825190724,633.786318686869
2017-05-09,"FPWW0180673","FPWW018",2,122,673,38,2,0.371983047995244,69.2666666666667,91.85,46.85,7.67003194444444,13.5303333333333,3.4468,7.67003194444444,0.443924825190724,633.786318686869
2017-05-11,"FPWW0180038","FPWW018",1,2,38,40,2,0.390268374292769,55.3020833333333,74.8,36.1,14.1948270833333,18.7946666666667,8.14168333333333,14.1948270833333,0.829602624521443,659.224139520202
2017-05-11,"FPWW0180107","FPWW018",1,122,107,40,2,0.397547082955998,55.3020833333333,74.8,36.1,14.1948270833333,18.7946666666667,8.14168333333333,14.1948270833333,0.829602624521443,659.224139520202
2017-05-11,"FPWW0180115","FPWW018",1,1,115,40,2,0.448579951709343,55.3020833333333,74.8,36.1,14.1948270833333,18.7946666666667,8.14168333333333,14.1948270833333,0.829602624521443,659.224139520202
2017-05-11,"FPWW0180125","FPWW018",1,302,125,40,2,0.325622956013435,55.3020833333333,74.8,36.1,14.1948270833333,18.7946666666667,8.14168333333333,14.1948270833333,0.829602624521443,659.224139520202
2017-05-11,"FPWW0180178","FPWW018",1,301,178,40,2,0.372049328935312,55.3020833333333,74.8,36.1,14.1948270833333,18.7946666666667,8.14168333333333,14.1948270833333,0.829602624521443,659.224139520202
2017-05-11,"FPWW0180245","FPWW018",1,341,245,40,2,0.345436861940641,55.3020833333333,74.8,36.1,14.1948270833333,18.7946666666667,8.14168333333333,14.1948270833333,0.829602624521443,659.224139520202
2017-05-11,"FPWW0180349","FPWW018",1,106,349,40,2,0.334561445810074,55.3020833333333,74.8,36.1,14.1948270833333,18.7946666666667,8.14168333333333,14.1948270833333,0.829602624521443,659.224139520202
2017-05-11,"FPWW0180350","FPWW018",1,218,350,40,2,0.365887782607529,55.3020833333333,74.8,36.1,14.1948270833333,18.7946666666667,8.14168333333333,14.1948270833333,0.829602624521443,659.224139520202
2017-05-11,"FPWW0180436","FPWW018",2,301,436,40,2,0.338992169463227,55.3020833333333,74.8,36.1,14.1948270833333,18.7946666666667,8.14168333333333,14.1948270833333,0.829602624521443,659.224139520202
2017-05-11,"FPWW0180590","FPWW018",2,341,590,40,2,0.398029885998633,55.3020833333333,74.8,36.1,14.1948270833333,18.7946666666667,8.14168333333333,14.1948270833333,0.829602624521443,659.224139520202
2017-05-11,"FPWW0180591","FPWW018",2,106,591,40,2,0.421118403696179,55.3020833333333,74.8,36.1,14.1948270833333,18.7946666666667,8.14168333333333,14.1948270833333,0.829602624521443,659.224139520202
2017-05-11,"FPWW0180604","FPWW018",2,302,604,40,2,0.443962109691012,55.3020833333333,74.8,36.1,14.1948270833333,18.7946666666667,8.14168333333333,14.1948270833333,0.829602624521443,659.224139520202
2017-05-11,"FPWW0180611","FPWW018",2,218,611,40,2,0.380309258850902,55.3020833333333,74.8,36.1,14.1948270833333,18.7946666666667,8.14168333333333,14.1948270833333,0.829602624521443,659.224139520202
2017-05-11,"FPWW0180615","FPWW018",2,2,615,40,2,0.357571405542922,55.3020833333333,74.8,36.1,14.1948270833333,18.7946666666667,8.14168333333333,14.1948270833333,0.829602624521443,659.224139520202
2017-05-11,"FPWW0180623","FPWW018",2,1,623,40,2,0.312523956331467,55.3020833333333,74.8,36.1,14.1948270833333,18.7946666666667,8.14168333333333,14.1948270833333,0.829602624521443,659.224139520202
2017-05-11,"FPWW0180673","FPWW018",2,122,673,40,2,0.425060004255173,55.3020833333333,74.8,36.1,14.1948270833333,18.7946666666667,8.14168333333333,14.1948270833333,0.829602624521443,659.224139520202
2017-05-15,"FPWW0180038","FPWW018",1,2,38,44,2,0.493145836047907,62.3625,95.7,27.1,14.936375,22.2746666666667,9.48983333333334,14.936375,1.00547732639321,716.95560479798
2017-05-15,"FPWW0180107","FPWW018",1,122,107,44,2,0.471112953820537,62.3625,95.7,27.1,14.936375,22.2746666666667,9.48983333333334,14.936375,1.00547732639321,716.95560479798
2017-05-15,"FPWW0180115","FPWW018",1,1,115,44,2,0.548957952443607,62.3625,95.7,27.1,14.936375,22.2746666666667,9.48983333333334,14.936375,1.00547732639321,716.95560479798
2017-05-15,"FPWW0180125","FPWW018",1,302,125,44,2,0.448979880883138,62.3625,95.7,27.1,14.936375,22.2746666666667,9.48983333333334,14.936375,1.00547732639321,716.95560479798
2017-05-15,"FPWW0180178","FPWW018",1,301,178,44,2,0.509080484461826,62.3625,95.7,27.1,14.936375,22.2746666666667,9.48983333333334,14.936375,1.00547732639321,716.95560479798
2017-05-15,"FPWW0180245","FPWW018",1,341,245,44,2,0.433742928785112,62.3625,95.7,27.1,14.936375,22.2746666666667,9.48983333333334,14.936375,1.00547732639321,716.95560479798
2017-05-15,"FPWW0180349","FPWW018",1,106,349,44,2,0.47703119107554,62.3625,95.7,27.1,14.936375,22.2746666666667,9.48983333333334,14.936375,1.00547732639321,716.95560479798
2017-05-15,"FPWW0180350","FPWW018",1,218,350,44,2,0.481238528354704,62.3625,95.7,27.1,14.936375,22.2746666666667,9.48983333333334,14.936375,1.00547732639321,716.95560479798
2017-05-15,"FPWW0180436","FPWW018",2,301,436,44,2,0.507365448779736,62.3625,95.7,27.1,14.936375,22.2746666666667,9.48983333333334,14.936375,1.00547732639321,716.95560479798
2017-05-15,"FPWW0180590","FPWW018",2,341,590,44,2,0.448944024875757,62.3625,95.7,27.1,14.936375,22.2746666666667,9.48983333333334,14.936375,1.00547732639321,716.95560479798
2017-05-15,"FPWW0180591","FPWW018",2,106,591,44,2,0.501003459593415,62.3625,95.7,27.1,14.936375,22.2746666666667,9.48983333333334,14.936375,1.00547732639321,716.95560479798
2017-05-15,"FPWW0180604","FPWW018",2,302,604,44,2,0.496709151136207,62.3625,95.7,27.1,14.936375,22.2746666666667,9.48983333333334,14.936375,1.00547732639321,716.95560479798
2017-05-15,"FPWW0180611","FPWW018",2,218,611,44,2,0.490139256239811,62.3625,95.7,27.1,14.936375,22.2746666666667,9.48983333333334,14.936375,1.00547732639321,716.95560479798
2017-05-15,"FPWW0180615","FPWW018",2,2,615,44,2,0.496331694530383,62.3625,95.7,27.1,14.936375,22.2746666666667,9.48983333333334,14.936375,1.00547732639321,716.95560479798
2017-05-15,"FPWW0180623","FPWW018",2,1,623,44,2,0.534050026510433,62.3625,95.7,27.1,14.936375,22.2746666666667,9.48983333333334,14.936375,1.00547732639321,716.95560479798
2017-05-15,"FPWW0180673","FPWW018",2,122,673,44,2,0.492946055036329,62.3625,95.7,27.1,14.936375,22.2746666666667,9.48983333333334,14.936375,1.00547732639321,716.95560479798
2017-05-18,"FPWW0180038","FPWW018",1,2,38,47,2,0.581113952314211,56.29375,77.65,42.05,18.5238969907407,24.5584333333331,13.3528499999998,18.5238969907407,1.06527546043359,770.942252997489
2017-05-18,"FPWW0180107","FPWW018",1,122,107,47,2,0.5364407528445,56.29375,77.65,42.05,18.5238969907407,24.5584333333331,13.3528499999998,18.5238969907407,1.06527546043359,770.942252997489
2017-05-18,"FPWW0180115","FPWW018",1,1,115,47,2,0.629827672161999,56.29375,77.65,42.05,18.5238969907407,24.5584333333331,13.3528499999998,18.5238969907407,1.06527546043359,770.942252997489
2017-05-18,"FPWW0180125","FPWW018",1,302,125,47,2,0.52283476606953,56.29375,77.65,42.05,18.5238969907407,24.5584333333331,13.3528499999998,18.5238969907407,1.06527546043359,770.942252997489
2017-05-18,"FPWW0180178","FPWW018",1,301,178,47,2,0.606335336738768,56.29375,77.65,42.05,18.5238969907407,24.5584333333331,13.3528499999998,18.5238969907407,1.06527546043359,770.942252997489
2017-05-18,"FPWW0180245","FPWW018",1,341,245,47,2,0.515989610610271,56.29375,77.65,42.05,18.5238969907407,24.5584333333331,13.3528499999998,18.5238969907407,1.06527546043359,770.942252997489
2017-05-18,"FPWW0180349","FPWW018",1,106,349,47,2,0.572808513296454,56.29375,77.65,42.05,18.5238969907407,24.5584333333331,13.3528499999998,18.5238969907407,1.06527546043359,770.942252997489
2017-05-18,"FPWW0180350","FPWW018",1,218,350,47,2,0.551771281503904,56.29375,77.65,42.05,18.5238969907407,24.5584333333331,13.3528499999998,18.5238969907407,1.06527546043359,770.942252997489
2017-05-18,"FPWW0180436","FPWW018",2,301,436,47,2,0.601579231880186,56.29375,77.65,42.05,18.5238969907407,24.5584333333331,13.3528499999998,18.5238969907407,1.06527546043359,770.942252997489
2017-05-18,"FPWW0180590","FPWW018",2,341,590,47,2,0.503369834031568,56.29375,77.65,42.05,18.5238969907407,24.5584333333331,13.3528499999998,18.5238969907407,1.06527546043359,770.942252997489
2017-05-18,"FPWW0180591","FPWW018",2,106,591,47,2,0.59499392484811,56.29375,77.65,42.05,18.5238969907407,24.5584333333331,13.3528499999998,18.5238969907407,1.06527546043359,770.942252997489
2017-05-18,"FPWW0180604","FPWW018",2,302,604,47,2,0.576132238888366,56.29375,77.65,42.05,18.5238969907407,24.5584333333331,13.3528499999998,18.5238969907407,1.06527546043359,770.942252997489
2017-05-18,"FPWW0180611","FPWW018",2,218,611,47,2,0.564554109963626,56.29375,77.65,42.05,18.5238969907407,24.5584333333331,13.3528499999998,18.5238969907407,1.06527546043359,770.942252997489
2017-05-18,"FPWW0180615","FPWW018",2,2,615,47,2,0.584907769253228,56.29375,77.65,42.05,18.5238969907407,24.5584333333331,13.3528499999998,18.5238969907407,1.06527546043359,770.942252997489
2017-05-18,"FPWW0180623","FPWW018",2,1,623,47,2,0.620995833786143,56.29375,77.65,42.05,18.5238969907407,24.5584333333331,13.3528499999998,18.5238969907407,1.06527546043359,770.942252997489
2017-05-18,"FPWW0180673","FPWW018",2,122,673,47,2,0.55814058785868,56.29375,77.65,42.05,18.5238969907407,24.5584333333331,13.3528499999998,18.5238969907407,1.06527546043359,770.942252997489
2017-05-22,"FPWW0180038","FPWW018",1,2,38,51,2,0.644163383372377,54.4791666666667,83.9,31.1,16.312901412037,25.2303749999997,5.2444961111112,16.312901412037,1.17779307082436,819.594815404896
2017-05-22,"FPWW0180107","FPWW018",1,122,107,51,2,0.590297834603333,54.4791666666667,83.9,31.1,16.312901412037,25.2303749999997,5.2444961111112,16.312901412037,1.17779307082436,819.594815404896
2017-05-22,"FPWW0180115","FPWW018",1,1,115,51,2,0.691704720935135,54.4791666666667,83.9,31.1,16.312901412037,25.2303749999997,5.2444961111112,16.312901412037,1.17779307082436,819.594815404896
2017-05-22,"FPWW0180125","FPWW018",1,302,125,51,2,0.586609294425966,54.4791666666667,83.9,31.1,16.312901412037,25.2303749999997,5.2444961111112,16.312901412037,1.17779307082436,819.594815404896
2017-05-22,"FPWW0180178","FPWW018",1,301,178,51,2,0.665791633612947,54.4791666666667,83.9,31.1,16.312901412037,25.2303749999997,5.2444961111112,16.312901412037,1.17779307082436,819.594815404896
2017-05-22,"FPWW0180245","FPWW018",1,341,245,51,2,0.543617569150456,54.4791666666667,83.9,31.1,16.312901412037,25.2303749999997,5.2444961111112,16.312901412037,1.17779307082436,819.594815404896
2017-05-22,"FPWW0180349","FPWW018",1,106,349,51,2,0.658587039234435,54.4791666666667,83.9,31.1,16.312901412037,25.2303749999997,5.2444961111112,16.312901412037,1.17779307082436,819.594815404896
2017-05-22,"FPWW0180350","FPWW018",1,218,350,51,2,0.596936056657299,54.4791666666667,83.9,31.1,16.312901412037,25.2303749999997,5.2444961111112,16.312901412037,1.17779307082436,819.594815404896
2017-05-22,"FPWW0180436","FPWW018",2,301,436,51,2,0.663039593748595,54.4791666666667,83.9,31.1,16.312901412037,25.2303749999997,5.2444961111112,16.312901412037,1.17779307082436,819.594815404896
2017-05-22,"FPWW0180590","FPWW018",2,341,590,51,2,0.553593019962123,54.4791666666667,83.9,31.1,16.312901412037,25.2303749999997,5.2444961111112,16.312901412037,1.17779307082436,819.594815404896
2017-05-22,"FPWW0180591","FPWW018",2,106,591,51,2,0.677515912025412,54.4791666666667,83.9,31.1,16.312901412037,25.2303749999997,5.2444961111112,16.312901412037,1.17779307082436,819.594815404896
2017-05-22,"FPWW0180604","FPWW018",2,302,604,51,2,0.63965840784791,54.4791666666667,83.9,31.1,16.312901412037,25.2303749999997,5.2444961111112,16.312901412037,1.17779307082436,819.594815404896
2017-05-22,"FPWW0180611","FPWW018",2,218,611,51,2,0.611916674657268,54.4791666666667,83.9,31.1,16.312901412037,25.2303749999997,5.2444961111112,16.312901412037,1.17779307082436,819.594815404896
2017-05-22,"FPWW0180615","FPWW018",2,2,615,51,2,0.652910506928067,54.4791666666667,83.9,31.1,16.312901412037,25.2303749999997,5.2444961111112,16.312901412037,1.17779307082436,819.594815404896
2017-05-22,"FPWW0180623","FPWW018",2,1,623,51,2,0.676597418121805,54.4791666666667,83.9,31.1,16.312901412037,25.2303749999997,5.2444961111112,16.312901412037,1.17779307082436,819.594815404896
2017-05-22,"FPWW0180673","FPWW018",2,122,673,51,2,0.603977717909366,54.4791666666667,83.9,31.1,16.312901412037,25.2303749999997,5.2444961111112,16.312901412037,1.17779307082436,819.594815404896
2017-05-24,"FPWW0180038","FPWW018",1,2,38,53,2,0.684057723316286,55.5854166666667,72.85,37.85,18.3039890046296,24.1667555555553,14.6798527777777,18.3039890046296,1.16334598606057,855.858151284526
2017-05-24,"FPWW0180107","FPWW018",1,122,107,53,2,0.624754122269991,55.5854166666667,72.85,37.85,18.3039890046296,24.1667555555553,14.6798527777777,18.3039890046296,1.16334598606057,855.858151284526
2017-05-24,"FPWW0180115","FPWW018",1,1,115,53,2,0.728854217695113,55.5854166666667,72.85,37.85,18.3039890046296,24.1667555555553,14.6798527777777,18.3039890046296,1.16334598606057,855.858151284526
2017-05-24,"FPWW0180125","FPWW018",1,302,125,53,2,0.631515649027539,55.5854166666667,72.85,37.85,18.3039890046296,24.1667555555553,14.6798527777777,18.3039890046296,1.16334598606057,855.858151284526
2017-05-24,"FPWW0180178","FPWW018",1,301,178,53,2,0.711707873083307,55.5854166666667,72.85,37.85,18.3039890046296,24.1667555555553,14.6798527777777,18.3039890046296,1.16334598606057,855.858151284526
2017-05-24,"FPWW0180245","FPWW018",1,341,245,53,2,0.575574650497661,55.5854166666667,72.85,37.85,18.3039890046296,24.1667555555553,14.6798527777777,18.3039890046296,1.16334598606057,855.858151284526
2017-05-24,"FPWW0180349","FPWW018",1,106,349,53,2,0.7066172548426,55.5854166666667,72.85,37.85,18.3039890046296,24.1667555555553,14.6798527777777,18.3039890046296,1.16334598606057,855.858151284526
2017-05-24,"FPWW0180350","FPWW018",1,218,350,53,2,0.633130079642109,55.5854166666667,72.85,37.85,18.3039890046296,24.1667555555553,14.6798527777777,18.3039890046296,1.16334598606057,855.858151284526
2017-05-24,"FPWW0180436","FPWW018",2,301,436,53,2,0.702332412054142,55.5854166666667,72.85,37.85,18.3039890046296,24.1667555555553,14.6798527777777,18.3039890046296,1.16334598606057,855.858151284526
2017-05-24,"FPWW0180590","FPWW018",2,341,590,53,2,0.580897080138894,55.5854166666667,72.85,37.85,18.3039890046296,24.1667555555553,14.6798527777777,18.3039890046296,1.16334598606057,855.858151284526
2017-05-24,"FPWW0180591","FPWW018",2,106,591,53,2,0.729278410179743,55.5854166666667,72.85,37.85,18.3039890046296,24.1667555555553,14.6798527777777,18.3039890046296,1.16334598606057,855.858151284526
2017-05-24,"FPWW0180604","FPWW018",2,302,604,53,2,0.690209279677574,55.5854166666667,72.85,37.85,18.3039890046296,24.1667555555553,14.6798527777777,18.3039890046296,1.16334598606057,855.858151284526
2017-05-24,"FPWW0180611","FPWW018",2,218,611,53,2,0.642222430205943,55.5854166666667,72.85,37.85,18.3039890046296,24.1667555555553,14.6798527777777,18.3039890046296,1.16334598606057,855.858151284526
2017-05-24,"FPWW0180615","FPWW018",2,2,615,53,2,0.707848092308963,55.5854166666667,72.85,37.85,18.3039890046296,24.1667555555553,14.6798527777777,18.3039890046296,1.16334598606057,855.858151284526
2017-05-24,"FPWW0180623","FPWW018",2,1,623,53,2,0.708044800682728,55.5854166666667,72.85,37.85,18.3039890046296,24.1667555555553,14.6798527777777,18.3039890046296,1.16334598606057,855.858151284526
2017-05-24,"FPWW0180673","FPWW018",2,122,673,53,2,0.634780636755858,55.5854166666667,72.85,37.85,18.3039890046296,24.1667555555553,14.6798527777777,18.3039890046296,1.16334598606057,855.858151284526
2017-05-29,"FPWW0180038","FPWW018",1,2,38,58,2,0.785483119472893,45.3145833333333,66.55,24.3,22.7026288194444,31.631363888889,11.778886111111,22.7026288194444,1.99371074863089,955.985545497489
2017-05-29,"FPWW0180107","FPWW018",1,122,107,58,2,0.671285131787841,45.3145833333333,66.55,24.3,22.7026288194444,31.631363888889,11.778886111111,22.7026288194444,1.99371074863089,955.985545497489
2017-05-29,"FPWW0180115","FPWW018",1,1,115,58,2,0.772817822169064,45.3145833333333,66.55,24.3,22.7026288194444,31.631363888889,11.778886111111,22.7026288194444,1.99371074863089,955.985545497489
2017-05-29,"FPWW0180125","FPWW018",1,302,125,58,2,0.738306790532202,45.3145833333333,66.55,24.3,22.7026288194444,31.631363888889,11.778886111111,22.7026288194444,1.99371074863089,955.985545497489
2017-05-29,"FPWW0180178","FPWW018",1,301,178,58,2,0.800614569961222,45.3145833333333,66.55,24.3,22.7026288194444,31.631363888889,11.778886111111,22.7026288194444,1.99371074863089,955.985545497489
2017-05-29,"FPWW0180245","FPWW018",1,341,245,58,2,0.641719575768834,45.3145833333333,66.55,24.3,22.7026288194444,31.631363888889,11.778886111111,22.7026288194444,1.99371074863089,955.985545497489
2017-05-29,"FPWW0180349","FPWW018",1,106,349,58,2,0.812815805711146,45.3145833333333,66.55,24.3,22.7026288194444,31.631363888889,11.778886111111,22.7026288194444,1.99371074863089,955.985545497489
2017-05-29,"FPWW0180350","FPWW018",1,218,350,58,2,0.680933524760691,45.3145833333333,66.55,24.3,22.7026288194444,31.631363888889,11.778886111111,22.7026288194444,1.99371074863089,955.985545497489
2017-05-29,"FPWW0180436","FPWW018",2,301,436,58,2,0.81244088592489,45.3145833333333,66.55,24.3,22.7026288194444,31.631363888889,11.778886111111,22.7026288194444,1.99371074863089,955.985545497489
2017-05-29,"FPWW0180590","FPWW018",2,341,590,58,2,0.646822781267541,45.3145833333333,66.55,24.3,22.7026288194444,31.631363888889,11.778886111111,22.7026288194444,1.99371074863089,955.985545497489
2017-05-29,"FPWW0180591","FPWW018",2,106,591,58,2,0.853205703033205,45.3145833333333,66.55,24.3,22.7026288194444,31.631363888889,11.778886111111,22.7026288194444,1.99371074863089,955.985545497489
2017-05-29,"FPWW0180604","FPWW018",2,302,604,58,2,0.801533017760511,45.3145833333333,66.55,24.3,22.7026288194444,31.631363888889,11.778886111111,22.7026288194444,1.99371074863089,955.985545497489
2017-05-29,"FPWW0180611","FPWW018",2,218,611,58,2,0.685979242904433,45.3145833333333,66.55,24.3,22.7026288194444,31.631363888889,11.778886111111,22.7026288194444,1.99371074863089,955.985545497489
2017-05-29,"FPWW0180615","FPWW018",2,2,615,58,2,0.817096997019474,45.3145833333333,66.55,24.3,22.7026288194444,31.631363888889,11.778886111111,22.7026288194444,1.99371074863089,955.985545497489
2017-05-29,"FPWW0180623","FPWW018",2,1,623,58,2,0.760988898381284,45.3145833333333,66.55,24.3,22.7026288194444,31.631363888889,11.778886111111,22.7026288194444,1.99371074863089,955.985545497489
2017-05-29,"FPWW0180673","FPWW018",2,122,673,58,2,0.669837390079517,45.3145833333333,66.55,24.3,22.7026288194444,31.631363888889,11.778886111111,22.7026288194444,1.99371074863089,955.985545497489
2017-06-02,"FPWW0180038","FPWW018",1,2,38,62,2,0.840643252291617,72.4104166666667,99.9,38.75,18.7321230324074,27.0286,12.6889361111111,18.7321230324074,1.09445260725847,1036.31049630767
2017-06-02,"FPWW0180107","FPWW018",1,122,107,62,2,0.693265328597196,72.4104166666667,99.9,38.75,18.7321230324074,27.0286,12.6889361111111,18.7321230324074,1.09445260725847,1036.31049630767
2017-06-02,"FPWW0180115","FPWW018",1,1,115,62,2,0.837639080290432,72.4104166666667,99.9,38.75,18.7321230324074,27.0286,12.6889361111111,18.7321230324074,1.09445260725847,1036.31049630767
2017-06-02,"FPWW0180125","FPWW018",1,302,125,62,2,0.81199567017409,72.4104166666667,99.9,38.75,18.7321230324074,27.0286,12.6889361111111,18.7321230324074,1.09445260725847,1036.31049630767
2017-06-02,"FPWW0180178","FPWW018",1,301,178,62,2,0.886569212069073,72.4104166666667,99.9,38.75,18.7321230324074,27.0286,12.6889361111111,18.7321230324074,1.09445260725847,1036.31049630767
2017-06-02,"FPWW0180245","FPWW018",1,341,245,62,2,0.682890867356357,72.4104166666667,99.9,38.75,18.7321230324074,27.0286,12.6889361111111,18.7321230324074,1.09445260725847,1036.31049630767
2017-06-02,"FPWW0180349","FPWW018",1,106,349,62,2,0.8943182231375,72.4104166666667,99.9,38.75,18.7321230324074,27.0286,12.6889361111111,18.7321230324074,1.09445260725847,1036.31049630767
2017-06-02,"FPWW0180350","FPWW018",1,218,350,62,2,0.709487585371035,72.4104166666667,99.9,38.75,18.7321230324074,27.0286,12.6889361111111,18.7321230324074,1.09445260725847,1036.31049630767
2017-06-02,"FPWW0180436","FPWW018",2,301,436,62,2,0.903343678992643,72.4104166666667,99.9,38.75,18.7321230324074,27.0286,12.6889361111111,18.7321230324074,1.09445260725847,1036.31049630767
2017-06-02,"FPWW0180590","FPWW018",2,341,590,62,2,0.685107514815241,72.4104166666667,99.9,38.75,18.7321230324074,27.0286,12.6889361111111,18.7321230324074,1.09445260725847,1036.31049630767
2017-06-02,"FPWW0180591","FPWW018",2,106,591,62,2,0.907557881461813,72.4104166666667,99.9,38.75,18.7321230324074,27.0286,12.6889361111111,18.7321230324074,1.09445260725847,1036.31049630767
2017-06-02,"FPWW0180604","FPWW018",2,302,604,62,2,0.881621673936926,72.4104166666667,99.9,38.75,18.7321230324074,27.0286,12.6889361111111,18.7321230324074,1.09445260725847,1036.31049630767
2017-06-02,"FPWW0180611","FPWW018",2,218,611,62,2,0.720026966001516,72.4104166666667,99.9,38.75,18.7321230324074,27.0286,12.6889361111111,18.7321230324074,1.09445260725847,1036.31049630767
2017-06-02,"FPWW0180615","FPWW018",2,2,615,62,2,0.856589537965799,72.4104166666667,99.9,38.75,18.7321230324074,27.0286,12.6889361111111,18.7321230324074,1.09445260725847,1036.31049630767
2017-06-02,"FPWW0180623","FPWW018",2,1,623,62,2,0.824223208716457,72.4104166666667,99.9,38.75,18.7321230324074,27.0286,12.6889361111111,18.7321230324074,1.09445260725847,1036.31049630767
2017-06-02,"FPWW0180673","FPWW018",2,122,673,62,2,0.6914655056512,72.4104166666667,99.9,38.75,18.7321230324074,27.0286,12.6889361111111,18.7321230324074,1.09445260725847,1036.31049630767
2017-06-08,"FPWW0180038","FPWW018",1,2,38,68,2,0.917477860896223,50.5833333333333,80.15,21.6,14.9303727662037,25.1625388888891,4.78099916666668,14.9303727662037,1.33910437249544,1124.76338460556
2017-06-08,"FPWW0180107","FPWW018",1,122,107,68,2,0.685367787794099,50.5833333333333,80.15,21.6,14.9303727662037,25.1625388888891,4.78099916666668,14.9303727662037,1.33910437249544,1124.76338460556
2017-06-08,"FPWW0180115","FPWW018",1,1,115,68,2,0.843210839344149,50.5833333333333,80.15,21.6,14.9303727662037,25.1625388888891,4.78099916666668,14.9303727662037,1.33910437249544,1124.76338460556
2017-06-08,"FPWW0180125","FPWW018",1,302,125,68,2,0.883575637151012,50.5833333333333,80.15,21.6,14.9303727662037,25.1625388888891,4.78099916666668,14.9303727662037,1.33910437249544,1124.76338460556
2017-06-08,"FPWW0180178","FPWW018",1,301,178,68,2,0.987862933565459,50.5833333333333,80.15,21.6,14.9303727662037,25.1625388888891,4.78099916666668,14.9303727662037,1.33910437249544,1124.76338460556
2017-06-08,"FPWW0180245","FPWW018",1,341,245,68,2,0.690880705492,50.5833333333333,80.15,21.6,14.9303727662037,25.1625388888891,4.78099916666668,14.9303727662037,1.33910437249544,1124.76338460556
2017-06-08,"FPWW0180349","FPWW018",1,106,349,68,2,0.945327103877621,50.5833333333333,80.15,21.6,14.9303727662037,25.1625388888891,4.78099916666668,14.9303727662037,1.33910437249544,1124.76338460556
2017-06-08,"FPWW0180350","FPWW018",1,218,350,68,2,0.706080212175652,50.5833333333333,80.15,21.6,14.9303727662037,25.1625388888891,4.78099916666668,14.9303727662037,1.33910437249544,1124.76338460556
2017-06-08,"FPWW0180436","FPWW018",2,301,436,68,2,0.990515156265666,50.5833333333333,80.15,21.6,14.9303727662037,25.1625388888891,4.78099916666668,14.9303727662037,1.33910437249544,1124.76338460556
2017-06-08,"FPWW0180590","FPWW018",2,341,590,68,2,0.684076998512115,50.5833333333333,80.15,21.6,14.9303727662037,25.1625388888891,4.78099916666668,14.9303727662037,1.33910437249544,1124.76338460556
2017-06-08,"FPWW0180591","FPWW018",2,106,591,68,2,0.962574718204636,50.5833333333333,80.15,21.6,14.9303727662037,25.1625388888891,4.78099916666668,14.9303727662037,1.33910437249544,1124.76338460556
2017-06-08,"FPWW0180604","FPWW018",2,302,604,68,2,0.92320425220797,50.5833333333333,80.15,21.6,14.9303727662037,25.1625388888891,4.78099916666668,14.9303727662037,1.33910437249544,1124.76338460556
2017-06-08,"FPWW0180611","FPWW018",2,218,611,68,2,0.711988947349837,50.5833333333333,80.15,21.6,14.9303727662037,25.1625388888891,4.78099916666668,14.9303727662037,1.33910437249544,1124.76338460556
2017-06-08,"FPWW0180615","FPWW018",2,2,615,68,2,0.933351739153126,50.5833333333333,80.15,21.6,14.9303727662037,25.1625388888891,4.78099916666668,14.9303727662037,1.33910437249544,1124.76338460556
2017-06-08,"FPWW0180623","FPWW018",2,1,623,68,2,0.820088146196909,50.5833333333333,80.15,21.6,14.9303727662037,25.1625388888891,4.78099916666668,14.9303727662037,1.33910437249544,1124.76338460556
2017-06-08,"FPWW0180673","FPWW018",2,122,673,68,2,0.6872665642152,50.5833333333333,80.15,21.6,14.9303727662037,25.1625388888891,4.78099916666668,14.9303727662037,1.33910437249544,1124.76338460556
2017-06-12,"FPWW0180038","FPWW018",1,2,38,72,2,0.907428594346494,62.6791666666667,78.55,51.9,20.9746811342593,26.010363888889,15.1935444444446,20.9746811342593,0.99411157399345,1202.02858474445
2017-06-12,"FPWW0180107","FPWW018",1,122,107,72,2,0.664078690690499,62.6791666666667,78.55,51.9,20.9746811342593,26.010363888889,15.1935444444446,20.9746811342593,0.99411157399345,1202.02858474445
2017-06-12,"FPWW0180115","FPWW018",1,1,115,72,2,0.812913017827182,62.6791666666667,78.55,51.9,20.9746811342593,26.010363888889,15.1935444444446,20.9746811342593,0.99411157399345,1202.02858474445
2017-06-12,"FPWW0180125","FPWW018",1,302,125,72,2,0.887687290022799,62.6791666666667,78.55,51.9,20.9746811342593,26.010363888889,15.1935444444446,20.9746811342593,0.99411157399345,1202.02858474445
2017-06-12,"FPWW0180178","FPWW018",1,301,178,72,2,0.974788215896614,62.6791666666667,78.55,51.9,20.9746811342593,26.010363888889,15.1935444444446,20.9746811342593,0.99411157399345,1202.02858474445
2017-06-12,"FPWW0180245","FPWW018",1,341,245,72,2,0.684325983361275,62.6791666666667,78.55,51.9,20.9746811342593,26.010363888889,15.1935444444446,20.9746811342593,0.99411157399345,1202.02858474445
2017-06-12,"FPWW0180349","FPWW018",1,106,349,72,2,0.952856854550771,62.6791666666667,78.55,51.9,20.9746811342593,26.010363888889,15.1935444444446,20.9746811342593,0.99411157399345,1202.02858474445
2017-06-12,"FPWW0180350","FPWW018",1,218,350,72,2,0.696428250702665,62.6791666666667,78.55,51.9,20.9746811342593,26.010363888889,15.1935444444446,20.9746811342593,0.99411157399345,1202.02858474445
2017-06-12,"FPWW0180436","FPWW018",2,301,436,72,2,0.955374048082887,62.6791666666667,78.55,51.9,20.9746811342593,26.010363888889,15.1935444444446,20.9746811342593,0.99411157399345,1202.02858474445
2017-06-12,"FPWW0180590","FPWW018",2,341,590,72,2,0.674611111067683,62.6791666666667,78.55,51.9,20.9746811342593,26.010363888889,15.1935444444446,20.9746811342593,0.99411157399345,1202.02858474445
2017-06-12,"FPWW0180591","FPWW018",2,106,591,72,2,0.978115296843168,62.6791666666667,78.55,51.9,20.9746811342593,26.010363888889,15.1935444444446,20.9746811342593,0.99411157399345,1202.02858474445
2017-06-12,"FPWW0180604","FPWW018",2,302,604,72,2,0.940497163722599,62.6791666666667,78.55,51.9,20.9746811342593,26.010363888889,15.1935444444446,20.9746811342593,0.99411157399345,1202.02858474445
2017-06-12,"FPWW0180611","FPWW018",2,218,611,72,2,0.694202504643266,62.6791666666667,78.55,51.9,20.9746811342593,26.010363888889,15.1935444444446,20.9746811342593,0.99411157399345,1202.02858474445
2017-06-12,"FPWW0180615","FPWW018",2,2,615,72,2,0.872227709498672,62.6791666666667,78.55,51.9,20.9746811342593,26.010363888889,15.1935444444446,20.9746811342593,0.99411157399345,1202.02858474445
2017-06-12,"FPWW0180623","FPWW018",2,1,623,72,2,0.784239434104678,62.6791666666667,78.55,51.9,20.9746811342593,26.010363888889,15.1935444444446,20.9746811342593,0.99411157399345,1202.02858474445
2017-06-12,"FPWW0180673","FPWW018",2,122,673,72,2,0.661421775851229,62.6791666666667,78.55,51.9,20.9746811342593,26.010363888889,15.1935444444446,20.9746811342593,0.99411157399345,1202.02858474445
2017-06-23,"FPWW0180038","FPWW018",1,2,38,83,2,0.922229009860007,55.7041666666667,71.6,40.3,25.2754978009259,31.53895,18.5995611111112,25.2754978009259,1.68705788313158,1437.916287175
2017-06-23,"FPWW0180107","FPWW018",1,122,107,83,2,0.680252119723403,55.7041666666667,71.6,40.3,25.2754978009259,31.53895,18.5995611111112,25.2754978009259,1.68705788313158,1437.916287175
2017-06-23,"FPWW0180115","FPWW018",1,1,115,83,2,0.827219405944573,55.7041666666667,71.6,40.3,25.2754978009259,31.53895,18.5995611111112,25.2754978009259,1.68705788313158,1437.916287175
2017-06-23,"FPWW0180125","FPWW018",1,302,125,83,2,0.896411310739078,55.7041666666667,71.6,40.3,25.2754978009259,31.53895,18.5995611111112,25.2754978009259,1.68705788313158,1437.916287175
2017-06-23,"FPWW0180178","FPWW018",1,301,178,83,2,0.975630393518648,55.7041666666667,71.6,40.3,25.2754978009259,31.53895,18.5995611111112,25.2754978009259,1.68705788313158,1437.916287175
2017-06-23,"FPWW0180245","FPWW018",1,341,245,83,2,0.690303659659372,55.7041666666667,71.6,40.3,25.2754978009259,31.53895,18.5995611111112,25.2754978009259,1.68705788313158,1437.916287175
2017-06-23,"FPWW0180349","FPWW018",1,106,349,83,2,0.962161122956581,55.7041666666667,71.6,40.3,25.2754978009259,31.53895,18.5995611111112,25.2754978009259,1.68705788313158,1437.916287175
2017-06-23,"FPWW0180350","FPWW018",1,218,350,83,2,0.698111612419842,55.7041666666667,71.6,40.3,25.2754978009259,31.53895,18.5995611111112,25.2754978009259,1.68705788313158,1437.916287175
2017-06-23,"FPWW0180436","FPWW018",2,301,436,83,2,0.988784949055953,55.7041666666667,71.6,40.3,25.2754978009259,31.53895,18.5995611111112,25.2754978009259,1.68705788313158,1437.916287175
2017-06-23,"FPWW0180590","FPWW018",2,341,590,83,2,0.683520382514431,55.7041666666667,71.6,40.3,25.2754978009259,31.53895,18.5995611111112,25.2754978009259,1.68705788313158,1437.916287175
2017-06-23,"FPWW0180591","FPWW018",2,106,591,83,2,0.993382881701849,55.7041666666667,71.6,40.3,25.2754978009259,31.53895,18.5995611111112,25.2754978009259,1.68705788313158,1437.916287175
2017-06-23,"FPWW0180604","FPWW018",2,302,604,83,2,0.952192701814854,55.7041666666667,71.6,40.3,25.2754978009259,31.53895,18.5995611111112,25.2754978009259,1.68705788313158,1437.916287175
2017-06-23,"FPWW0180611","FPWW018",2,218,611,83,2,0.697938008694756,55.7041666666667,71.6,40.3,25.2754978009259,31.53895,18.5995611111112,25.2754978009259,1.68705788313158,1437.916287175
2017-06-23,"FPWW0180615","FPWW018",2,2,615,83,2,0.94174542990871,55.7041666666667,71.6,40.3,25.2754978009259,31.53895,18.5995611111112,25.2754978009259,1.68705788313158,1437.916287175
2017-06-23,"FPWW0180623","FPWW018",2,1,623,83,2,0.813190012617198,55.7041666666667,71.6,40.3,25.2754978009259,31.53895,18.5995611111112,25.2754978009259,1.68705788313158,1437.916287175
2017-06-23,"FPWW0180673","FPWW018",2,122,673,83,2,0.665619255852707,55.7041666666667,71.6,40.3,25.2754978009259,31.53895,18.5995611111112,25.2754978009259,1.68705788313158,1437.916287175
2017-06-30,"FPWW0180038","FPWW018",1,2,38,90,2,0.914134680075748,61.1833333333333,79.4,38.9,15.9527043369515,22.0589666666667,11.5790969899666,15.9527043369515,0.951131717977998,1570.79055803302
2017-06-30,"FPWW0180107","FPWW018",1,122,107,90,2,0.681198635076615,61.1833333333333,79.4,38.9,15.9527043369515,22.0589666666667,11.5790969899666,15.9527043369515,0.951131717977998,1570.79055803302
2017-06-30,"FPWW0180115","FPWW018",1,1,115,90,2,0.821688859632252,61.1833333333333,79.4,38.9,15.9527043369515,22.0589666666667,11.5790969899666,15.9527043369515,0.951131717977998,1570.79055803302
2017-06-30,"FPWW0180125","FPWW018",1,302,125,90,2,0.89093409482316,61.1833333333333,79.4,38.9,15.9527043369515,22.0589666666667,11.5790969899666,15.9527043369515,0.951131717977998,1570.79055803302
2017-06-30,"FPWW0180178","FPWW018",1,301,178,90,2,0.969266458985854,61.1833333333333,79.4,38.9,15.9527043369515,22.0589666666667,11.5790969899666,15.9527043369515,0.951131717977998,1570.79055803302
2017-06-30,"FPWW0180245","FPWW018",1,341,245,90,2,0.685982401359477,61.1833333333333,79.4,38.9,15.9527043369515,22.0589666666667,11.5790969899666,15.9527043369515,0.951131717977998,1570.79055803302
2017-06-30,"FPWW0180349","FPWW018",1,106,349,90,2,0.957856796585273,61.1833333333333,79.4,38.9,15.9527043369515,22.0589666666667,11.5790969899666,15.9527043369515,0.951131717977998,1570.79055803302
2017-06-30,"FPWW0180350","FPWW018",1,218,350,90,2,0.689314163981886,61.1833333333333,79.4,38.9,15.9527043369515,22.0589666666667,11.5790969899666,15.9527043369515,0.951131717977998,1570.79055803302
2017-06-30,"FPWW0180436","FPWW018",2,301,436,90,2,0.989366946916315,61.1833333333333,79.4,38.9,15.9527043369515,22.0589666666667,11.5790969899666,15.9527043369515,0.951131717977998,1570.79055803302
2017-06-30,"FPWW0180590","FPWW018",2,341,590,90,2,0.679166560683306,61.1833333333333,79.4,38.9,15.9527043369515,22.0589666666667,11.5790969899666,15.9527043369515,0.951131717977998,1570.79055803302
2017-06-30,"FPWW0180591","FPWW018",2,106,591,90,2,0.987712154656854,61.1833333333333,79.4,38.9,15.9527043369515,22.0589666666667,11.5790969899666,15.9527043369515,0.951131717977998,1570.79055803302
2017-06-30,"FPWW0180604","FPWW018",2,302,604,90,2,0.941349152828286,61.1833333333333,79.4,38.9,15.9527043369515,22.0589666666667,11.5790969899666,15.9527043369515,0.951131717977998,1570.79055803302
2017-06-30,"FPWW0180611","FPWW018",2,218,611,90,2,0.693433362512987,61.1833333333333,79.4,38.9,15.9527043369515,22.0589666666667,11.5790969899666,15.9527043369515,0.951131717977998,1570.79055803302
2017-06-30,"FPWW0180615","FPWW018",2,2,615,90,2,0.932796274003583,61.1833333333333,79.4,38.9,15.9527043369515,22.0589666666667,11.5790969899666,15.9527043369515,0.951131717977998,1570.79055803302
2017-06-30,"FPWW0180623","FPWW018",2,1,623,90,2,0.813723085948024,61.1833333333333,79.4,38.9,15.9527043369515,22.0589666666667,11.5790969899666,15.9527043369515,0.951131717977998,1570.79055803302
2017-06-30,"FPWW0180673","FPWW018",2,122,673,90,2,0.668098900655451,61.1833333333333,79.4,38.9,15.9527043369515,22.0589666666667,11.5790969899666,15.9527043369515,0.951131717977998,1570.79055803302
