"Date","RHmean","RHmax","RHmin","Tmean","Tmax","Tmin","Tsum","VPD"
2015-10-13 13:00:00,89.3145833333333,93.45,78.7,7.60798611111111,10.2793333333333,5.03733333333333,7.60798611111111,0.161888910253679
2015-10-14 13:00:00,77.4916666666667,93.25,52.95,6.02311805555556,9.31533333333333,3.19766666666667,6.02311805555556,0.301824464304419
2015-10-15 13:00:00,87.7395833333333,92.7,79.75,4.564625,5.65916666666667,3.617,4.564625,0.121362088160476
2015-10-16 13:00:00,88.4708333333333,93.35,77.8,4.30282638888889,5.49216666666667,3.46766666666667,4.30282638888889,0.126248210221132
2015-10-17 13:00:00,88.2354166666667,93.35,76.3,3.80365277777778,6.88883333333333,0.0468333333333333,3.80365277777778,0.138195451558278
2015-10-18 13:00:00,92.2666666666667,95.4,85.8,5.51360416666667,7.406,4.11933333333333,5.51360416666667,0.0920022123918816
2015-10-19 13:00:00,80.2541666666667,93.35,56.15,6.04715972222222,9.75,2.35483333333333,6.04715972222222,0.28881868157018
2015-10-20 13:00:00,77.10625,93.4,53.4,4.84517361111111,10.3201666666667,1.26916666666667,4.84517361111111,0.314407960415272
2015-10-21 13:00:00,81.0354166666667,91,63.9,4.55426388888889,8.5725,0.645666666666667,4.55426388888889,0.230120454331933
2015-10-22 13:00:00,77.63125,90.7,59.2,6.50391666666667,10.6753333333333,0.800666666666667,6.50391666666667,0.292169374190924
2015-10-23 13:00:00,83.3125,92.65,73.05,9.49231944444444,11.5483333333333,7.74916666666667,9.49231944444444,0.222195558093518
2015-10-24 13:00:00,73.2354166666667,86.1,50.85,11.3550972222222,16.8796666666667,8.67166666666667,11.3550972222222,0.550615297213823
2015-10-25 12:00:00,76.93125,90.1,61,10.9330902777778,16.153,7.69433333333333,10.9330902777778,0.410052460556576
2015-10-26 12:00:00,83.4729166666667,92.4,66.85,9.97294444444444,13.726,7.69066666666667,9.97294444444444,0.300208238266986
2015-10-27 12:00:00,92.1416666666667,97.15,86.45,8.03816666666667,9.118,7.20033333333333,8.03816666666667,0.092877378216161
2015-10-28 12:00:00,85.3416666666667,99.9,64.85,9.08305555555556,13.742,6.2425,9.08305555555556,0.276760737557925
2015-10-29 12:00:00,92.8583333333333,98.25,82.15,9.236,11.3455,7.73633333333333,9.236,0.129097222410547
2015-10-30 12:00:00,84.69375,92,75.15,9.69772916666667,11.6735,8.76266666666667,9.69772916666667,0.215743283751369
2015-10-31 12:00:00,88.9145833333333,93.1,80.8,8.86650694444444,10.6131666666667,8.0325,8.86650694444444,0.159909038355357
2015-11-01 12:00:00,87.45625,99.9,72.55,8.50530555555556,12.1946666666667,6.5595,8.50530555555556,0.195472839975546
2015-11-02 12:00:00,95.9166666666667,99.9,82.05,5.96597222222222,8.69583333333333,4.73116666666667,5.96597222222222,0.101368256131116
2015-11-03 12:00:00,91.8833333333333,99.9,72.95,5.50624305555556,9.5415,2.69883333333333,5.50624305555556,0.161418464307342
2015-11-04 12:00:00,78.4520833333333,95.05,51,8.25734722222222,16.2878333333333,2.65583333333333,8.25734722222222,0.472038142458074
2015-11-05 12:00:00,78.1479166666667,93.7,56.6,9.11226388888889,16.1408333333333,4.24883333333333,9.11226388888889,0.424201442205019
2015-11-06 12:00:00,71.71875,88.1,51.8,11.5163055555556,18.4853333333333,7.35133333333333,11.5163055555556,0.573869067524505
2015-11-07 12:00:00,68.73125,78.65,51.2,13.8722638888889,20.869,8.91033333333333,13.8722638888889,0.723778591046976
2015-11-08 12:00:00,69.66875,78.9,51.05,12.8675208333333,20.234,8.19366666666667,12.8675208333333,0.69531549370196
2015-11-09 12:00:00,70.2,89.9,47.1,13.5542638888889,19.7853333333333,9.21566666666667,13.5542638888889,0.669131578808691
2015-11-10 12:00:00,80.44375,95.65,52.05,11.2728958333333,18.0688333333333,6.79633333333333,11.2728958333333,0.518474697990726
2015-11-11 12:00:00,88.5583333333333,95.45,63.85,7.215375,14.557,4.1015,7.215375,0.318193528490622
2015-11-12 12:00:00,98.9854166666667,99.9,94.55,4.98424305555556,5.9705,3.31483333333333,4.98424305555556,0.025817168651064
2015-11-13 12:00:00,84.76875,99.9,66.85,8.25701388888889,12.5733333333333,4.87366666666667,8.25701388888889,0.241843375141578
2015-11-14 12:00:00,77.5666666666667,94.7,65.65,8.58929861111111,10.6668333333333,5.178,8.58929861111111,0.243918976323288
2015-11-15 12:00:00,58.7,73.45,41.2,11.8188402777778,17.7995,7.92,11.8188402777778,0.740840959081084
2015-11-16 12:00:00,68.6354166666667,85.25,50.3,11.0358125,16.967,6.4245,11.0358125,0.551537208797355
2015-11-17 12:00:00,72.9020833333333,91.05,58.8,10.3759305555556,16.0143333333333,4.11833333333333,10.3759305555556,0.411607780394112
2015-11-18 12:00:00,65.175,78.45,51.35,14.2909444444444,17.4745,10.809,14.2909444444444,0.625373431120439
2015-11-19 12:00:00,59.35,71.25,49.05,13.4172777777778,15.8908333333333,10.8335,13.4172777777778,0.646612817216231
2015-11-20 12:00:00,85.7541666666667,94.45,71.85,11.8874722222222,13.878,5.965,11.8874722222222,0.249114912220876
2015-11-21 12:00:00,86.3333333333333,95,73.55,2.69461805555556,5.3895,0.0141666666666667,2.69461805555556,0.133823321502105
2015-11-22 12:00:00,88.6520833333333,92.95,75.5,0.224430555555556,2.51916666666667,-1.181,0.4623125,0.109454892949507
2015-11-23 12:00:00,83.5166666666667,91.55,59.15,-0.426243055555556,3.79566666666667,-3.33233333333333,0.482701388888889,0.183913824643024
2015-11-24 12:00:00,75.24375,89.25,59.75,-1.53541666666667,2.09616666666667,-6.0555,0.388006944444444,0.163877431617344
2015-11-25 12:00:00,91.9604166666667,94.55,68.75,1.12997222222222,2.325,-0.101833333333333,1.13535416666667,0.12936875758659
2015-11-26 12:00:00,92.5041666666667,94.5,87.15,1.31805555555556,2.54783333333333,0.641333333333333,1.31805555555556,0.064743406774125
2015-11-27 12:00:00,79.94375,92.6,70.25,0.933215277777778,1.8185,-0.0323333333333333,0.9345625,0.126155036827929
2015-11-28 12:00:00,83.9145833333333,93.5,72,0.521701388888889,1.922,-0.521166666666667,0.568083333333333,0.117350277874478
2015-11-29 12:00:00,78.8520833333333,93.35,66.35,3.82697222222222,8.21933333333333,0.965833333333333,3.82697222222222,0.204989201346371
2015-11-30 12:00:00,68.70625,79.95,59.5,9.28484722222222,11.1225,7.686,9.28484722222222,0.373263600302914
2015-12-01 12:00:00,71.0458333333333,84.85,62.7,8.84784027777778,10.8176666666667,4.00866666666667,8.84784027777778,0.303511825007907
2015-12-02 12:00:00,84.7833333333333,94.7,67.1,4.07099305555556,10.1646666666667,0.354333333333333,4.07099305555556,0.220848024064989
2015-12-03 12:00:00,97.7895833333333,99.8,95.25,0.297506944444444,1.153,-0.568,0.387173611111111,0.0163559076000601
2015-12-04 12:00:00,92.9604166666667,99.85,79.95,2.27588888888889,5.39383333333333,-0.882833333333333,2.45497222222222,0.0903120981735811
2015-12-05 12:00:00,99.175,99.9,93.5,3.07440277777778,4.67916666666667,0.938166666666667,3.07440277777778,0.0280483145003887
2015-12-06 12:00:00,92.50625,99.9,77.8,4.14761805555556,9.08916666666667,0.82,4.14761805555556,0.128528493093576
2015-12-07 12:00:00,88.9375,95.35,76.1,2.97827777777778,7.71116666666667,0.406666666666667,2.97827777777778,0.140322705836042
2015-12-08 12:00:00,98.45,99.9,95.1,0.709513888888889,4.67016666666667,-1.19933333333333,0.933402777777778,0.0211642772409326
2015-12-09 12:00:00,97.6979166666667,99.9,88.25,3.61772222222222,8.00283333333333,-0.428,3.63555555555556,0.0633333487889527
2015-12-10 12:00:00,96.95,99.85,88.75,1.24116666666667,2.55183333333333,-0.120666666666667,1.24619444444444,0.0417415782767142
2015-12-11 12:00:00,87.0958333333333,99.5,65.6,1.51731944444444,7.8075,-1.5555,1.98529166666667,0.183473559695042
2015-12-12 12:00:00,70.1041666666667,80.25,53.75,4.49603472222222,10.459,0.745666666666667,4.49603472222222,0.356488885943287
2015-12-13 12:00:00,76.7020833333333,91.55,55.95,2.82971527777778,9.113,-1.04333333333333,2.95824305555556,0.278708429280031
2015-12-14 12:00:00,91.05625,94.5,82.15,-0.941027777777778,2.96366666666667,-3.49416666666667,0.460118055555556,0.080432490866898
2015-12-15 12:00:00,88.9416666666667,92.6,76.95,0.0313194444444444,4.81316666666667,-3.89633333333333,1.37308333333333,0.116169482989779
2015-12-16 12:00:00,90.7833333333333,95.85,83.95,6.81264583333333,9.702,1.85866666666667,6.81264583333333,0.111087978378308
2015-12-17 12:00:00,85.2833333333333,96.3,61.5,9.62225,15.9545,5.26866666666667,9.62225,0.365447155333337
2015-12-18 12:00:00,84.56875,96.15,69.25,7.626125,11.7488333333333,4.60116666666667,7.626125,0.228428798454452
2015-12-19 12:00:00,87.5125,97.15,64.65,6.18851736111111,12.1,1.8,6.18851736111111,0.259454939402408
2015-12-20 12:00:00,86.6416666666667,99.2,64.65,4.65156944444444,11.3,-0.8,4.74323611111111,0.238994402323752
2015-12-21 12:00:00,87.8708333333333,94.35,82.15,8.17386666666667,10.1036666666667,5.44483333333333,8.17386666666667,0.135777859676172
2015-12-22 12:00:00,82.7708333333333,93.9,61.85,7.15416666666667,12.1,4.3,7.15416666666667,0.294641435438029
2015-12-23 12:00:00,73.75,90.95,56.1,7.8625,12.4,3.8,7.8625,0.352362815468056
2015-12-24 12:00:00,72.1,85,56.15,6.68333333333333,11.8,1.8,6.68333333333333,0.355650484783627
2015-12-25 12:00:00,65.45,74.05,53.4,8.0698875,13.4653333333333,4.42666666666667,8.0698875,0.46847807257322
2015-12-26 12:00:00,70.8375,81.9,55.65,5.20806944444444,12.0455,0.687,5.20806944444444,0.370055922940437
2015-12-27 12:00:00,76.3729166666667,89.85,58.8,3.83986111111111,10.3285,-0.000833333333333343,3.83989583333333,0.289579098044087
2015-12-28 12:00:00,85.7770833333333,92.9,68.9,0.0628541666666666,6.10783333333333,-3.37516666666667,1.28574305555556,0.163399565460754
2015-12-29 12:00:00,84.6104166666667,94.2,64.3,0.701555555555556,8.2195,-4.298,2.42754861111111,0.207251713760503
2015-12-30 12:00:00,95.66875,99.85,90.35,0.0644166666666666,1.85833333333333,-1.95766666666667,0.521479166666667,0.0341003529655085
2015-12-31 12:00:00,96.6791666666667,99.85,91.6,2.64207638888889,5.9365,-0.1715,2.66850694444444,0.0395546829904356
2016-01-01 12:00:00,96.15,99.9,90.95,3.9491875,4.968,2.6165,3.9491875,0.0397526812225846
2016-01-02 12:00:00,94.4041666666667,96.15,92.3,3.74185416666667,4.69233333333333,3.11116666666667,3.74185416666667,0.0475719875490503
2016-01-03 12:00:00,84.7729166666667,92.75,67.05,3.92501388888889,6.20383333333333,1.773,3.92501388888889,0.181413809235668
2016-01-04 12:00:00,92.2291666666667,95.75,87.85,2.44761805555556,4.02366666666667,0.554166666666667,2.44761805555556,0.0630003709517954
2016-01-05 12:00:00,81.7270833333333,92.8,68.45,3.928125,7.032,0.915833333333333,3.928125,0.181889087827655
2016-01-06 12:00:00,82.5791666666667,94.25,68.3,3.63613888888889,6.348,1.67366666666667,3.63613888888889,0.171642128812661
2016-01-07 12:00:00,90.7,97.55,83.8,2.268625,4.839,0.324,2.268625,0.0775276101446181
2016-01-08 12:00:00,90.8104166666667,99.2,84.35,2.89685416666667,3.884,1.0935,2.89685416666667,0.0657645883631515
2016-01-09 12:00:00,96.1,99.85,88.9,5.27921527777778,7.35983333333333,2.8805,5.27921527777778,0.0575555723304387
2016-01-10 12:00:00,94.85625,99.75,91.65,3.90063888888889,5.16666666666667,1.49733333333333,3.90063888888889,0.0376956841987122
2016-01-11 12:00:00,86.1083333333333,96.05,60.85,4.76792361111111,7.7155,3.48083333333333,4.76792361111111,0.221444415356518
2016-01-12 12:00:00,82.34375,90.6,70.8,4.12829166666667,5.49633333333333,2.70816666666667,4.12829166666667,0.166721926666293
2016-01-13 12:00:00,77.5291666666667,95.3,55.9,1.68751388888889,3.01366666666667,0.485333333333333,1.68751388888889,0.182118390866292
2016-01-14 12:00:00,80.85,94.2,61.75,-1.290625,0.627,-3.39466666666667,0.0860416666666667,0.136040956984417
2016-01-15 12:00:00,73.99375,95.85,52.75,0.0924444444444444,1.18483333333333,-1.44133333333333,0.381715277777778,0.168633963561818
2016-01-16 12:00:00,87.34375,92.8,76.8,-0.931597222222222,0.636166666666667,-1.7085,0.0630694444444444,0.0936014706591861
2016-01-17 12:00:00,80.5333333333333,90.15,59.6,-3.52938194444444,-0.0946666666666667,-8.84866666666667,0,0.137943884669191
2016-01-18 12:00:00,78.9020833333333,88.65,62.5,-7.65334027777778,-4.01133333333333,-11.1055,0,0.0999476074259018
2016-01-19 12:00:00,81.1145833333333,93.55,71.75,-3.60878472222222,-0.769666666666667,-8.497,0,0.0919335791950156
2016-01-20 12:00:00,91.56875,94.25,87.4,-0.927888888888889,0.301,-3.185,0.0206736111111111,0.0532150922896178
2016-01-21 12:00:00,86.1020833333333,94.65,67.65,-2.56368055555556,0.176,-3.787,0.00733333333333333,0.112417286651518
2016-01-22 12:00:00,75.0791666666667,86.8,56.4,-1.61493055555556,2.65883333333333,-4.1035,0.504097222222222,0.190984056450008
2016-01-23 12:00:00,85.3604166666667,96.15,65.2,2.05042361111111,7.6315,-1.58116666666667,2.17936111111111,0.192500182242523
2016-01-24 12:00:00,84.43125,96.55,68.05,0.282263888888889,4.24583333333333,-3.301,1.364375,0.140441792727404
2016-01-25 12:00:00,70.3791666666667,87.8,48.5,3.87761111111111,11.5441666666667,-0.968666666666667,4.00885416666667,0.385159473873507
2016-01-26 12:00:00,69.1375,80.95,49.35,5.64097222222222,12.6663333333333,2.26566666666667,5.64097222222222,0.439611409598069
2016-01-27 12:00:00,64.5979166666667,76.4,54.9,6.78728472222222,11.9366666666667,2.596,6.78728472222222,0.40184459783189
2016-01-28 12:00:00,72.0145833333333,91.2,59.15,7.85336805555556,11.0005,5.64566666666667,7.85336805555556,0.308277101537755
2016-01-29 12:00:00,85.9375,94.05,69.85,6.96770833333333,10.1,4.8,6.96770833333333,0.211950660557995
2016-01-30 12:00:00,82.1458333333333,96.85,59.4,5.96513888888889,10.7,1.6,5.96513888888889,0.272012969718087
2016-01-31 12:00:00,93.3458333333333,99.85,87.1,5.63120902777778,10.1895,0.989,5.63120902777778,0.0807071265761394
2016-02-01 12:00:00,78.5354166666667,94.2,64.35,10.4517777777778,13,6.1,10.4517777777778,0.294284153933233
2016-02-02 12:00:00,73.3395833333333,84.8,64.95,8.22685416666667,11,5.132,8.22685416666667,0.296962133720688
2016-02-03 12:00:00,84.81875,93.6,66.4,4.13367361111111,8.77116666666667,0.581666666666667,4.13367361111111,0.210301378918527
2016-02-04 12:00:00,85.2125,93.1,65.5,1.90920138888889,3.56866666666667,0.522,1.90920138888889,0.157971857520999
2016-02-05 12:00:00,88.0645833333333,95.35,68.5,5.245,9.7,1.48,5.245,0.205355843412894
2016-02-06 12:00:00,81.875,94.35,45.5,4.85,12.5,0.3,4.85,0.412619095784847
2016-02-07 12:00:00,86.1979166666667,93,76.75,3.18788611111111,7.0405,1.0586,3.18788611111111,0.139872534730865
2016-02-08 12:00:00,72.2604166666667,91.65,52.4,6.15454166666667,11.791,1.59716666666667,6.15454166666667,0.357859539057533
2016-02-09 12:00:00,79.9125,90.3,65.7,6.64557638888889,8.16383333333333,4.16666666666667,6.64557638888889,0.225951123603248
2016-02-10 12:00:00,75.9416666666667,94.05,62.15,1.46565972222222,2.748,-0.236333333333333,1.49807638888889,0.158723754250673
2016-02-11 12:00:00,65.40625,80.65,44.15,1.66159027777778,5.3155,-0.4,1.70343055555556,0.306406510993899
2016-02-12 12:00:00,81.4708333333333,92.15,57,1.93092361111111,5.58616666666667,-0.246166666666667,1.95755555555556,0.21890837560596
2016-02-13 12:00:00,82.7,94.7,66.85,4.0914375,7.40066666666667,0.485166666666667,4.0914375,0.187449125277327
2016-02-14 12:00:00,83.0458333333333,94.4,68.5,4.44182638888889,7.3515,1.08016666666667,4.44182638888889,0.180136453290684
2016-02-15 12:00:00,91.2541666666667,94.7,85.65,1.80454861111111,3.19866666666667,0.5945,1.80454861111111,0.0720411695977514
2016-02-16 12:00:00,82.1708333333333,91.85,74.85,1.195125,2.025,0.536166666666667,1.195125,0.114771543270514
2016-02-17 12:00:00,85.5979166666667,93.2,79.95,0.946083333333333,2.24433333333333,-0.479666666666667,0.966069444444444,0.0920404414168944
2016-02-18 12:00:00,73.6104166666667,89.35,53.3,2.16659722222222,7.34633333333333,-1.63233333333333,2.38410416666667,0.268413993749291
2016-02-19 12:00:00,79.9166666666667,93.45,67.3,1.52605555555556,2.87666666666667,-0.367666666666667,1.541375,0.142289244925313
2016-02-20 12:00:00,82.5395833333333,94.35,61.05,0.993625,4.709,-1.03816666666667,1.22929166666667,0.182456582329608
2016-02-21 12:00:00,70.53125,83.15,53.15,10.726125,15.708,6.90166666666667,10.726125,0.501892519968922
2016-02-22 12:00:00,67.6854166666667,88.2,39.1,10.0363819444444,16.2365,4.28383333333333,10.0363819444444,0.611037062069989
2016-02-23 12:00:00,81.1895833333333,92.95,66.95,6.27836805555556,9.4145,0.778833333333333,6.27836805555556,0.217877419283255
2016-02-24 12:00:00,85.7083333333333,94.2,67.5,1.13663194444444,3.832,-1.06233333333333,1.26164583333333,0.146990013924797
2016-02-25 12:00:00,91.98125,94.55,87.15,0.524229166666667,1.41166666666667,0.033,0.524229166666667,0.0601479869403619
2016-02-26 12:00:00,79.54375,95.8,58.35,0.844638888888889,3.9705,-0.755666666666667,0.961576388888889,0.181148594739451
2016-02-27 12:00:00,81.8020833333333,93.55,66.65,0.101604166666667,4.4235,-2.86883333333333,1.21570138888889,0.155652849475025
2016-02-28 12:00:00,75.8708333333333,83.95,62.05,2.53505555555556,5.29083333333333,0.655333333333333,2.53505555555556,0.220315912406563
2016-02-29 12:00:00,93.6458333333333,95.8,87.7,1.27375694444444,2.48983333333333,-0.0878333333333333,1.27855555555556,0.0576870386072548
2016-03-01 12:00:00,88.3354166666667,95.75,76.25,1.09321527777778,3.58633333333333,-0.9395,1.33109027777778,0.105917176275833
2016-03-02 12:00:00,90.475,95.2,78.65,2.92473611111111,7.509,0.4895,2.92473611111111,0.125934118440783
2016-03-03 12:00:00,87.975,94.4,72.55,0.407618055555556,1.796,-2.18183333333333,0.674368055555556,0.110014329645855
2016-03-04 12:00:00,78.1583333333333,91.4,57.25,1.27609722222222,5.1,-2.48966666666667,1.67875,0.209631740619511
2016-03-05 12:00:00,92.8916666666667,95.2,87.9,0.553909722222222,1.958,-0.545666666666667,0.596875,0.056650328915796
2016-03-06 12:00:00,82,92,61.9,1.32900694444444,3.841,-0.232,1.34233333333333,0.177223528869651
2016-03-07 12:00:00,68.5125,87.75,36.9,1.29371527777778,5.46633333333333,-2.54266666666667,1.66263194444444,0.315331668535073
2016-03-08 12:00:00,87.60625,93.05,75,0.365854166666667,2.45266666666667,-0.746,0.573881944444444,0.111204059551153
2016-03-09 12:00:00,75.9708333333333,92.3,57.4,1.00156944444444,5.11883333333333,-1.50333333333333,1.52806944444444,0.208413159536199
2016-03-10 12:00:00,70.8708333333333,90.6,45.3,1.85054861111111,8.394,-3.45516666666667,2.88536805555556,0.323611314564653
2016-03-11 12:00:00,70.1916666666667,85.25,62.15,3.84099305555556,6.11833333333333,0.378666666666667,3.84099305555556,0.224727643066225
2016-03-12 12:00:00,72.4979166666667,77.15,66.45,4.05536805555556,5.0075,2.74366666666667,4.05536805555556,0.231419186783717
2016-03-13 12:00:00,70.075,79.55,59.6,4.26563888888889,6.538,3.0005,4.26563888888889,0.273528626141704
2016-03-14 12:00:00,69.2229166666667,76.8,61.05,3.43036111111111,4.9125,1.94183333333333,3.43036111111111,0.250362018969191
2016-03-15 12:00:00,80.78125,94.45,59.1,1.19803472222222,6.78766666666667,-2.45066666666667,1.611,0.216066538834628
2016-03-16 12:00:00,68.5145833333333,81.2,54.4,2.56828472222222,6.289,0.0976666666666667,2.56828472222222,0.275333132485771
2016-03-17 12:00:00,71.9395833333333,90.7,45.1,3.29302777777778,10.3245,-1.21816666666667,3.47736111111111,0.370456573795591
2016-03-18 12:00:00,59.35,87.4,28.6,5.30809722222222,13.4573333333333,-2.07366666666667,5.56457638888889,0.583958041461895
2016-03-19 12:00:00,56.2958333333333,79.45,27.85,6.78090972222222,14.796,-1.07683333333333,6.865625,0.665178511675423
2016-03-20 12:00:00,77.0395833333333,91.2,55.2,4.66697222222222,10.8215,1.7825,4.66697222222222,0.321145417355849
2016-03-21 12:00:00,74.5520833333333,83.7,54.5,3.42684027777778,7.807,0.969666666666667,3.42684027777778,0.294270113265205
2016-03-22 12:00:00,61.875,84.75,41.35,4.50715277777778,9.47883333333333,-0.1435,4.5154375,0.393804830939954
2016-03-23 12:00:00,71.9875,82.6,64.05,3.40315277777778,6.50883333333333,-0.677,3.43277777777778,0.224677616877412
2016-03-24 12:00:00,63.7854166666667,85.2,39.85,5.27586805555556,9.55433333333333,0.295833333333333,5.27586805555556,0.404605972279262
2016-03-25 12:00:00,78.8458333333333,91.25,62.55,5.14024305555556,6.2085,3.67316666666667,5.14024305555556,0.212412846792433
2016-03-26 12:00:00,70.23125,95.05,42,8.82201388888889,14.3011666666667,4.485,8.82201388888889,0.49355969868162
2016-03-27 13:00:00,73.61875,85.65,60.25,6.05002777777778,9.49683333333333,2.38816666666667,6.05002777777778,0.288003167708063
2016-03-28 13:00:00,65.7041666666667,91.05,45.55,7.49308333333333,14.4613333333333,0.5445,7.49308333333333,0.476857714599789
2016-03-29 13:00:00,65.525,88.5,45.95,10.0865138888889,14.3615,6.564,10.0865138888889,0.498167557917459
2016-03-30 13:00:00,65.0145833333333,78.8,44.75,12.0172291666667,18.2988333333333,8.41066666666667,12.0172291666667,0.697912367656561
2016-03-31 13:00:00,49.5854166666667,79.8,26.9,13.7565,22.3536666666667,5.608,13.7565,1.07929865486901
2016-04-01 13:00:00,75.9541666666667,90.45,56.8,10.7008194444444,13.8818333333333,8.06566666666667,10.7008194444444,0.394113940195417
2016-04-02 13:00:00,78.4645833333333,89,63.75,9.99530555555556,14.6765,6.2255,9.99530555555556,0.354954429677394
2016-04-03 13:00:00,62.4770833333333,89.9,34.45,13.9800555555556,20.6425,8.61783333333333,13.9800555555556,0.853884641025115
2016-04-04 13:00:00,68.10625,89.25,45.2,13.9343333333333,19.4605,7.00533333333333,13.9343333333333,0.673471726562289
2016-04-05 13:00:00,73.0625,91.7,48.7,11.9313472222222,18.2515,6.27483333333333,11.9313472222222,0.57739490074377
2016-04-06 13:00:00,74.6270833333333,97.75,49.25,10.2334930555556,14.8918333333333,7.79916666666667,10.2334930555556,0.441631877562764
2016-04-07 13:00:00,76.8958333333333,92.9,62.85,6.9488125,10.7313333333333,4.75233333333333,6.9488125,0.269951796273889
2016-04-08 13:00:00,84.2645833333333,93.5,69.7,5.08288194444444,6.59783333333333,4.05866666666667,5.08288194444444,0.174181009896268
2016-04-09 13:00:00,83.0395833333333,90.65,69.6,5.79265277777778,7.745,4.363,5.79265277777778,0.199252834925586
2016-04-10 13:00:00,64.8354166666667,90.35,44.65,9.60530555555555,15.119,4.62583333333333,9.60530555555555,0.516584801833682
2016-04-11 13:00:00,63.1270833333333,86.35,31.2,10.3108888888889,18.5208333333333,2.76066666666667,10.3108888888889,0.784445546002894
2016-04-12 13:00:00,70.4479166666667,93.65,41.2,11.4632152777778,18.3346666666667,5.59383333333333,11.4632152777778,0.648565141369372
2016-04-13 13:00:00,85.8666666666667,94.05,65.95,9.24990277777778,12.9235,7.14983333333333,9.24990277777778,0.283835593767063
2016-04-14 13:00:00,76.9645833333333,94.65,48.8,8.71395833333333,14.421,6.17866666666667,8.71395833333333,0.445883718743242
2016-04-15 13:00:00,81.0895833333333,94.2,65.25,9.46479861111111,13.4008333333333,6.65716666666667,9.46479861111111,0.295517145493753
2016-04-16 13:00:00,82.98125,93.9,60.75,10.3603541666667,15.9625,7.544,10.3603541666667,0.387702002740272
2016-04-17 13:00:00,88.3166666666667,95.7,70.9,8.7065,10.9108333333333,6.03833333333333,8.7065,0.210029054369808
2016-04-18 13:00:00,93.8104166666667,95.6,91.75,3.86410416666667,5.83816666666667,1.30266666666667,3.86410416666667,0.0529094539266483
2016-04-19 13:00:00,72.59375,94.15,42.15,7.02225694444444,13.6853333333333,2.4545,7.02225694444444,0.474359554951678
2016-04-20 13:00:00,59.6104166666667,86.3,38.5,10.2519652777778,16.5423333333333,4.03233333333333,10.2519652777778,0.634623369843125
2016-04-21 13:00:00,59,81.35,39.1,11.8490138888889,19.8726666666667,2.50966666666667,11.8490138888889,0.774653856246883
2016-04-22 13:00:00,56.3229166666667,77.15,37.1,14.0252152777778,20.0116666666667,7.65283333333333,14.0252152777778,0.855616565258574
2016-04-23 13:00:00,86.6645833333333,92.5,61.3,9.31099305555555,12.3361666666667,3.093,9.31099305555555,0.306075283965307
2016-04-24 13:00:00,75.2229166666667,92,42.8,3.88418055555556,7.3015,1.03,3.88418055555556,0.318843191935375
2016-04-25 13:00:00,72.5729166666667,93.9,46.7,3.15541666666667,6.9395,0.213166666666667,3.15541666666667,0.284808517445324
2016-04-26 13:00:00,75.9,92.05,57.6,4.91209027777778,6.93933333333333,1.48433333333333,4.91209027777778,0.238541657365907
2016-04-27 13:00:00,74.225,93.9,52.1,2.57933333333333,6.568,-0.386833333333333,2.59545138888889,0.251031116105395
2016-04-28 13:00:00,57.1729166666667,82.5,37.35,4.97672222222222,10.2615,-2.21816666666667,5.37552083333333,0.436860360604502
2016-04-29 13:00:00,54.7083333333333,81.65,33.15,7.93286111111111,15.9,-0.227333333333333,7.94409722222222,0.659011665313227
2016-04-30 13:00:00,67.5645833333333,91.9,33.9,9.75833333333333,17.4,5,9.75833333333333,0.692163364826319
2016-05-01 13:00:00,95.1791666666667,98.6,91.85,5.35,6.4,4.8,5.35,0.0451953779279404
2016-05-02 13:00:00,81.66875,97.55,50.85,9.1375,15.7,4.9,9.1375,0.448964527218673
2016-05-03 13:00:00,77.31875,91.65,45.45,9.71666666666667,15.3,6,9.71666666666667,0.513234120078752
2016-05-04 13:00:00,59.0229166666667,93.9,30.7,9.71666666666667,14.3,4.2,9.71666666666667,0.589948708499199
2016-05-05 13:00:00,50.6479166666667,73.1,29.7,11.8708333333333,18.2,4.4,11.8708333333333,0.847167550844528
2016-05-06 13:00:00,51.3625,85,27.7,15.1,21.9,7.1,15.1,1.02562787081403
2016-05-07 13:00:00,42.5458333333333,61.85,24.75,16.5083333333333,22.5,9.2,16.5083333333333,1.24747135247274
2016-05-08 13:00:00,48.4604166666667,70.7,25.3,16.3166666666667,23.8,8.9,16.3166666666667,1.26824219566072
2016-05-09 13:00:00,53.0875,71.2,35.45,16.8875,22.5,10.8,16.8875,1.06621582847261
2016-05-10 13:00:00,57.2916666666667,74.7,38.25,17.5416666666667,22.7,13.5,17.5416666666667,1.04755313342449
2016-05-11 13:00:00,69.3854166666667,89,55,16.0458333333333,19.7,12.2,16.0458333333333,0.594586135643896
2016-05-12 13:00:00,94.8166666666667,99.9,80.6,10.3208333333333,13.5,8.3,10.3208333333333,0.15065176557128
2016-05-13 13:00:00,99.59375,99.9,96.45,10.3875,12,8.3,10.3875,0.0254429517682557
2016-05-14 13:00:00,90.7479166666667,99.9,67.55,10.9416666666667,15.2,7.5,10.9416666666667,0.280793722899072
2016-05-15 13:00:00,64.5229166666667,93.15,40.95,8.55,12.1,6,8.55,0.448873000932088
2016-05-16 13:00:00,71.8791666666667,88.65,57.55,8.05416666666667,11.7,4.3,8.05416666666667,0.338992367770708
2016-05-17 13:00:00,68.11875,93,44.35,11.2625,16.3,6.1,11.2625,0.548670961385913
2016-05-18 13:00:00,63.3375,93.3,35.45,13.9458333333333,20.4,7.1,13.9458333333333,0.807363974683413
2016-05-19 13:00:00,87.2770833333333,97.3,66.65,9.00416666666667,11.7,6.7,9.00416666666667,0.24253998086129
2016-05-20 13:00:00,69.1020833333333,99.05,41,12.5375,18.8,5.9,12.5375,0.644597940370792
2016-05-21 13:00:00,57.0416666666667,85.55,29.8,17.0375,24.3,8.8,17.0375,1.14819646848035
2016-05-22 13:00:00,54.83125,75.25,28.7,18.5166666666667,28.1,11.8,18.5166666666667,1.52670278535068
2016-05-23 13:00:00,91.2708333333333,95.25,83.1,7.7125,10.4,5.7,7.7125,0.128328891546323
2016-05-24 13:00:00,79.8854166666667,98.25,60.3,10.8541666666667,14.3,7,10.8541666666667,0.33232005848607
2016-05-25 13:00:00,69.2354166666667,95.25,41.25,14.2416666666667,20.7,7.8,14.2416666666667,0.74233679335089
2016-05-26 13:00:00,57.7958333333333,89,33,19.1791666666667,25.3,10.7,19.1791666666667,1.15108931173723
2016-05-27 13:00:00,63.1645833333333,86.55,39.7,20.0291666666667,26.4,13.8,20.0291666666667,1.14380534248721
2016-05-28 13:00:00,79.3708333333333,97.75,57.2,18.2458333333333,22.7,15.3,18.2458333333333,0.609955231916436
2016-05-29 13:00:00,91.8854166666667,99,80.1,14.8375,17.6,12.9,14.8375,0.207698338596741
2016-05-30 13:00:00,76.9791666666667,98.55,61.6,14.7125,17.7,12.2,14.7125,0.399175703794103
2016-05-31 13:00:00,73.3020833333333,89.35,54.5,14.725,18.6,10.4,14.725,0.554729787370835
2016-06-01 13:00:00,80.0729166666667,94.15,48.95,15.0333333333333,20.3,12.4,15.0333333333333,0.65014032261882
2016-06-02 13:00:00,77.05625,98.1,56.6,15.1458333333333,18.3,12.4,15.1458333333333,0.47008407843341
2016-06-03 13:00:00,82.6104166666667,93.4,60.1,15.3958333333333,19.7,12.9,15.3958333333333,0.50699812022274
2016-06-04 13:00:00,83.4,93.3,66.8,15.5291666666667,19,13.8,15.5291666666667,0.417629441177286
2016-06-05 13:00:00,82.33125,91.6,63.45,16.0666666666667,19.8,13.7,16.0666666666667,0.48790436710113
2016-06-06 13:00:00,73.4791666666667,99.9,46.9,18.5625,24.1,13.3,18.5625,0.79776140037956
2016-06-07 13:00:00,74.6083333333333,90.35,50.9,18.9166666666667,24.7,14.5,18.9166666666667,0.843571557434071
2016-06-08 13:00:00,95.525,99.85,85.15,14.825,16,14,14.825,0.136206739670621
2016-06-09 13:00:00,80.9854166666667,99.9,45.3,15.9416666666667,20.4,11.9,15.9416666666667,0.656224318345744
2016-06-10 13:00:00,61.9708333333333,92.45,31,17.4625,24.6,10.3,17.4625,1.11440881675722
2016-06-11 13:00:00,80.9395833333333,94.65,64.5,15.7708333333333,18.8,13.1,15.7708333333333,0.425525366941055
2016-06-12 13:00:00,83.4229166666667,92.5,68.35,14.9833333333333,17.2,13.3,14.9833333333333,0.367832024545706
2016-06-13 13:00:00,92.5645833333333,98.85,84.1,13.7958333333333,16.7,12.1,13.7958333333333,0.15926310206726
2016-06-14 13:00:00,86.7375,98.45,70.55,14.1333333333333,16.9,12.2,14.1333333333333,0.294541514175745
2016-06-15 13:00:00,80.2458333333333,92.25,59.95,13.7875,16.8,10.6,13.7875,0.432670331705017
2016-06-16 13:00:00,90.1208333333333,98.25,76,13.225,15.9,11.3,13.225,0.228521934378679
2016-06-17 13:00:00,76.4895833333333,99.25,49.25,13.6333333333333,19.5,8.6,13.6333333333333,0.579411089156682
2016-06-18 13:00:00,77.0083333333333,93,53.5,14.3458333333333,19.8,10.1,14.3458333333333,0.580223561291721
2016-06-19 13:00:00,84.8041666666667,92.8,67.35,13.525,15.8,12,13.525,0.343556786415047
2016-06-20 13:00:00,70.7125,93.7,44.6,16.5333333333333,22.1,12.1,16.5333333333333,0.781317678495193
2016-06-21 13:00:00,84.5354166666667,97.35,70.9,16.5541666666667,19.2,12.9,16.5541666666667,0.343447862872255
2016-06-22 13:00:00,67.7916666666667,90.75,48.35,22.9791666666667,28.3,16.9,22.9791666666667,1.0824022660334
2016-06-23 13:00:00,62.7291666666667,88.75,43.35,25.25,32,17.8,25.25,1.46143754984426
2016-06-24 13:00:00,62.7375,90.1,36.55,25.0708333333333,32.2,18.9,25.0708333333333,1.6336788502822
2016-06-25 13:00:00,89.4666666666667,98.55,68.5,18.1875,23.1,14.7,18.1875,0.457296820631084
2016-06-26 13:00:00,72.9625,92.6,48.75,16.4166666666667,19.9,13.9,16.4166666666667,0.654251109730126
2016-06-27 13:00:00,59.025,83.85,33.2,17.9166666666667,22.6,13.9,17.9166666666667,1.04414032627806
2016-06-28 13:00:00,58.5020833333333,77.75,37.6,19.875,25.7,13.6,19.875,1.20359392433924
2016-06-29 13:00:00,68.7833333333333,88.7,48.3,20.8291666666667,26.5,16.2,20.8291666666667,0.999001239617843
2016-06-30 13:00:00,82.5791666666667,98.6,60.05,18.7458333333333,22.9,16.2,18.7458333333333,0.570691346713797
2016-07-01 13:00:00,75.3895833333333,99.35,49.55,20.6458333333333,26.5,15.3,20.6458333333333,0.878960607667
2016-07-02 13:00:00,88.1104166666667,93.25,77.85,15.9333333333333,18.1,12.8,15.9333333333333,0.279920264251445
2016-07-03 13:00:00,64.6333333333333,89.85,42.05,16.8541666666667,21.6,12.6,16.8541666666667,0.821644933461339
2016-07-04 13:00:00,61.8875,86.55,39.6,19.2875,26.1,11.4,19.2875,1.11182614823827
2016-07-05 13:00:00,63.9333333333333,87.3,45.2,20.4041666666667,25.3,14.5,20.4041666666667,0.988455176231931
2016-07-06 13:00:00,58.7979166666667,79.05,40.1,19.9291666666667,24,16.3,19.9291666666667,1.08782930691539
2016-07-07 13:00:00,54.2833333333333,82.05,30.8,20.0458333333333,25.9,13,20.0458333333333,1.29062553296362
2016-07-08 13:00:00,56.9416666666667,76.9,40.6,21.9375,27.9,14.6,21.9375,1.30807123691122
2016-07-09 13:00:00,55.625,72.55,35.5,22.8541666666667,28.2,17.5,22.8541666666667,1.50779368812745
2016-07-10 13:00:00,55.6979166666667,77.05,34.25,24.7125,31.4,16.6,24.7125,1.72768802449475
2016-07-11 13:00:00,68.4895833333333,92.85,45.7,23.2416666666667,28.7,18.7,23.2416666666667,1.14592709683855
2016-07-12 13:00:00,96.2604166666667,99.25,92.4,16.3916666666667,18.2,13.6,16.3916666666667,0.0852642552203229
2016-07-13 13:00:00,89.60625,98.4,79.75,12.9166666666667,15.2,10.1,12.9166666666667,0.184791896504225
2016-07-14 13:00:00,90.8479166666667,94.35,83.7,10.925,13.3,9.1,10.925,0.157137005381357
2016-07-15 13:00:00,76.8791666666667,94.3,49.85,12.9708333333333,17.6,9.2,12.9708333333333,0.537835560623527
2016-07-16 13:00:00,63.75625,91.75,38.95,15.1583333333333,20.7,7.9,15.1583333333333,0.789232495382258
2016-07-17 13:00:00,59.3229166666667,82.95,40.1,19.4375,26.3,10.4,19.4375,1.1322667053297
2016-07-18 13:00:00,61.1020833333333,84.85,40.15,22.4083333333333,28.2,14.9,22.4083333333333,1.27273412776675
2016-07-19 13:00:00,59.1854166666667,86.85,33.5,23.4125,29.9,16.3,23.4125,1.52460968103162
2016-07-20 13:00:00,53.4645833333333,81,29.4,25.2333333333333,33.4,16.3,25.2333333333333,1.99194687181062
2016-07-21 13:00:00,69.0520833333333,90.35,51.1,23.2208333333333,28.4,18.6,23.2208333333333,1.04934430681443
