"Plot_ID","FH_date"
"FPWW0180001",2017-06-08
"FPWW0180002",2017-06-02
"FPWW0180003",2017-06-02
"FPWW0180004",2017-06-08
"FPWW0180005",2017-06-08
"FPWW0180006",2017-06-08
"FPWW0180007",2017-06-08
"FPWW0180008",2017-06-02
"FPWW0180009",2017-06-02
"FPWW0180010",2017-06-08
"FPWW0180011",2017-06-12
"FPWW0180012",2017-06-12
"FPWW0180013",2017-06-02
"FPWW0180014",2017-06-08
"FPWW0180015",2017-06-02
"FPWW0180016",2017-06-12
"FPWW0180017",2017-06-08
"FPWW0180018",2017-06-08
"FPWW0180036",2017-06-08
"FPWW0180035",2017-06-08
"FPWW0180034",2017-06-08
"FPWW0180033",2017-06-08
"FPWW0180032",2017-06-12
"FPWW0180031",2017-06-12
"FPWW0180030",2017-06-08
"FPWW0180029",2017-06-08
"FPWW0180028",2017-06-08
"FPWW0180027",2017-06-02
"FPWW0180026",2017-06-08
"FPWW0180025",2017-06-12
"FPWW0180024",2017-06-02
"FPWW0180023",2017-06-02
"FPWW0180022",2017-06-02
"FPWW0180021",2017-06-02
"FPWW0180020",2017-06-08
"FPWW0180019",2017-06-12
"FPWW0180037",2017-06-08
"FPWW0180038",2017-06-08
"FPWW0180039",2017-06-08
"FPWW0180040",2017-06-08
"FPWW0180041",2017-06-12
"FPWW0180042",2017-06-02
"FPWW0180043",2017-06-08
"FPWW0180044",2017-06-02
"FPWW0180045",2017-06-02
"FPWW0180046",2017-06-02
"FPWW0180047",2017-06-08
"FPWW0180048",2017-06-02
"FPWW0180049",2017-06-02
"FPWW0180050",2017-05-29
"FPWW0180051",2017-06-02
"FPWW0180052",2017-06-08
"FPWW0180053",2017-06-08
"FPWW0180054",2017-06-02
"FPWW0180072",2017-06-02
"FPWW0180071",2017-06-02
"FPWW0180070",2017-06-02
"FPWW0180069",2017-06-02
"FPWW0180068",2017-06-08
"FPWW0180067",2017-06-02
"FPWW0180066",2017-06-02
"FPWW0180065",2017-06-08
"FPWW0180064",2017-06-08
"FPWW0180063",2017-06-08
"FPWW0180062",2017-06-02
"FPWW0180061",2017-06-02
"FPWW0180060",2017-06-02
"FPWW0180059",2017-06-08
"FPWW0180058",2017-06-08
"FPWW0180057",2017-06-12
"FPWW0180056",2017-06-08
"FPWW0180055",2017-06-08
"FPWW0180073",2017-06-02
"FPWW0180074",2017-06-08
"FPWW0180075",2017-06-02
"FPWW0180076",2017-06-02
"FPWW0180077",2017-06-02
"FPWW0180078",2017-06-12
"FPWW0180079",2017-06-08
"FPWW0180080",2017-06-08
"FPWW0180081",2017-06-02
"FPWW0180082",2017-06-02
"FPWW0180083",2017-06-12
"FPWW0180084",2017-06-08
"FPWW0180085",2017-06-08
"FPWW0180086",2017-06-02
"FPWW0180087",2017-06-12
"FPWW0180088",2017-06-02
"FPWW0180089",2017-06-02
"FPWW0180090",2017-06-02
"FPWW0180108",2017-06-02
"FPWW0180107",2017-06-02
"FPWW0180106",2017-06-08
"FPWW0180105",2017-06-02
"FPWW0180104",2017-06-02
"FPWW0180103",2017-06-02
"FPWW0180102",2017-06-02
"FPWW0180101",2017-06-08
"FPWW0180100",2017-06-02
"FPWW0180099",2017-06-12
"FPWW0180098",2017-06-02
"FPWW0180097",2017-06-08
"FPWW0180096",2017-06-02
"FPWW0180095",2017-06-02
"FPWW0180094",2017-06-08
"FPWW0180093",2017-06-08
"FPWW0180092",2017-06-08
"FPWW0180091",2017-06-02
"FPWW0180109",2017-06-02
"FPWW0180110",2017-06-08
"FPWW0180111",2017-06-08
"FPWW0180112",2017-06-02
"FPWW0180113",2017-06-08
"FPWW0180114",2017-06-02
"FPWW0180115",2017-06-02
"FPWW0180116",2017-06-02
"FPWW0180117",2017-06-02
"FPWW0180118",2017-06-08
"FPWW0180119",2017-06-08
"FPWW0180120",2017-06-02
"FPWW0180121",2017-06-02
"FPWW0180122",2017-06-12
"FPWW0180123",2017-06-02
"FPWW0180124",2017-06-02
"FPWW0180125",2017-06-08
"FPWW0180126",2017-06-02
"FPWW0180144",2017-06-08
"FPWW0180143",2017-06-02
"FPWW0180142",2017-06-02
"FPWW0180141",2017-06-02
"FPWW0180140",2017-06-08
"FPWW0180139",2017-06-08
"FPWW0180138",2017-06-08
"FPWW0180137",2017-06-08
"FPWW0180136",2017-06-02
"FPWW0180135",2017-06-02
"FPWW0180134",2017-06-02
"FPWW0180133",2017-06-02
"FPWW0180132",2017-06-02
"FPWW0180131",2017-06-08
"FPWW0180130",2017-06-12
"FPWW0180129",2017-06-08
"FPWW0180128",2017-06-08
"FPWW0180127",2017-06-02
"FPWW0180145",2017-06-08
"FPWW0180146",2017-06-02
"FPWW0180147",2017-06-08
"FPWW0180148",2017-06-08
"FPWW0180149",2017-06-02
"FPWW0180150",2017-06-08
"FPWW0180151",2017-06-12
"FPWW0180152",2017-06-08
"FPWW0180153",2017-06-02
"FPWW0180154",2017-06-08
"FPWW0180155",2017-06-02
"FPWW0180156",2017-06-02
"FPWW0180157",2017-06-02
"FPWW0180158",2017-06-08
"FPWW0180159",2017-06-08
"FPWW0180160",2017-06-02
"FPWW0180161",2017-06-08
"FPWW0180162",2017-06-12
"FPWW0180180",2017-06-02
"FPWW0180179",2017-06-02
"FPWW0180178",2017-06-08
"FPWW0180177",2017-06-02
"FPWW0180176",2017-06-02
"FPWW0180175",2017-06-08
"FPWW0180174",2017-06-08
"FPWW0180173",2017-06-08
"FPWW0180172",2017-06-02
"FPWW0180171",2017-06-08
"FPWW0180170",2017-06-08
"FPWW0180169",2017-06-02
"FPWW0180168",2017-06-08
"FPWW0180167",2017-06-02
"FPWW0180166",2017-06-08
"FPWW0180165",2017-06-02
"FPWW0180164",2017-06-02
"FPWW0180163",2017-06-02
"FPWW0180181",2017-06-02
"FPWW0180182",2017-06-02
"FPWW0180183",2017-06-08
"FPWW0180184",2017-06-02
"FPWW0180185",2017-06-08
"FPWW0180186",2017-06-02
"FPWW0180187",2017-06-12
"FPWW0180188",2017-06-08
"FPWW0180189",2017-06-08
"FPWW0180190",2017-06-08
"FPWW0180191",2017-06-12
"FPWW0180192",2017-06-08
"FPWW0180193",2017-06-08
"FPWW0180194",2017-06-08
"FPWW0180195",2017-06-08
"FPWW0180196",2017-06-02
"FPWW0180197",2017-06-02
"FPWW0180198",2017-06-08
"FPWW0180216",2017-06-02
"FPWW0180215",2017-06-08
"FPWW0180214",2017-06-02
"FPWW0180213",2017-06-02
"FPWW0180212",2017-06-02
"FPWW0180211",2017-06-08
"FPWW0180210",2017-06-08
"FPWW0180209",2017-06-02
"FPWW0180208",2017-06-02
"FPWW0180207",2017-06-02
"FPWW0180206",2017-05-29
"FPWW0180205",2017-06-08
"FPWW0180204",2017-06-08
"FPWW0180203",2017-06-08
"FPWW0180202",2017-06-08
"FPWW0180201",2017-06-02
"FPWW0180200",2017-06-02
"FPWW0180199",2017-06-02
"FPWW0180217",2017-06-08
"FPWW0180218",2017-06-12
"FPWW0180219",2017-06-12
"FPWW0180220",2017-06-08
"FPWW0180221",2017-06-08
"FPWW0180222",2017-06-02
"FPWW0180223",2017-06-02
"FPWW0180224",2017-06-02
"FPWW0180225",2017-06-08
"FPWW0180226",2017-06-02
"FPWW0180227",2017-06-08
"FPWW0180228",2017-06-08
"FPWW0180229",2017-06-08
"FPWW0180230",2017-06-08
"FPWW0180231",2017-06-02
"FPWW0180232",2017-06-08
"FPWW0180233",2017-06-08
"FPWW0180234",2017-06-08
"FPWW0180252",2017-06-08
"FPWW0180251",2017-06-08
"FPWW0180250",2017-06-02
"FPWW0180249",2017-06-08
"FPWW0180248",2017-06-12
"FPWW0180247",2017-06-02
"FPWW0180246",2017-06-08
"FPWW0180245",2017-06-02
"FPWW0180244",2017-06-08
"FPWW0180243",2017-06-02
"FPWW0180242",2017-06-02
"FPWW0180241",2017-06-02
"FPWW0180240",2017-06-02
"FPWW0180239",2017-06-08
"FPWW0180238",2017-06-02
"FPWW0180237",2017-06-08
"FPWW0180236",2017-06-02
"FPWW0180235",2017-06-08
"FPWW0180253",2017-06-08
"FPWW0180254",2017-06-02
"FPWW0180255",2017-06-08
"FPWW0180256",2017-06-02
"FPWW0180257",2017-06-12
"FPWW0180258",2017-06-08
"FPWW0180259",2017-06-08
"FPWW0180260",2017-06-08
"FPWW0180261",2017-06-12
"FPWW0180262",2017-06-08
"FPWW0180263",2017-06-02
"FPWW0180264",2017-06-12
"FPWW0180265",2017-06-02
"FPWW0180266",2017-06-08
"FPWW0180267",2017-06-08
"FPWW0180268",2017-06-08
"FPWW0180269",2017-06-02
"FPWW0180270",2017-06-08
"FPWW0180288",2017-06-08
"FPWW0180287",2017-06-08
"FPWW0180286",2017-06-02
"FPWW0180285",2017-06-08
"FPWW0180284",2017-06-02
"FPWW0180283",2017-06-02
"FPWW0180282",2017-06-08
"FPWW0180281",2017-06-02
"FPWW0180280",2017-06-02
"FPWW0180279",2017-06-02
"FPWW0180278",2017-06-02
"FPWW0180277",2017-06-02
"FPWW0180276",2017-06-08
"FPWW0180275",2017-06-02
"FPWW0180274",2017-06-08
"FPWW0180273",2017-06-12
"FPWW0180272",2017-06-02
"FPWW0180271",2017-06-08
"FPWW0180289",2017-06-12
"FPWW0180290",2017-06-08
"FPWW0180291",2017-06-02
"FPWW0180292",2017-06-02
"FPWW0180293",2017-06-02
"FPWW0180294",2017-06-08
"FPWW0180295",2017-06-02
"FPWW0180296",2017-06-12
"FPWW0180297",2017-06-08
"FPWW0180298",2017-06-08
"FPWW0180299",2017-06-02
"FPWW0180300",2017-06-02
"FPWW0180301",2017-06-08
"FPWW0180302",2017-06-08
"FPWW0180303",2017-06-08
"FPWW0180304",2017-06-02
"FPWW0180305",2017-06-02
"FPWW0180306",2017-06-02
"FPWW0180324",2017-06-02
"FPWW0180323",2017-06-02
"FPWW0180322",2017-06-02
"FPWW0180321",2017-06-02
"FPWW0180320",2017-06-02
"FPWW0180319",2017-06-08
"FPWW0180318",2017-06-08
"FPWW0180317",2017-06-08
"FPWW0180316",2017-06-02
"FPWW0180315",2017-06-08
"FPWW0180314",2017-06-08
"FPWW0180313",2017-06-08
"FPWW0180312",2017-06-02
"FPWW0180311",2017-06-08
"FPWW0180310",2017-06-12
"FPWW0180309",2017-06-08
"FPWW0180308",2017-06-02
"FPWW0180307",2017-06-08
"FPWW0180325",2017-06-02
"FPWW0180326",2017-06-08
"FPWW0180327",2017-06-08
"FPWW0180328",2017-06-08
"FPWW0180329",2017-06-12
"FPWW0180330",2017-06-08
"FPWW0180331",2017-06-08
"FPWW0180332",2017-06-08
"FPWW0180333",2017-06-08
"FPWW0180334",2017-06-02
"FPWW0180335",2017-06-08
"FPWW0180336",2017-06-02
"FPWW0180337",2017-06-02
"FPWW0180338",2017-06-08
"FPWW0180339",2017-06-08
"FPWW0180340",2017-06-08
"FPWW0180341",2017-06-02
"FPWW0180342",2017-06-02
"FPWW0180360",2017-06-08
"FPWW0180359",2017-06-08
"FPWW0180358",2017-06-08
"FPWW0180357",2017-06-08
"FPWW0180356",2017-06-08
"FPWW0180355",2017-06-02
"FPWW0180354",2017-06-02
"FPWW0180353",2017-06-02
"FPWW0180352",2017-06-02
"FPWW0180351",2017-06-08
"FPWW0180350",2017-06-02
"FPWW0180349",2017-06-08
"FPWW0180348",2017-06-02
"FPWW0180347",2017-06-02
"FPWW0180346",2017-06-08
"FPWW0180345",2017-06-02
"FPWW0180344",2017-06-12
"FPWW0180343",2017-06-08
"FPWW0180361",2017-06-02
"FPWW0180362",2017-06-02
"FPWW0180363",2017-06-08
"FPWW0180364",2017-06-02
"FPWW0180365",2017-06-08
"FPWW0180366",2017-06-02
"FPWW0180367",2017-06-02
"FPWW0180368",2017-06-02
"FPWW0180369",2017-06-02
"FPWW0180370",2017-06-08
"FPWW0180371",2017-06-02
"FPWW0180372",2017-06-02
"FPWW0180373",2017-06-08
"FPWW0180374",2017-05-29
"FPWW0180375",2017-06-02
"FPWW0180376",2017-06-08
"FPWW0180377",2017-06-08
"FPWW0180378",2017-06-02
"FPWW0180379",2017-06-08
"FPWW0180380",2017-06-08
"FPWW0180381",2017-06-02
"FPWW0180382",2017-06-12
"FPWW0180383",2017-06-08
"FPWW0180384",2017-06-08
"FPWW0180385",2017-06-08
"FPWW0180386",2017-06-08
"FPWW0180387",2017-06-08
"FPWW0180388",2017-06-02
"FPWW0180389",2017-06-08
"FPWW0180390",2017-06-02
"FPWW0180391",2017-06-02
"FPWW0180392",2017-06-08
"FPWW0180393",2017-06-02
"FPWW0180394",2017-06-08
"FPWW0180395",2017-06-02
"FPWW0180396",2017-06-02
"FPWW0180414",2017-06-08
"FPWW0180413",2017-06-08
"FPWW0180412",2017-06-12
"FPWW0180411",2017-06-02
"FPWW0180410",2017-06-08
"FPWW0180409",2017-06-08
"FPWW0180408",2017-06-02
"FPWW0180407",2017-06-08
"FPWW0180406",2017-06-02
"FPWW0180405",2017-06-02
"FPWW0180404",2017-06-02
"FPWW0180403",2017-06-08
"FPWW0180402",2017-06-08
"FPWW0180401",2017-06-08
"FPWW0180400",2017-06-02
"FPWW0180399",2017-06-08
"FPWW0180398",2017-06-02
"FPWW0180397",2017-06-02
"FPWW0180415",2017-06-02
"FPWW0180416",2017-06-12
"FPWW0180417",2017-06-12
"FPWW0180418",2017-06-08
"FPWW0180419",2017-06-12
"FPWW0180420",2017-06-02
"FPWW0180421",2017-06-08
"FPWW0180422",2017-06-08
"FPWW0180423",2017-06-12
"FPWW0180424",2017-06-08
"FPWW0180425",2017-06-02
"FPWW0180426",2017-06-08
"FPWW0180427",2017-06-02
"FPWW0180428",2017-06-12
"FPWW0180429",2017-06-08
"FPWW0180430",2017-06-02
"FPWW0180431",2017-06-08
"FPWW0180432",2017-06-02
"FPWW0180450",2017-06-08
"FPWW0180449",2017-06-08
"FPWW0180448",2017-06-02
"FPWW0180447",2017-06-12
"FPWW0180446",2017-06-08
"FPWW0180445",2017-06-02
"FPWW0180444",2017-06-08
"FPWW0180443",2017-06-02
"FPWW0180442",2017-06-08
"FPWW0180441",2017-06-08
"FPWW0180440",2017-06-08
"FPWW0180439",2017-06-08
"FPWW0180438",2017-06-12
"FPWW0180437",2017-06-12
"FPWW0180436",2017-06-08
"FPWW0180435",2017-06-08
"FPWW0180434",2017-06-08
"FPWW0180433",2017-06-02
"FPWW0180451",2017-06-02
"FPWW0180452",2017-06-02
"FPWW0180453",2017-06-02
"FPWW0180454",2017-06-02
"FPWW0180455",2017-06-02
"FPWW0180456",2017-06-02
"FPWW0180457",2017-06-08
"FPWW0180458",2017-06-02
"FPWW0180459",2017-06-08
"FPWW0180460",2017-06-02
"FPWW0180461",2017-06-12
"FPWW0180462",2017-06-02
"FPWW0180463",2017-06-08
"FPWW0180464",2017-06-08
"FPWW0180465",2017-06-08
"FPWW0180466",2017-06-02
"FPWW0180467",2017-06-08
"FPWW0180468",2017-06-02
"FPWW0180486",2017-06-08
"FPWW0180485",2017-06-02
"FPWW0180484",2017-06-02
"FPWW0180483",2017-06-08
"FPWW0180482",2017-06-08
"FPWW0180481",2017-06-08
"FPWW0180480",2017-06-02
"FPWW0180479",2017-06-08
"FPWW0180478",2017-06-08
"FPWW0180477",2017-06-02
"FPWW0180476",2017-06-12
"FPWW0180475",2017-06-12
"FPWW0180474",2017-06-08
"FPWW0180473",2017-06-02
"FPWW0180472",2017-06-08
"FPWW0180471",2017-06-12
"FPWW0180470",2017-06-08
"FPWW0180469",2017-06-08
"FPWW0180487",2017-06-12
"FPWW0180488",2017-06-12
"FPWW0180489",2017-06-08
"FPWW0180490",2017-06-08
"FPWW0180491",2017-06-02
"FPWW0180492",2017-06-08
"FPWW0180493",2017-06-08
"FPWW0180494",2017-06-08
"FPWW0180495",2017-06-02
"FPWW0180496",2017-06-02
"FPWW0180497",2017-06-08
"FPWW0180498",2017-06-08
"FPWW0180499",2017-06-02
"FPWW0180500",2017-06-12
"FPWW0180501",2017-06-08
"FPWW0180502",2017-06-12
"FPWW0180503",2017-06-08
"FPWW0180504",2017-06-02
"FPWW0180522",2017-06-02
"FPWW0180521",2017-06-12
"FPWW0180520",2017-06-02
"FPWW0180519",2017-06-02
"FPWW0180518",2017-06-08
"FPWW0180517",2017-06-02
"FPWW0180516",2017-06-08
"FPWW0180515",2017-06-02
"FPWW0180514",2017-06-08
"FPWW0180513",2017-06-02
"FPWW0180512",2017-06-08
"FPWW0180511",2017-06-08
"FPWW0180510",2017-06-08
"FPWW0180509",2017-06-02
"FPWW0180508",2017-06-08
"FPWW0180507",2017-06-08
"FPWW0180506",2017-06-08
"FPWW0180505",2017-06-02
"FPWW0180523",2017-06-02
"FPWW0180524",2017-06-02
"FPWW0180525",2017-06-02
"FPWW0180526",2017-06-08
"FPWW0180527",2017-06-08
"FPWW0180528",2017-06-08
"FPWW0180529",2017-06-02
"FPWW0180530",2017-06-02
"FPWW0180531",2017-06-08
"FPWW0180532",2017-06-08
"FPWW0180533",2017-06-02
"FPWW0180534",2017-06-08
"FPWW0180535",2017-06-02
"FPWW0180536",2017-06-02
"FPWW0180537",2017-06-08
"FPWW0180538",2017-06-08
"FPWW0180539",2017-06-02
"FPWW0180540",2017-06-08
"FPWW0180558",2017-06-08
"FPWW0180557",2017-06-02
"FPWW0180556",2017-06-08
"FPWW0180555",2017-06-08
"FPWW0180554",2017-06-02
"FPWW0180553",2017-06-02
"FPWW0180552",2017-06-08
"FPWW0180551",2017-06-02
"FPWW0180550",2017-06-02
"FPWW0180549",2017-06-02
"FPWW0180548",2017-06-02
"FPWW0180547",2017-06-12
"FPWW0180546",2017-06-08
"FPWW0180545",2017-06-02
"FPWW0180544",2017-06-08
"FPWW0180543",2017-06-08
"FPWW0180542",2017-06-23
"FPWW0180541",2017-06-02
"FPWW0180559",2017-06-02
"FPWW0180560",2017-06-02
"FPWW0180561",2017-06-02
"FPWW0180562",2017-06-02
"FPWW0180563",2017-06-02
"FPWW0180564",2017-06-02
"FPWW0180565",2017-06-08
"FPWW0180566",2017-06-02
"FPWW0180567",2017-06-02
"FPWW0180568",2017-06-08
"FPWW0180569",2017-06-02
"FPWW0180570",2017-06-08
"FPWW0180571",2017-06-02
"FPWW0180572",2017-06-08
"FPWW0180573",2017-06-02
"FPWW0180574",2017-06-02
"FPWW0180575",2017-06-02
"FPWW0180576",2017-06-08
"FPWW0180594",2017-05-29
"FPWW0180593",2017-06-08
"FPWW0180592",2017-06-08
"FPWW0180591",2017-06-08
"FPWW0180590",2017-06-02
"FPWW0180589",2017-06-12
"FPWW0180588",2017-06-12
"FPWW0180587",2017-06-08
"FPWW0180586",2017-06-02
"FPWW0180585",2017-06-02
"FPWW0180584",2017-06-02
"FPWW0180583",2017-06-02
"FPWW0180582",2017-06-08
"FPWW0180581",2017-06-02
"FPWW0180580",2017-06-08
"FPWW0180579",2017-06-02
"FPWW0180578",2017-06-08
"FPWW0180577",2017-06-08
"FPWW0180595",2017-06-08
"FPWW0180596",2017-06-12
"FPWW0180597",2017-06-02
"FPWW0180598",2017-06-02
"FPWW0180599",2017-06-08
"FPWW0180600",2017-06-12
"FPWW0180601",2017-06-23
"FPWW0180602",2017-06-02
"FPWW0180603",2017-06-02
"FPWW0180604",2017-06-08
"FPWW0180605",2017-06-02
"FPWW0180606",2017-06-02
"FPWW0180607",2017-06-02
"FPWW0180608",2017-06-02
"FPWW0180609",2017-06-08
"FPWW0180610",2017-06-12
"FPWW0180611",2017-06-02
"FPWW0180612",2017-06-08
"FPWW0180630",2017-06-02
"FPWW0180629",2017-06-08
"FPWW0180628",2017-06-08
"FPWW0180627",2017-06-08
"FPWW0180626",2017-06-08
"FPWW0180625",2017-06-02
"FPWW0180624",2017-06-02
"FPWW0180623",2017-06-02
"FPWW0180622",2017-06-08
"FPWW0180621",2017-05-29
"FPWW0180620",2017-06-02
"FPWW0180619",2017-06-02
"FPWW0180618",2017-06-02
"FPWW0180617",2017-06-02
"FPWW0180616",2017-06-02
"FPWW0180615",2017-06-08
"FPWW0180614",2017-06-02
"FPWW0180613",2017-06-02
"FPWW0180631",2017-06-02
"FPWW0180632",2017-06-08
"FPWW0180633",2017-06-02
"FPWW0180634",2017-06-08
"FPWW0180635",2017-06-08
"FPWW0180636",2017-06-08
"FPWW0180637",2017-06-08
"FPWW0180638",2017-06-08
"FPWW0180639",2017-06-02
"FPWW0180640",2017-06-02
"FPWW0180641",2017-06-08
"FPWW0180642",2017-06-08
"FPWW0180643",2017-06-02
"FPWW0180644",2017-06-02
"FPWW0180645",2017-06-08
"FPWW0180646",2017-06-08
"FPWW0180647",2017-06-08
"FPWW0180648",2017-06-08
"FPWW0180666",2017-06-02
"FPWW0180665",2017-06-08
"FPWW0180664",2017-06-08
"FPWW0180663",2017-06-08
"FPWW0180662",2017-06-02
"FPWW0180661",2017-06-08
"FPWW0180660",2017-06-08
"FPWW0180659",2017-06-12
"FPWW0180658",2017-06-02
"FPWW0180657",2017-06-08
"FPWW0180656",2017-06-08
"FPWW0180655",2017-06-02
"FPWW0180654",2017-06-02
"FPWW0180653",2017-06-02
"FPWW0180652",2017-06-08
"FPWW0180651",2017-06-08
"FPWW0180650",2017-06-02
"FPWW0180649",2017-06-02
"FPWW0180667",2017-06-02
"FPWW0180668",2017-06-08
"FPWW0180669",2017-06-08
"FPWW0180670",2017-06-12
"FPWW0180671",2017-06-02
"FPWW0180672",2017-06-08
"FPWW0180673",2017-06-02
"FPWW0180674",2017-06-08
"FPWW0180675",2017-06-02
"FPWW0180676",2017-06-02
"FPWW0180677",2017-06-08
"FPWW0180678",2017-06-08
"FPWW0180679",2017-06-02
"FPWW0180680",2017-06-02
"FPWW0180681",2017-06-08
"FPWW0180682",2017-06-02
"FPWW0180683",2017-06-08
"FPWW0180684",2017-06-02
"FPWW0180702",2017-06-08
"FPWW0180701",2017-06-02
"FPWW0180700",2017-06-08
"FPWW0180699",2017-06-08
"FPWW0180698",2017-06-08
"FPWW0180697",2017-06-08
"FPWW0180696",2017-06-02
"FPWW0180695",2017-06-08
"FPWW0180694",2017-06-08
"FPWW0180693",2017-06-08
"FPWW0180692",2017-06-08
"FPWW0180691",2017-06-02
"FPWW0180690",2017-06-02
"FPWW0180689",2017-06-12
"FPWW0180688",2017-06-02
"FPWW0180687",2017-06-02
"FPWW0180686",2017-06-12
"FPWW0180685",2017-06-08
"FPWW0180703",2017-06-02
"FPWW0180704",2017-06-08
"FPWW0180705",2017-06-08
"FPWW0180706",2017-06-08
"FPWW0180707",2017-06-08
"FPWW0180708",2017-06-08
"FPWW0180709",2017-06-08
"FPWW0180710",2017-06-02
"FPWW0180711",2017-06-08
"FPWW0180712",2017-06-02
"FPWW0180713",2017-06-08
"FPWW0180714",2017-06-02
"FPWW0180715",2017-06-02
"FPWW0180716",2017-06-02
"FPWW0180717",2017-06-02
"FPWW0180718",2017-06-02
"FPWW0180719",2017-06-02
"FPWW0180720",2017-06-08
"FPWW0180738",2017-06-02
"FPWW0180737",2017-06-02
"FPWW0180736",2017-06-02
"FPWW0180735",2017-06-08
"FPWW0180734",2017-06-08
"FPWW0180733",2017-06-02
"FPWW0180732",2017-06-02
"FPWW0180731",2017-06-08
"FPWW0180730",2017-06-08
"FPWW0180729",2017-06-02
"FPWW0180728",2017-06-12
"FPWW0180727",2017-06-08
"FPWW0180726",2017-06-02
"FPWW0180725",2017-06-02
"FPWW0180724",2017-06-08
"FPWW0180723",2017-06-02
"FPWW0180722",2017-06-02
"FPWW0180721",2017-06-08
"FPWW0180739",2017-06-02
"FPWW0180740",2017-06-02
"FPWW0180741",2017-06-08
"FPWW0180742",2017-06-08
"FPWW0180743",2017-06-08
"FPWW0180744",2017-06-08
"FPWW0180745",2017-06-02
"FPWW0180746",2017-06-02
"FPWW0180747",2017-06-08
"FPWW0180748",2017-06-08
"FPWW0180749",2017-06-08
"FPWW0180750",2017-06-08
"FPWW0180751",2017-06-08
"FPWW0180752",2017-06-02
"FPWW0180753",2017-06-02
"FPWW0180754",2017-06-08
"FPWW0180755",2017-06-08
"FPWW0180756",2017-06-08
